000100**************************************************************/   30930413
000200*  PROGRAM: PPBENUCR                                         */   30930413
000300*  RELEASE: ____0413____  SERVICE REQUEST(S): ____3093____   */   30930413
000400*  NAME:____JIM WILLIAMS__CREATION DATE:      __05/23/89__   */   30930413
000500*  DESCRIPTION:                                              */   30930413
000600*  - CHANGED FOR CONVERSION FROM OS/VS COBOL TO VS COBOL II. */   30930413
000700**************************************************************/   30930413
000800**************************************************************/   14240278
000900*  PROGRAM:  PPBENUCR                                        */   14240278
001000*  REL#:  0278   REF: NONE  SERVICE REQUESTS:   ____1424____ */   14240278
001100*  NAME ___BMB_________   MODIFICATION DATE ____01/27/87_____*/   14240278
001200*  DESCRIPTION                                               */   14240278
001300*      THIS CODE WAS REMOVED FROM USER40 AND PLACED IN       */   14240278
001400*   THIS STAND ALONE CALLED MODULE.                          */   14240278
001500*                                                            */   14240278
001600**************************************************************/   14240278
001700 IDENTIFICATION DIVISION.                                         PPBENUCR
001800 PROGRAM-ID. PPBENUCR.                                            PPBENUCR
001900*SOURCE-COMPUTER.                          COPY 'CPOTXUCS'.       30930413
002000*OBJECT-COMPUTER.                          COPY 'CPOTXOBJ'.       30930413
002100 INSTALLATION. UNIVERSITY OF CALIFORNIA.                          PPBENUCR
002200     EJECT                                                        PPBENUCR
002300 AUTHOR.                                                          PPBENUCR
002400******************************************************************PPBENUCR
002500******************************************************************PPBENUCR
002600*NOTE NOTE NOTE NOTE NOTE NOTE NOTE NOTE NOTE NOTE NOTE NOTE NOTE*PPBENUCR
002700******************************************************************PPBENUCR
002800******************************************************************PPBENUCR
002900* CONSULTANT SERVICES PROVIDED BY:                               *PPBENUCR
003000*                 BRUCE M. BRISCOE                               *PPBENUCR
003100*                 CREATIVELY APPLIED TECHNOLOGIES, INC.          *PPBENUCR
003200*                 7548 BRAIDBURN AVE.                            *PPBENUCR
003300*                 NEWARK, CA 94560                               *PPBENUCR
003400*                  (415) 791-7636                                *PPBENUCR
003500******************************************************************PPBENUCR
003600******************************************************************PPBENUCR
003700*NOTE NOTE NOTE NOTE NOTE NOTE NOTE NOTE NOTE NOTE NOTE NOTE NOTE*PPBENUCR
003800******************************************************************PPBENUCR
003900******************************************************************PPBENUCR
004000 DATE-WRITTEN.                                                    PPBENUCR
004100 DATE-COMPILED.                                                   PPBENUCR
004200*REMARKS.                                                         30930413
004300******************************************************************PPBENUCR
004400*                                                                *PPBENUCR
004500*  THIS MODULE PERFORMS UCRS RETIREMENT DEDUCTION CALCULATIONS.  *PPBENUCR
004600*                                                                *PPBENUCR
004700******************************************************************PPBENUCR
004800 ENVIRONMENT DIVISION.                                            PPBENUCR
004900 CONFIGURATION SECTION.                                           PPBENUCR
005000 SOURCE-COMPUTER.                          COPY 'CPOTXUCS'.       30930413
005100 OBJECT-COMPUTER.                          COPY 'CPOTXOBJ'.       30930413
005200 SPECIAL-NAMES.                                                   PPBENUCR
005300 INPUT-OUTPUT SECTION.                                            PPBENUCR
005400 FILE-CONTROL.                                                    PPBENUCR
005500     EJECT                                                        PPBENUCR
005600******************************************************************PPBENUCR
005700*>>>>>>>>>>>>>>>>>>>>>>>>>>>>>><<<<<<<<<<<<<<<<<<<<<<<<<<<<<<<<<<*PPBENUCR
005800*>>>>>>>>*******************************************<<<<<<<<<<<<<*PPBENUCR
005900*>>>>>>>*                                           *<<<<<<<<<<<<*PPBENUCR
006000*>>>>>>*                  DATA DIVISION              *<<<<<<<<<<<*PPBENUCR
006100*>>>>>>>*                                           *<<<<<<<<<<<<*PPBENUCR
006200*>>>>>>>>*******************************************<<<<<<<<<<<<<*PPBENUCR
006300*>>>>>>>>>>>>>>>>>>>>>>>>>>>>>><<<<<<<<<<<<<<<<<<<<<<<<<<<<<<<<<<*PPBENUCR
006400******************************************************************PPBENUCR
006500 DATA DIVISION.                                                   PPBENUCR
006600 FILE SECTION.                                                    PPBENUCR
006700     EJECT                                                        PPBENUCR
006800******************************************************************PPBENUCR
006900*................................................................*PPBENUCR
007000*........*******************************************.............*PPBENUCR
007100*.......*                                           *............*PPBENUCR
007200*......*            WORKING STORAGE SECTION          *...........*PPBENUCR
007300*.......*                                           *............*PPBENUCR
007400*........*******************************************.............*PPBENUCR
007500*................................................................*PPBENUCR
007600******************************************************************PPBENUCR
007700     SKIP1                                                        PPBENUCR
007800 WORKING-STORAGE SECTION.                                         PPBENUCR
007900     SKIP1                                                        PPBENUCR
008000 01  WS-ID                        PIC X(37)                       PPBENUCR
008100     VALUE 'PPBENUCR WORKING-STORAGE BEGINS HERE'.                PPBENUCR
008200     SKIP3                                                        PPBENUCR
008300 01  SUBSCRIPTS.                                                  PPBENUCR
008400     05  THE-SUBSCRIPT            PIC 9(02) COMP.                 PPBENUCR
008500     05  XBRT-SUBSCRIPTS.                                         PPBENUCR
008600         10  WO-FICA-WO-SAFETY-SUB  PIC 9(02) COMP VALUE 1.       PPBENUCR
008700         10  W-FICA-OVER-MAX-SUB    PIC 9(02) COMP VALUE 2.       PPBENUCR
008800         10  W-FICA-UNDR-MAX-SUB    PIC 9(02) COMP VALUE 3.       PPBENUCR
008900         10  WO-FICA-W-SAFETY-SUB   PIC 9(02) COMP VALUE 4.       PPBENUCR
009000     05  CONSTANT-SUBSCRIPTS.                                     PPBENUCR
009100         10  CUR-MO-SUB             PIC 9(02) COMP VALUE 1.       PPBENUCR
009200         10  MO-4-SUB               PIC 9(02) COMP VALUE 5.       PPBENUCR
009300         10  HISTORICAL-SUB         PIC 9(02) COMP VALUE 6.       PPBENUCR
009400     SKIP3                                                        PPBENUCR
009500 01  WS-HOLD-AREA.                                                PPBENUCR
009600     05  WS-TOT-RET-GROSS         PIC S9(7)V99  VALUE ZEROS.      PPBENUCR
009700     05  WS-HISTORICAL-RET-GROSS  PIC S9(7)V99  VALUE ZEROS.      PPBENUCR
009800     05  WS-CALC-RET-RATE         PIC S9(7)V99  VALUE ZEROS.      PPBENUCR
009900     05  WS-CALC-RET-GROSS        PIC S9(7)V99  VALUE ZEROS.      PPBENUCR
010000     05  WS-CALC-RET-DED          PIC S9(7)V99  VALUE ZEROS.      PPBENUCR
010100     05  WS-CALC-OVER-FICA-GROSS  PIC S9(7)V99  VALUE ZEROS.      PPBENUCR
010200     05  WS-CALC-UNDR-FICA-GROSS  PIC S9(7)V99  VALUE ZEROS.      PPBENUCR
010300     SKIP3                                                        PPBENUCR
010400     05  WS-RATES-HOLD-AREA.                                      PPBENUCR
010500         10  WS-CUR-RATE          PIC S9(7)V99.                   PPBENUCR
010600         10  WS-1-RATE            PIC S9(7)V99.                   PPBENUCR
010700         10  WS-2-RATE            PIC S9(7)V99.                   PPBENUCR
010800         10  WS-3-RATE            PIC S9(7)V99.                   PPBENUCR
010900         10  WS-4-RATE            PIC S9(7)V99.                   PPBENUCR
011000         10  WS-HIST-RATE         PIC S9(7)V99.                   PPBENUCR
011100     05  WS-RATES-HOLD-ARRAY REDEFINES                            PPBENUCR
011200         WS-RATES-HOLD-AREA.                                      PPBENUCR
011300         10  WS-A-RATE            OCCURS 6 TIMES                  PPBENUCR
011400                                  PIC S9(7)V99.                   PPBENUCR
011500     SKIP3                                                        PPBENUCR
011600     05  WS-GROSS-HOLD-AREA.                                      PPBENUCR
011700         10  WS-CUR-GROSS         PIC S9(7)V99.                   PPBENUCR
011800         10  WS-1-GROSS           PIC S9(7)V99.                   PPBENUCR
011900         10  WS-2-GROSS           PIC S9(7)V99.                   PPBENUCR
012000         10  WS-3-GROSS           PIC S9(7)V99.                   PPBENUCR
012100         10  WS-4-GROSS           PIC S9(7)V99.                   PPBENUCR
012200         10  WS-HIST-GROSS        PIC S9(7)V99.                   PPBENUCR
012300     05  WS-GROSS-HOLD-ARRAY REDEFINES                            PPBENUCR
012400         WS-GROSS-HOLD-AREA.                                      PPBENUCR
012500         10  WS-A-GROSS           OCCURS 6 TIMES                  PPBENUCR
012600                                  PIC S9(7)V99.                   PPBENUCR
012700     SKIP3                                                        PPBENUCR
012800 01  FLAGS-AND-SWITCHES.                                          PPBENUCR
012900     05  PROGRAM-STATUS-FLAG         PIC X(01)  VALUE '0'.        PPBENUCR
013000         88  PROGRAM-STATUS-NORMAL              VALUE '0'.        PPBENUCR
013100         88  PROGRAM-STATUS-EXITING             VALUE '1'.        PPBENUCR
013200     05  SYSPARM-TABLE-LOADED-SW     PIC X(01)  VALUE 'N'.        PPBENUCR
013300         88  SYSPARM-TABLE-LOADED               VALUE 'Y'.        PPBENUCR
013400     SKIP1                                                        PPBENUCR
013500 01  CONSTANT-VALUES.                                             PPBENUCR
013600     05  CONSTANT-NORMAL             PIC X(01)  VALUE '0'.        PPBENUCR
013700     05  CONSTANT-ABORT              PIC X(01)  VALUE '1'.        PPBENUCR
013800     05  CONSTANT-EXIT-PROGRAM       PIC X(01)  VALUE '1'.        PPBENUCR
013900*                                                                 PPBENUCR
014000 01  SYSTEM-PARAMETER-INTERFACE.                                  30930413
014100                                     COPY 'CPWSXSPI'.             PPBENUCR
014200*                                                                 PPBENUCR
014300*                                                                 PPBENUCR
014400*    USED FOR THE CALLING SYSTEM PARAMETERS OUTPUT                PPBENUCR
014500*                                                                 PPBENUCR
014600     05  PARM-NO-1                   PIC S9(3)  VALUE +1   COMP-3.PPBENUCR
014700     05  PARM-VALUE-1                PIC S9(5)V9(4)               PPBENUCR
014800                                                VALUE +0   COMP-3.PPBENUCR
014900*                                                                 PPBENUCR
015000     EJECT                                                        PPBENUCR
015100 01  XCFK-CONTROL-FILE-KEYS.                                      30930413
015200                                  COPY 'CPWSXCFK'.                PPBENUCR
015300     EJECT                                                        PPBENUCR
015400 01  XUTF-UTILITY-FUNCTIONS.                                      30930413
015500                                  COPY 'CPWSXUTF'.                PPBENUCR
015600     EJECT                                                        PPBENUCR
015700 01  XBRT-BENEFITS-RATES-RECORD.                                  30930413
015800                                  COPY 'CPWSXBRT'.                PPBENUCR
015900     EJECT                                                        PPBENUCR
016000 01  PPBENRET-INTERFACE.          COPY 'CPLNKRET'.                PPBENUCR
016100     SKIP3                                                        PPBENUCR
016200 01  FILLER                       PIC X(37)                       PPBENUCR
016300     VALUE 'PPBENUCR WORKING-STORAGE ENDS HERE'.                  PPBENUCR
016400     EJECT                                                        PPBENUCR
016500******************************************************************PPBENUCR
016600*++++++++++++++++++++++++++++++++++++++++++++++++++++++++++++++++*PPBENUCR
016700*++++++++*******************************************+++++++++++++*PPBENUCR
016800*+++++++*                                           *++++++++++++*PPBENUCR
016900*++++++*                LINKAGE SECTION              *+++++++++++*PPBENUCR
017000*+++++++*                                           *++++++++++++*PPBENUCR
017100*++++++++*******************************************+++++++++++++*PPBENUCR
017200*++++++++++++++++++++++++++++++++++++++++++++++++++++++++++++++++*PPBENUCR
017300******************************************************************PPBENUCR
017400     SKIP1                                                        PPBENUCR
017500 LINKAGE SECTION.                                                 PPBENUCR
017600     SKIP1                                                        PPBENUCR
017700 01  PPBENUCR-INTERFACE.          COPY 'CPLNKUCR'.                PPBENUCR
017800     EJECT                                                        PPBENUCR
017900 01  PPBUTUTL-INTERFACE.                                          30930413
018000                                  COPY 'CPWSBUTI'.                PPBENUCR
018100     EJECT                                                        PPBENUCR
018200 01  CTL-INTERFACE.                                               30930413
018300                                  COPY 'CPWSXCIF'.                PPBENUCR
018400     SKIP1                                                        PPBENUCR
018500 01  CTL-SEGMENT-TABLE.                                           30930413
018600                                  COPY 'CPWSXCST'.                PPBENUCR
018700     EJECT                                                        PPBENUCR
018800******************************************************************PPBENUCR
018900*################################################################*PPBENUCR
019000*########*******************************************#############*PPBENUCR
019100*#######*                                           *############*PPBENUCR
019200*######*               PROCEDURE DIVISION            *###########*PPBENUCR
019300*#######*                                           *############*PPBENUCR
019400*########*******************************************#############*PPBENUCR
019500*################################################################*PPBENUCR
019600******************************************************************PPBENUCR
019700     SKIP1                                                        PPBENUCR
019800 PROCEDURE DIVISION USING PPBENUCR-INTERFACE                      PPBENUCR
019900                          PPBUTUTL-INTERFACE                      PPBENUCR
020000                          CTL-INTERFACE                           PPBENUCR
020100                          CTL-SEGMENT-TABLE.                      PPBENUCR
020200     SKIP1                                                        PPBENUCR
020300 A000-MAINLINE SECTION.                                           PPBENUCR
020400     SKIP2                                                        PPBENUCR
020500     MOVE CONSTANT-NORMAL TO PROGRAM-STATUS-FLAG.                 PPBENUCR
020600     SKIP1                                                        PPBENUCR
020700     PERFORM B010-INITIALIZE                                      PPBENUCR
020800        THRU B019-INITIALIZE-EXIT.                                PPBENUCR
020900     SKIP1                                                        PPBENUCR
021000     IF PROGRAM-STATUS-NORMAL                                     PPBENUCR
021100     THEN                                                         PPBENUCR
021200         IF NOT KUCR-RETIRE-UCRS                                  PPBENUCR
021300             NEXT SENTENCE                                        PPBENUCR
021400         ELSE                                                     PPBENUCR
021500             PERFORM C010-SET-UP-RATES-FOR-CALC                   PPBENUCR
021600                THRU C019-SET-UP-RATES-EXIT                       PPBENUCR
021700             MOVE ZEROS TO WS-TOT-RET-GROSS                       PPBENUCR
021800             PERFORM D010-DEVELOP-DEDUCTION                       PPBENUCR
021900                THRU D019-DEVELOP-DEDUCTION-EXIT                  PPBENUCR
022000                     VARYING THE-SUBSCRIPT FROM 1 BY 1            PPBENUCR
022100                       UNTIL THE-SUBSCRIPT > 6                    PPBENUCR
022200     ELSE                                                         PPBENUCR
022300         NEXT SENTENCE.                                           PPBENUCR
022400     SKIP3                                                        PPBENUCR
022500 A009-GOBACK.                                                     PPBENUCR
022600     GOBACK.                                                      PPBENUCR
022700     EJECT                                                        PPBENUCR
022800 B000-INITIALIZATION SECTION.                                     PPBENUCR
022900     SKIP2                                                        PPBENUCR
023000 B010-INITIALIZE.                                                 PPBENUCR
023100     SKIP1                                                        PPBENUCR
023200     MOVE CONSTANT-NORMAL TO KUCR-RETURN-STATUS-FLAG.             PPBENUCR
023300     SKIP1                                                        PPBENUCR
023400     IF NOT SYSPARM-TABLE-LOADED                                  PPBENUCR
023500         PERFORM B070-LOAD-SYS-PARAMETERS                         PPBENUCR
023600            THRU B079-LOAD-SYS-PARAMETERS-EXIT.                   PPBENUCR
023700*                                                                 PPBENUCR
023800*    *************************************************************PPBENUCR
023900*      SET NUMERIC RETURN FIELDS TO ZERO                         *PPBENUCR
024000*    *************************************************************PPBENUCR
024100*                                                                 PPBENUCR
024200     MOVE ZERO TO KUCR-CUR-MO-PORT-DED                            PPBENUCR
024300                  KUCR-1-MO-PORT-DED                              PPBENUCR
024400                  KUCR-2-MO-PORT-DED                              PPBENUCR
024500                  KUCR-3-MO-PORT-DED                              PPBENUCR
024600                  KUCR-4-MO-PORT-DED                              PPBENUCR
024700                  KUCR-HIST-PORT-DED                              PPBENUCR
024800                  KUCR-TOT-RET-DED                                PPBENUCR
024900                  KUCR-PRIM-RET-RATE                              PPBENUCR
025000                  KUCR-SEC-RET-RATE.                              PPBENUCR
025100     SKIP1                                                        PPBENUCR
025200     PERFORM B030-VALIDATE-LOOKUP-ARGS                            PPBENUCR
025300        THRU B039-VALIDATE-LOOKUP-ARGS-EXIT.                      PPBENUCR
025400     SKIP1                                                        PPBENUCR
025500     PERFORM B050-VALIDATE-ENROLLMENT                             PPBENUCR
025600        THRU B059-VALIDATE-ENROLLMENT-EXIT.                       PPBENUCR
025700     SKIP1                                                        PPBENUCR
025800     IF KUCR-RETIRE-UCRS                                          PPBENUCR
025900         PERFORM P010-GET-RETIREMENT-RATES                        PPBENUCR
026000            THRU P019-GET-RETIREMENT-RATES-EXIT.                  PPBENUCR
026100     SKIP1                                                        PPBENUCR
026200*                                                                 PPBENUCR
026300******************************************************************PPBENUCR
026400*    MOVE THE 5 GROSS AMTS AND 5 RATES PASSED TO THIS PGM        *PPBENUCR
026500*     INTO A WORK AREA THAT OCCURS 6 TIMES, THEN                 *PPBENUCR
026600*     MOVE THE CALCULATED HISTORICAL GROSS INTO THE 6TH SLOT     *PPBENUCR
026700*     OF THE GROSS TABLE AND THE 5TH SLOT INTO THE 6TH SLOT      *PPBENUCR
026800*     OF THE RATE TABLE.                                         *PPBENUCR
026900*    ALL THIS IS DONE SO THAT THESE TWO TABLES, PLUS THE         *PPBENUCR
027000*     INTERFACE OUTPUT TABLE CAN BE ACCESSED 6 TIMES             *PPBENUCR
027100******************************************************************PPBENUCR
027200*                                                                 PPBENUCR
027300     PERFORM B090-LOAD-WORKING-TABLES                             PPBENUCR
027400        THRU B099-LOAD-TABLES-EXIT                                PPBENUCR
027500             VARYING THE-SUBSCRIPT FROM 1 BY 1                    PPBENUCR
027600               UNTIL THE-SUBSCRIPT > 5.                           PPBENUCR
027700*                                                                 PPBENUCR
027800*    THE LAST RATE SLOT (FOR HISTORICAL) USES THE 4TH MONTH RATE *PPBENUCR
027900*                                                                 PPBENUCR
028000     MOVE KUCR-4-MO-RETIRE-RATE TO WS-A-RATE (HISTORICAL-SUB).    PPBENUCR
028100     SKIP3                                                        PPBENUCR
028200*                                                                 PPBENUCR
028300*    *************************************************************PPBENUCR
028400*    COMPUTE THE HISTORICAL GROSS = TOT - LAST 5 MONTHS           PPBENUCR
028500*    *************************************************************PPBENUCR
028600*                                                                 PPBENUCR
028700     COMPUTE WS-A-GROSS (HISTORICAL-SUB) ROUNDED =                PPBENUCR
028800             KUCR-RETIREMENT-GROSS - KUCR-CUR-MO-RETIRE-GROSS     PPBENUCR
028900                                   - KUCR-1-MO-RETIRE-GROSS       PPBENUCR
029000                                   - KUCR-2-MO-RETIRE-GROSS       PPBENUCR
029100                                   - KUCR-3-MO-RETIRE-GROSS       PPBENUCR
029200                                   - KUCR-4-MO-RETIRE-GROSS.      PPBENUCR
029300     SKIP3                                                        PPBENUCR
029400 B019-INITIALIZE-EXIT.                                            PPBENUCR
029500     EXIT.                                                        PPBENUCR
029600     SKIP3                                                        PPBENUCR
029700 B030-VALIDATE-LOOKUP-ARGS.                                       PPBENUCR
029800     SKIP1                                                        PPBENUCR
029900     MOVE '0' TO KUCR-INVALID-LOOKUP-ARG-FLAG.                    PPBENUCR
030000     SKIP1                                                        PPBENUCR
030100     IF KUCR-INVALID-LOOKUP-ARG                                   PPBENUCR
030200         MOVE '1' TO PROGRAM-STATUS-FLAG.                         PPBENUCR
030300     SKIP3                                                        PPBENUCR
030400 B039-VALIDATE-LOOKUP-ARGS-EXIT.                                  PPBENUCR
030500     EXIT.                                                        PPBENUCR
030600     SKIP3                                                        PPBENUCR
030700 B050-VALIDATE-ENROLLMENT.                                        PPBENUCR
030800     SKIP1                                                        PPBENUCR
030900     MOVE '0' TO KUCR-NOT-ENROLLED-IN-UCR-FLAG.                   PPBENUCR
031000     IF KUCR-RETIRE-UCRS                                          PPBENUCR
031100         NEXT SENTENCE                                            PPBENUCR
031200     ELSE                                                         PPBENUCR
031300         MOVE '1' TO KUCR-NOT-ENROLLED-IN-UCR-FLAG.               PPBENUCR
031400     SKIP1                                                        PPBENUCR
031500     IF KUCR-NOT-ENROLLED-IN-UCR                                  PPBENUCR
031600         MOVE '1' TO PROGRAM-STATUS-FLAG.                         PPBENUCR
031700     SKIP3                                                        PPBENUCR
031800 B059-VALIDATE-ENROLLMENT-EXIT.                                   PPBENUCR
031900     EXIT.                                                        PPBENUCR
032000     SKIP3                                                        PPBENUCR
032100 B070-LOAD-SYS-PARAMETERS.                                        PPBENUCR
032200     SKIP1                                                        PPBENUCR
032300*    *************************************************************PPBENUCR
032400*    LOAD IN THE PARM NUMBER WANTED                               PPBENUCR
032500*    *************************************************************PPBENUCR
032600*                                                                 PPBENUCR
032700     MOVE PARM-NO-1    TO XSPI-PARM-NO.                           PPBENUCR
032800     PERFORM R010-CALL-PPPRMUTL                                   PPBENUCR
032900        THRU R019-CALL-PPPRMUTL-EXIT.                             PPBENUCR
033000     IF XSPI-PARM-VALUE = ZEROS                                   PPBENUCR
033100         MOVE '1' TO PROGRAM-STATUS-FLAG                          PPBENUCR
033200     ELSE                                                         PPBENUCR
033300         MOVE 'Y' TO SYSPARM-TABLE-LOADED-SW                      PPBENUCR
033400         MOVE XSPI-PARM-VALUE TO PARM-VALUE-1.                    PPBENUCR
033500     SKIP1                                                        PPBENUCR
033600 B079-LOAD-SYS-PARAMETERS-EXIT.                                   PPBENUCR
033700     EXIT.                                                        PPBENUCR
033800     SKIP2                                                        PPBENUCR
033900 B090-LOAD-WORKING-TABLES.                                        PPBENUCR
034000     SKIP2                                                        PPBENUCR
034100     MOVE KUCR-MO-RETIRE-RATE (THE-SUBSCRIPT)                     PPBENUCR
034200       TO WS-A-RATE (THE-SUBSCRIPT).                              PPBENUCR
034300     MOVE KUCR-MO-RETIRE-GROSS (THE-SUBSCRIPT)                    PPBENUCR
034400       TO WS-A-GROSS (THE-SUBSCRIPT).                             PPBENUCR
034500     SKIP2                                                        PPBENUCR
034600 B099-LOAD-TABLES-EXIT.                                           PPBENUCR
034700     EXIT.                                                        PPBENUCR
034800     EJECT                                                        PPBENUCR
034900 C000-SET-UP-RATE SECTION.                                        PPBENUCR
035000     SKIP2                                                        PPBENUCR
035100 C010-SET-UP-RATES-FOR-CALC.                                      PPBENUCR
035200******************************************************************PPBENUCR
035300*    THIS PARAGRAPH ESTABLISHES THE PRIMARY & SECONDARY RETIREMENTPPBENUCR
035400*     RATES, AS WELL AS THE CURRENT MONTH RETIREMENT RATE         PPBENUCR
035500******************************************************************PPBENUCR
035600     SKIP3                                                        PPBENUCR
035700******************************************************************PPBENUCR
035800*    CALCULATE PRIMARY RETIREMENT RATE                            PPBENUCR
035900******************************************************************PPBENUCR
036000     IF KUCR-FICA-ELIG                                            PPBENUCR
036100         IF KUCR-RET-OVER-FICA-MAX > ZEROS                        PPBENUCR
036200                    OR                                            PPBENUCR
036300            (KUCR-RETIREMENT-GROSS = ZERO                         PPBENUCR
036400                    AND                                           PPBENUCR
036500            KUCR-RETIREMENT-GROSS-YTD > PARM-VALUE-1)             PPBENUCR
036600             MOVE XBRT-RETIRE-RATE(W-FICA-OVER-MAX-SUB)           PPBENUCR
036700               TO KUCR-PRIM-RET-RATE                              PPBENUCR
036800         ELSE                                                     PPBENUCR
036900             MOVE XBRT-RETIRE-RATE(W-FICA-UNDR-MAX-SUB)           PPBENUCR
037000               TO KUCR-PRIM-RET-RATE                              PPBENUCR
037100     ELSE                                                         PPBENUCR
037200         IF KUCR-SAFETY-EARNINGS                                  PPBENUCR
037300             MOVE XBRT-RETIRE-RATE(WO-FICA-W-SAFETY-SUB)          PPBENUCR
037400               TO KUCR-PRIM-RET-RATE                              PPBENUCR
037500         ELSE                                                     PPBENUCR
037600             MOVE XBRT-RETIRE-RATE(WO-FICA-WO-SAFETY-SUB)         PPBENUCR
037700               TO KUCR-PRIM-RET-RATE.                             PPBENUCR
037800     SKIP3                                                        PPBENUCR
037900******************************************************************PPBENUCR
038000*    CALCULATE SECONDARY RETIREMENT RATE                         *PPBENUCR
038100******************************************************************PPBENUCR
038200     IF KUCR-FICA-ELIG                                            PPBENUCR
038300         IF KUCR-RET-OVER-FICA-MAX = ZEROS                        PPBENUCR
038400                    OR                                            PPBENUCR
038500            KUCR-RET-OVER-FICA-MAX = KUCR-RETIREMENT-GROSS        PPBENUCR
038600             MOVE ZEROS TO KUCR-SEC-RET-RATE                      PPBENUCR
038700         ELSE                                                     PPBENUCR
038800             MOVE XBRT-RETIRE-RATE(W-FICA-UNDR-MAX-SUB)           PPBENUCR
038900               TO KUCR-SEC-RET-RATE                               PPBENUCR
039000     ELSE                                                         PPBENUCR
039100         NEXT SENTENCE.                                           PPBENUCR
039200     SKIP1                                                        PPBENUCR
039300*                                                                 PPBENUCR
039400*    CHECK CUR MO RATE FOR ZERO                                  *PPBENUCR
039500*                                                                 PPBENUCR
039600     IF KUCR-CUR-MO-RETIRE-RATE = ZEROS                           PPBENUCR
039700         MOVE KUCR-PRIM-RET-RATE TO KUCR-CUR-MO-RETIRE-RATE       PPBENUCR
039800                                    WS-A-RATE (CUR-MO-SUB)        PPBENUCR
039900     ELSE                                                         PPBENUCR
040000         NEXT SENTENCE.                                           PPBENUCR
040100     SKIP1                                                        PPBENUCR
040200 C019-SET-UP-RATES-EXIT.                                          PPBENUCR
040300     EXIT.                                                        PPBENUCR
040400     EJECT                                                        PPBENUCR
040500 D000-DEDUCTION SECTION.                                          PPBENUCR
040600     SKIP3                                                        PPBENUCR
040700 D010-DEVELOP-DEDUCTION.                                          PPBENUCR
040800******************************************************************PPBENUCR
040900*    THIS PARAGRAPH DEVELOPS THE PORTION-RETIREMENT DEDUCTION     PPBENUCR
041000******************************************************************PPBENUCR
041100     SKIP2                                                        PPBENUCR
041200******************************************************************PPBENUCR
041300*    ACCUMULATE FROM CUR MO BACK TO 4 MO OLD GROSS, THEN THE      PPBENUCR
041400*     HISTORICAL GROSS                                            PPBENUCR
041500******************************************************************PPBENUCR
041600     SKIP2                                                        PPBENUCR
041700     COMPUTE WS-TOT-RET-GROSS ROUNDED =                           PPBENUCR
041800             WS-TOT-RET-GROSS +                                   PPBENUCR
041900             WS-A-GROSS (THE-SUBSCRIPT).                          PPBENUCR
042000     SKIP2                                                        PPBENUCR
042100     IF KUCR-RET-OVER-FICA-MAX = ZEROS                            PPBENUCR
042200                 OR                                               PPBENUCR
042300       (KUCR-RETIREMENT-GROSS = KUCR-RET-OVER-FICA-MAX)           PPBENUCR
042400                 OR                                               PPBENUCR
042500       (WS-TOT-RET-GROSS NOT > KUCR-RET-OVER-FICA-MAX)            PPBENUCR
042600*                                                                 PPBENUCR
042700*      ***********************************************************PPBENUCR
042800*      GROSS IS ALL 'OVER FICA' OR ALL 'UNDER FICA'               PPBENUCR
042900*      ***********************************************************PPBENUCR
043000*                                                                 PPBENUCR
043100         MOVE KUCR-PRIM-RET-RATE TO WS-CALC-RET-RATE              PPBENUCR
043200         MOVE WS-A-GROSS(THE-SUBSCRIPT)                           PPBENUCR
043300           TO WS-CALC-RET-GROSS                                   PPBENUCR
043400         PERFORM D060-CALC-PORTION-DEDUCTIONS                     PPBENUCR
043500            THRU D069-CALC-PORTION-EXIT                           PPBENUCR
043600     ELSE                                                         PPBENUCR
043700         COMPUTE WS-CALC-UNDR-FICA-GROSS ROUNDED =                PPBENUCR
043800                 WS-TOT-RET-GROSS -                               PPBENUCR
043900                 KUCR-RET-OVER-FICA-MAX                           PPBENUCR
044000         IF WS-A-GROSS (THE-SUBSCRIPT) NOT >                      PPBENUCR
044100            WS-CALC-UNDR-FICA-GROSS                               PPBENUCR
044200*                                                                 PPBENUCR
044300*            *****************************************************PPBENUCR
044400*            GROSS IS UNDER MAX                                   PPBENUCR
044500*            *****************************************************PPBENUCR
044600*                                                                 PPBENUCR
044700             MOVE KUCR-SEC-RET-RATE TO WS-CALC-RET-RATE           PPBENUCR
044800             MOVE WS-A-GROSS (THE-SUBSCRIPT)                      PPBENUCR
044900               TO WS-CALC-RET-GROSS                               PPBENUCR
045000             PERFORM D060-CALC-PORTION-DEDUCTIONS                 PPBENUCR
045100                THRU D069-CALC-PORTION-EXIT                       PPBENUCR
045200         ELSE                                                     PPBENUCR
045300*                                                                 PPBENUCR
045400*            *****************************************************PPBENUCR
045500*            GROSS IS PARTLY UNDER MAX AND PARTLY OVER MAX        PPBENUCR
045600*            *****************************************************PPBENUCR
045700*                                                                 PPBENUCR
045800             COMPUTE WS-CALC-OVER-FICA-GROSS =                    PPBENUCR
045900                     WS-A-GROSS (THE-SUBSCRIPT) -                 PPBENUCR
046000                     WS-CALC-UNDR-FICA-GROSS                      PPBENUCR
046100             PERFORM D030-DEVELOP-OVER-UNDR-FICA                  PPBENUCR
046200                THRU D039-DEVELOP-FICA-EXIT.                      PPBENUCR
046300     SKIP2                                                        PPBENUCR
046400 D019-DEVELOP-DEDUCTION-EXIT.                                     PPBENUCR
046500     EXIT.                                                        PPBENUCR
046600     SKIP2                                                        PPBENUCR
046700 D030-DEVELOP-OVER-UNDR-FICA.                                     PPBENUCR
046800******************************************************************PPBENUCR
046900*    THIS PARAGRAPH CALLS D060 2 TIMES, ONCE FOR THE OVER FICA    PPBENUCR
047000*     CALCULATION, THEN FOR THE UNDER FICA CALCULATION            PPBENUCR
047100******************************************************************PPBENUCR
047200     SKIP2                                                        PPBENUCR
047300     MOVE KUCR-PRIM-RET-RATE TO WS-CALC-RET-RATE.                 PPBENUCR
047400     COMPUTE WS-CALC-RET-GROSS =                                  PPBENUCR
047500             WS-CALC-OVER-FICA-GROSS.                             PPBENUCR
047600     PERFORM D060-CALC-PORTION-DEDUCTIONS                         PPBENUCR
047700        THRU D069-CALC-PORTION-EXIT.                              PPBENUCR
047800     SKIP2                                                        PPBENUCR
047900     MOVE KUCR-SEC-RET-RATE TO WS-CALC-RET-RATE.                  PPBENUCR
048000     COMPUTE WS-CALC-RET-GROSS =                                  PPBENUCR
048100             WS-CALC-UNDR-FICA-GROSS.                             PPBENUCR
048200     PERFORM D060-CALC-PORTION-DEDUCTIONS                         PPBENUCR
048300        THRU D069-CALC-PORTION-EXIT.                              PPBENUCR
048400     SKIP2                                                        PPBENUCR
048500 D039-DEVELOP-FICA-EXIT.                                          PPBENUCR
048600     EXIT.                                                        PPBENUCR
048700     SKIP2                                                        PPBENUCR
048800 D060-CALC-PORTION-DEDUCTIONS.                                    PPBENUCR
048900******************************************************************PPBENUCR
049000*    THIS PARAGRAPH CALCULATES THE PORTION-RETIREMENT DEDUCTION   PPBENUCR
049100*     AS PERTAINS TO THE SOME MONTH RETIREMENT GROSS              PPBENUCR
049200******************************************************************PPBENUCR
049300     SKIP2                                                        PPBENUCR
049400     IF WS-CALC-RET-GROSS < ZEROS                                 PPBENUCR
049500         MOVE WS-A-RATE (THE-SUBSCRIPT)                           PPBENUCR
049600           TO WS-CALC-RET-RATE.                                   PPBENUCR
049700     SKIP3                                                        PPBENUCR
049800     COMPUTE WS-CALC-RET-DED ROUNDED =                            PPBENUCR
049900            (WS-CALC-RET-GROSS *                                  PPBENUCR
050000             WS-CALC-RET-RATE) / 100.                             PPBENUCR
050100     SKIP3                                                        PPBENUCR
050200     COMPUTE KUCR-MO-PORT-DED (THE-SUBSCRIPT) ROUNDED =           PPBENUCR
050300             KUCR-MO-PORT-DED (THE-SUBSCRIPT) +                   PPBENUCR
050400             WS-CALC-RET-DED.                                     PPBENUCR
050500     SKIP3                                                        PPBENUCR
050600     COMPUTE KUCR-TOT-RET-DED ROUNDED =                           PPBENUCR
050700             KUCR-TOT-RET-DED +                                   PPBENUCR
050800             WS-CALC-RET-DED.                                     PPBENUCR
050900     SKIP3                                                        PPBENUCR
051000 D069-CALC-PORTION-EXIT.                                          PPBENUCR
051100     EXIT.                                                        PPBENUCR
051200     EJECT                                                        PPBENUCR
051300 P000-RATE SECTION.                                               PPBENUCR
051400******************************************************************PPBENUCR
051500*    THIS SECTION RETRIEVES THE UCRS RETIREMENT RATES FROM        PPBENUCR
051600*     THE CONTROL TABLE FILE                                      PPBENUCR
051700******************************************************************PPBENUCR
051800     SKIP2                                                        PPBENUCR
051900 P010-GET-RETIREMENT-RATES.                                       PPBENUCR
052000     SKIP1                                                        PPBENUCR
052100     MOVE '3' TO KRET-ACTION-FLAG.                                PPBENUCR
052200     CALL 'PPBENRET' USING PPBENRET-INTERFACE                     PPBENUCR
052300                           PPBUTUTL-INTERFACE                     PPBENUCR
052400                           CTL-INTERFACE                          PPBENUCR
052500                           CTL-SEGMENT-TABLE.                     PPBENUCR
052600     IF KRET-SEGMENT-RETRIEVED                                    PPBENUCR
052700         MOVE KRET-SEGMENT TO XBRT-BENEFITS-RATES-RECORD          PPBENUCR
052800     ELSE                                                         PPBENUCR
052900         MOVE '1' TO PROGRAM-STATUS-FLAG                          PPBENUCR
053000                     KUCR-RETURN-STATUS-FLAG.                     PPBENUCR
053100     SKIP3                                                        PPBENUCR
053200 P019-GET-RETIREMENT-RATES-EXIT.                                  PPBENUCR
053300     EXIT.                                                        PPBENUCR
053400     EJECT                                                        PPBENUCR
053500 R000-CALL SECTION.                                               PPBENUCR
053600******************************************************************PPBENUCR
053700*    THIS PARAGRAPH ACCESSES THE SYSTEM PARAMETERS TABLE ONLY     PPBENUCR
053800*     ONCE AND OBTAINS ALL THE PARAMETER VALUES NEEDED            PPBENUCR
053900******************************************************************PPBENUCR
054000     SKIP2                                                        PPBENUCR
054100 R010-CALL-PPPRMUTL.                                              PPBENUCR
054200     SKIP1                                                        PPBENUCR
054300     CALL 'PPPRMUTL' USING SYSTEM-PARAMETER-INTERFACE.            PPBENUCR
054400     SKIP3                                                        PPBENUCR
054500 R019-CALL-PPPRMUTL-EXIT.                                         PPBENUCR
054600     EXIT.                                                        PPBENUCR
