000100*==========================================================%      DS413
000200*=    PROGRAM: PPL800                                     =%      DS413
000300*=    CHANGE # DS413        PROJ. REQUEST: COBOL II       =%      DS413
000400*=    NAME:JIM PIERCE       MODIFICATION DATE: 8/01/89    =%      DS413
000500*=                                                        =%      DS413
000600*=    DESCRIPTION: PROGRAM WAS MODIFIED FOR CONVERSION    =%      DS413
000700*=    TO COBOL II                                         =%      DS413
000800*==========================================================%      DS413
000900 IDENTIFICATION DIVISION.                                         PPL800
001000*                                                                 PPL800
001100 PROGRAM-ID.    PPL800.                                           PPL800
001200 INSTALLATION.  UCSD ADCOM SYSTEMS.                               PPL800
001300 AUTHOR.        R SWIDERSKI.                                      PPL800
001400 DATE-WRITTEN.  JUNE 1987.                                        PPL800
001500 DATE-COMPILED.                                                   PPL800
001600/                                                                 PPL800
001700 ENVIRONMENT DIVISION.                                            PPL800
001800 INPUT-OUTPUT SECTION.                                            PPL800
001900 FILE-CONTROL.                                                    PPL800
002000*                                                                 PPL800
002100     SELECT CONTROL-CARD-FILE                                     PPL800
002200         ASSIGN TO UT-S-CNTLCARD.                                 PPL800
002300*                                                                 PPL800
002400     SELECT WORK-FILE                                             PPL800
002500         ASSIGN TO UT-S-WORKFILE.                                 PPL800
002600*                                                                 PPL800
002700     SELECT CULPRIT-FILE                                          PPL800
002800         ASSIGN TO UT-S-CULPRIT.                                  PPL800
002900*                                                                 PPL800
003000     SELECT MONITOR-REPORT                                        PPL800
003100         ASSIGN TO UT-S-MONITOR.                                  PPL800
003200*                                                                 PPL800
003300     COPY CLSLCRPT.                                               PPL800
003400/                                                                 PPL800
003500 DATA DIVISION.                                                   PPL800
003600 FILE SECTION.                                                    PPL800
003700*                                                                 PPL800
003800 FD  CONTROL-CARD-FILE                                            PPL800
003900     LABEL RECORDS ARE STANDARD                                   PPL800
004000     BLOCK CONTAINS 0 RECORDS.                                    PPL800
004100 01  CARD-RECORD                 PIC X(80).                       PPL800
004200*                                                                 PPL800
004300 FD  WORK-FILE                                                    PPL800
004400     LABEL RECORDS ARE STANDARD                                   PPL800
004500     BLOCK CONTAINS 0 RECORDS.                                    PPL800
004600 01  WORK-FILE-RECORD.                                            PPL800
004700     05  WORK-RECORD             OCCURS 1 TO 500 TIMES            PPL800
004800                                 DEPENDING ON WORK-RECORD-SIZE    PPL800
004900                                 PIC X(1).                        PPL800
005000*                                                                 PPL800
005100 FD  CULPRIT-FILE                                                 PPL800
005200     LABEL RECORDS ARE STANDARD                                   PPL800
005300     BLOCK CONTAINS 0 RECORDS.                                    PPL800
005400 01  CULPRIT-RECORD          PIC X(80).                           PPL800
005500*                                                                 PPL800
005600 FD  MONITOR-REPORT                                               PPL800
005700     LABEL RECORDS ARE OMITTED                                    PPL800
005800     BLOCK CONTAINS 0 RECORDS.                                    PPL800
005900 01  MONITOR-REPORT-RECORD.                                       PPL800
006000     05  CARRIAGE-CONTROL-CHARACTER                               PPL800
006100                                 PIC X(1).                        PPL800
006200     05  MONITOR-RECORD          PIC X(132).                      PPL800
006300*                                                                 PPL800
006400 COPY CLFDCRPT.                                                   PPL800
006500/                                                                 PPL800
006600 WORKING-STORAGE SECTION.                                         PPL800
006700*                                                                 PPL800
006800 COPY CLWSCRPT.                                                   PPL800
006900*                                                                 PPL800
007000 77  SS                          PIC S9(4)       COMP.            PPL800
007100*                                                                 PPL800
007200 77  PARAMETER-CARDS-CTR         PIC 9(3)        VALUE ZEROS.     PPL800
007300*                                                                 PPL800
007400 77  EMPLOYEE-CTR                PIC 9(6)        VALUE ZEROS.     PPL800
007500*                                                                 PPL800
007600 77  CULPRIT-RECORDS-CREATED-CTR PIC 9(3)        VALUE ZEROS.     PPL800
007700*                                                                 PPL800
007800 77  WORK-RECORDS-CTR            PIC 9(6)        VALUE ZEROS.     PPL800
007900*                                                                 PPL800
008000 77  WORK-LISTING-REQUEST-SW     PIC X(3)        VALUE SPACES.    PPL800
008100     88  WORK-LISTING-REQUESTED                  VALUE 'YES'.     PPL800
008200*                                                                 PPL800
008300 77  CULPRIT-DICTIONARY-REQUEST-SW                                PPL800
008400                                 PIC X(3)        VALUE SPACES.    PPL800
008500     88  CULPRIT-DICTIONARY-REQUESTED            VALUE 'YES'.     PPL800
008600*                                                                 PPL800
008700 77  SPECIFIC-APPT-DIST-REQUEST-SW                                PPL800
008800                                 PIC X(3)        VALUE SPACES.    PPL800
008900     88  SPECIFIC-APPT-DIST-REQUESTED            VALUE 'YES'.     PPL800
009000*                                                                 PPL800
009100 77  CULPRIT-FILE-OPEN-SW        PIC X(3)        VALUE SPACES.    PPL800
009200     88  CULPRIT-FILE-IS-OPEN                    VALUE 'YES'.     PPL800
009300*                                                                 PPL800
009400 77  CONTROL-FILE-EOF-SW         PIC X(3)        VALUE SPACES.    PPL800
009500     88  AT-END-OF-CONTROL-FILE                  VALUE 'YES'.     PPL800
009600*                                                                 PPL800
009700 77  EDB-EOF-SW                  PIC X(3)        VALUE SPACES.    PPL800
009800     88  AT-END-OF-EDB                           VALUE 'YES'.     PPL800
009900*                                                                 PPL800
010000 77  INITIALIZATION-INDICATOR    PIC X(10)       VALUE            PPL800
010100     'INITIALIZE'.                                                PPL800
010200*                                                                 PPL800
010300 77  EXTRACTION-INDICATOR        PIC X(10)       VALUE            PPL800
010400     'EXTRACT   '.                                                PPL800
010500*                                                                 PPL800
010600 77  SPECIFIC-APPT-DIST-INDICATOR                                 PPL800
010700                                 PIC X(10)       VALUE            PPL800
010800     'SPLEXTRACT'.                                                PPL800
010900*                                                                 PPL800
011000 77  EXTERNAL-START-POSITION     PIC 9(3)        VALUE 005.       PPL800
011100*                                                                 PPL800
011200 77  DECIMAL-PLACE-INDICATOR     PIC X(3)        VALUE 'DP='.     PPL800
011300*                                                                 PPL800
011400 77  MAX-CHARACTERS-IN-WORK-FILE PIC S9(4)       COMP             PPL800
011500                                                 VALUE +0500.     PPL800
011600*                                                                 PPL800
011700 77  MAXIMUM-PRINTED-LINES-PER-PAGE                               PPL800
011800                                 PIC S9(4)       COMP             PPL800
011900                                                 VALUE +0056.     PPL800
012000*                                                                 PPL800
012100 77  LINES-PRINTED-THIS-PAGE     PIC S9(4)       COMP.            PPL800
012200*                                                                 DS413
012300 01  WORK-DATES.                 COPY CPWSDATE.                   DS413
012400*                                                                 PPL800
012500 01  WORK-RECORD-WS.                                              PPL800
012600     05  WORK-LINE               PIC X(1)                         PPL800
012700                                 OCCURS 500 TIMES                 PPL800
012800                                 INDEXED BY                       PPL800
012900                                 WORK-RECORD-CHARACTER-INDEX.     PPL800
013000*                                                                 PPL800
013100 77  WORK-RECORD-SIZE            PIC S9(4)       COMP.            PPL800
013200*                                                                 PPL800
013300 01  CONTROL-CARD-EDIT-AREA.                                      PPL800
013400     05  FILLER                  PIC X(8).                        PPL800
013500         88  MONITOR-CARD-READ                   VALUE '*MONITOR'.PPL800
013600         88  CULPRIT-CARD-READ                   VALUE '*CULPRIT'.PPL800
013700         88  SPECIFIC-APPT-DIST-CARD-READ        VALUE '*SPECIFI'.PPL800
013800     05  FILLER                  PIC X(72).                       PPL800
013900 01  FILLER REDEFINES CONTROL-CARD-EDIT-AREA.                     PPL800
014000     05  FILLER                  PIC X(5).                        PPL800
014100     05  EDB-DATA-ITEM-NUMBER    PIC X(4).                        PPL800
014200     05  FILLER                  PIC X(1).                        PPL800
014300     05  EDB-DATA-ITEM-NAME      PIC X(20).                       PPL800
014400     05  FILLER                  PIC X(2).                        PPL800
014500     05  FILLER                  PIC X(4).                        PPL800
014600         88  RAW-DATA-REQUESTED                  VALUE 'RAW '.    PPL800
014700         88  EDITED-DATA-REQUESTED               VALUE 'EDIT'.    PPL800
014800     05  FILLER                  PIC X(2).                        PPL800
014900     05  ALTERNATE-EDB-DATA-ITEM-NAME                             PPL800
015000                                 PIC X(32).                       PPL800
015100     05  FILLER                  PIC X(10).                       PPL800
015200*                                                                 PPL800
015300 01  FILLER.                                                      PPL800
015400     05  EDB-DATA-ITEM-NAME-STORAGE                               PPL800
015500                                 OCCURS 100 TIMES                 PPL800
015600                                 PIC X(32).                       PPL800
015700*                                                                 PPL800
015800 01  MONITOR-RECORD-WS.                                           PPL800
015900     05  FILLER                  PIC X(2).                        PPL800
016000     05  EDB-ELEMENT             PIC X(4).                        PPL800
016100     05  FILLER REDEFINES EDB-ELEMENT.                            PPL800
016200         10  GTN-ELEMENT         PIC X(3).                        PPL800
016300         10  FILLER              PIC X(1).                        PPL800
016400     05  FILLER                  PIC X(8).                        PPL800
016500     05  INITIALIZATION-DATA.                                     PPL800
016600         10  DATA-TYPE           PIC X(4).                        PPL800
016700         10  FILLER              PIC X(5).                        PPL800
016800         10  MODE-INDICATOR      PIC X(7).                        PPL800
016900         10  FILLER              PIC X(5).                        PPL800
017000         10  FORMAT-INDICATOR    PIC X(6).                        PPL800
017100         10  FILLER              PIC X(8).                        PPL800
017200         10  STARTING-POSITION   PIC Z(2)9(1).                    PPL800
017300         10  FILLER              PIC X(11).                       PPL800
017400         10  INTERNAL-LENGTH     PIC Z(1)9(1).                    PPL800
017500         10  FILLER              PIC X(12).                       PPL800
017600         10  EXTERNAL-START-POSITION-EDITED                       PPL800
017700                                 PIC Z(2)9(1).                    PPL800
017800         10  FILLER              PIC X(11).                       PPL800
017900         10  EXTERNAL-LENGTH     PIC Z(1)9(1).                    PPL800
018000         10  FILLER              PIC X(12).                       PPL800
018100         10  DECIMAL-POSITIONS   PIC Z(1)9(1).                    PPL800
018200         10  FILLER              PIC X(11).                       PPL800
018300         10  STATUS-INDICATOR    PIC X(7).                        PPL800
018400         10  FILLER              PIC X(7).                        PPL800
018500     05  EXTRACTION-DATA REDEFINES INITIALIZATION-DATA.           PPL800
018600         10  DATA-ITEM-VALUE     PIC X(30).                       PPL800
018700         10  FILLER              PIC X(88).                       PPL800
018800*                                                                 PPL800
018900 01  MONITOR-RECORD-LITERALS.                                     PPL800
019000     05  RAW-LITERAL             PIC X(6)        VALUE ' RAW  '.  PPL800
019100     05  EDITED-LITERAL          PIC X(6)        VALUE 'EDITED'.  PPL800
019200     05  NUMERIC-LITERAL         PIC X(4)        VALUE 'NUM '.    PPL800
019300     05  ALPHANUMERIC-LITERAL    PIC X(4)        VALUE 'A/N '.    PPL800
019400     05  DATE-LITERAL            PIC X(4)        VALUE 'DATE'.    PPL800
019500     05  VALID-LITERAL           PIC X(7)        VALUE 'VALID  '. PPL800
019600     05  INVALID-LITERAL         PIC X(7)        VALUE 'INVALID'. PPL800
019700     05  DISPLAY-LITERAL         PIC X(7)        VALUE 'DISPLAY'. PPL800
019800     05  PACKED-LITERAL          PIC X(7)        VALUE 'PACKED '. PPL800
019900*                                                                 PPL800
020000 01  INPUT-FILE-DEFINITION-PARAM.
020100     05  FILLER                  PIC X(1)        VALUE SPACE.
020200     05  FILLER                  PIC X(2)        VALUE 'IN'.
020300     05  FILLER                  PIC X(1)        VALUE SPACE.
020400     05  FILLER                  PIC X(3)        VALUE '504'.
020500     05  FILLER                  PIC X(1)        VALUE SPACE.
020600     05  FILLER                  PIC X(1)        VALUE 'V'.
020700     05  FILLER                  PIC X(72)       VALUE SPACES.
020800*                                                                 PPL800
020900 01  RDW-FIELD-NAME.
021000     05  FILLER                  PIC X(3)        VALUE 'RDW'.
021100     05  FILLER                  PIC X(29)       VALUE SPACES.
021200*
021300 77  RDW-STARTING-POSITION       PIC X(3)        VALUE '  1'.
021400*
021500 77  RDW-FIELD-LENGTH            PIC X(2)        VALUE '04'.
021600*                                                                 PPL800
021700 01  CULPRIT-DICTIONARY-RECORD.                                   PPL800
021800     05  FILLER                  PIC X(1)        VALUE SPACE.     PPL800
021900     05  FILLER                  PIC X(3)        VALUE 'REC'.     PPL800
022000     05  FILLER                  PIC X(1)        VALUE SPACE.     PPL800
022100     05  FIELD-NAME              PIC X(32).                       PPL800
022200     05  FILLER                  PIC X(1)        VALUE SPACE.     PPL800
022300     05  STARTING-POSITION       PIC X(3).                        PPL800
022400     05  FILLER                  PIC X(1)        VALUE SPACE.     PPL800
022500     05  FIELD-LENGTH            PIC X(2).                        PPL800
022600     05  FILLER                  PIC X(1)        VALUE SPACE.     PPL800
022700     05  DATA-TYPE               PIC X(1).                        PPL800
022800     05  FILLER                  PIC X(1)        VALUE SPACE.     PPL800
022900     05  DECIMAL-PLACE-LITERAL   PIC X(3).                        PPL800
023000     05  DECIMAL-PLACES          PIC X(2).                        PPL800
023100     05  FILLER                  PIC X(28)       VALUE SPACES.    PPL800
023200*                                                                 PPL800
023300 01  GENERAL-HEADING.                                             PPL800
023400     05  FILLER                  PIC X(8)        VALUE 'ELEM (4)'.PPL800
023500     05  FILLER                  PIC X(124)      VALUE SPACES.    PPL800
023600*                                                                 PPL800
023700 01  INITIALIZATION-HEADING-1.                                    PPL800
023800     05  FILLER                  PIC X(47)       VALUE SPACES.    PPL800
023900     05  FILLER                  PIC X(8)        VALUE 'INTERNAL'.PPL800
024000     05  FILLER                  PIC X(20)       VALUE SPACES.    PPL800
024100     05  FILLER                  PIC X(8)        VALUE 'EXTERNAL'.PPL800
024200     05  FILLER                  PIC X(50)       VALUE SPACES.    PPL800
024300*                                                                 PPL800
024400 01  INITIALIZATION-HEADING-2.                                    PPL800
024500     05  FILLER                  PIC X(8)        VALUE 'ELEM (4)'.PPL800
024600     05  FILLER                  PIC X(39)       VALUE SPACES.    PPL800
024700     05  FILLER                  PIC X(8)        VALUE 'STARTING'.PPL800
024800     05  FILLER                  PIC X(5)        VALUE SPACES.    PPL800
024900     05  FILLER                  PIC X(8)        VALUE 'INTERNAL'.PPL800
025000     05  FILLER                  PIC X(7)        VALUE SPACES.    PPL800
025100     05  FILLER                  PIC X(8)        VALUE 'STARTING'.PPL800
025200     05  FILLER                  PIC X(5)        VALUE SPACES.    PPL800
025300     05  FILLER                  PIC X(8)        VALUE 'EXTERNAL'.PPL800
025400     05  FILLER                  PIC X(7)        VALUE SPACES.    PPL800
025500     05  FILLER                  PIC X(7)        VALUE 'DECIMAL'. PPL800
025600     05  FILLER                  PIC X(22)       VALUE SPACES.    PPL800
025700*                                                                 PPL800
025800 01  INITIALIZATION-HEADING-3.                                    PPL800
025900     05  FILLER                  PIC X(8)        VALUE ' GTN (3)'.PPL800
026000     05  FILLER                  PIC X(3)        VALUE SPACES.    PPL800
026100     05  FILLER                  PIC X(9)        VALUE            PPL800
026200         'DATA TYPE'.                                             PPL800
026300     05  FILLER                  PIC X(4)        VALUE SPACES.    PPL800
026400     05  FILLER                  PIC X(4)        VALUE 'MODE'.    PPL800
026500     05  FILLER                  PIC X(7)        VALUE SPACES.    PPL800
026600     05  FILLER                  PIC X(6)        VALUE 'FORMAT'.  PPL800
026700     05  FILLER                  PIC X(6)        VALUE SPACES.    PPL800
026800     05  FILLER                  PIC X(8)        VALUE 'POSITION'.PPL800
026900     05  FILLER                  PIC X(6)        VALUE SPACES.    PPL800
027000     05  FILLER                  PIC X(6)        VALUE 'LENGTH'.  PPL800
027100     05  FILLER                  PIC X(8)        VALUE SPACES.    PPL800
027200     05  FILLER                  PIC X(8)        VALUE 'POSITION'.PPL800
027300     05  FILLER                  PIC X(6)        VALUE SPACES.    PPL800
027400     05  FILLER                  PIC X(6)        VALUE 'LENGTH'.  PPL800
027500     05  FILLER                  PIC X(7)        VALUE SPACES.    PPL800
027600     05  FILLER                  PIC X(9)        VALUE            PPL800
027700         'POSITIONS'.                                             PPL800
027800     05  FILLER                  PIC X(7)        VALUE SPACES.    PPL800
027900     05  FILLER                  PIC X(6)        VALUE 'STATUS'.  PPL800
028000     05  FILLER                  PIC X(8)        VALUE SPACES.    PPL800
028100*                                                                 PPL800
028200 01  INITIALIZATION-HEADING-4.                                    PPL800
028300     05  FILLER                  PIC X(4)        VALUE ALL '_'.   PPL800
028400     05  FILLER                  PIC X(1)        VALUE SPACE.     PPL800
028500     05  FILLER                  PIC X(3)        VALUE ALL '_'.   PPL800
028600     05  FILLER                  PIC X(3)        VALUE SPACES.    PPL800
028700     05  FILLER                  PIC X(4)        VALUE ALL '_'.   PPL800
028800     05  FILLER                  PIC X(1)        VALUE SPACE.     PPL800
028900     05  FILLER                  PIC X(4)        VALUE ALL '_'.   PPL800
029000     05  FILLER                  PIC X(4)        VALUE SPACES.    PPL800
029100     05  FILLER                  PIC X(4)        VALUE ALL '_'.   PPL800
029200     05  FILLER                  PIC X(7)        VALUE SPACES.    PPL800
029300     05  FILLER                  PIC X(6)        VALUE ALL '_'.   PPL800
029400     05  FILLER                  PIC X(6)        VALUE SPACES.    PPL800
029500     05  FILLER                  PIC X(8)        VALUE ALL '_'.   PPL800
029600     05  FILLER                  PIC X(6)        VALUE SPACE.     PPL800
029700     05  FILLER                  PIC X(6)        VALUE ALL '_'.   PPL800
029800     05  FILLER                  PIC X(8)        VALUE SPACES.    PPL800
029900     05  FILLER                  PIC X(8)        VALUE ALL '_'.   PPL800
030000     05  FILLER                  PIC X(6)        VALUE SPACES.    PPL800
030100     05  FILLER                  PIC X(6)        VALUE ALL '_'.   PPL800
030200     05  FILLER                  PIC X(7)        VALUE SPACES.    PPL800
030300     05  FILLER                  PIC X(9)        VALUE ALL '_'.   PPL800
030400     05  FILLER                  PIC X(7)        VALUE SPACES.    PPL800
030500     05  FILLER                  PIC X(6)        VALUE ALL '_'.   PPL800
030600     05  FILLER                  PIC X(8)        VALUE SPACES.    PPL800
030700*                                                                 PPL800
030800 01  PARAMETER-COUNT-LINE.                                        PPL800
030900     05  FILLER                  PIC X(19)       VALUE            PPL800
031000         'INPUT PARAMETERS:  '.                                   PPL800
031100     05  PARAMETERS-CTR-EDITING-AREA                              PPL800
031200                                 PIC Z(2)9(1).                    PPL800
031300     05  FILLER                  PIC X(110)      VALUE SPACES.    PPL800
031400*                                                                 PPL800
031500 01  EMPLOYEE-COUNT-LINE.                                         PPL800
031600     05  FILLER                  PIC X(17)       VALUE            PPL800
031700         'EMPLOYEES READ:  '.                                     PPL800
031800     05  EMPLOYEE-CTR-EDITING-AREA                                PPL800
031900                                 PIC Z(3),Z(2)9(1).               PPL800
032000     05  FILLER                  PIC X(108)      VALUE SPACES.    PPL800
032100*                                                                 PPL800
032200 01  WORK-RECORD-COUNT-LINE.                                      PPL800
032300     05  FILLER                  PIC X(15)       VALUE            PPL800
032400         'WORK RECORDS:  '.                                       PPL800
032500     05  WORK-RECORD-CTR-EDITING-AREA                             PPL800
032600                                 PIC Z(3),Z(2)9(1).               PPL800
032700     05  FILLER                  PIC X(110)      VALUE SPACES.    PPL800
032800*                                                                 PPL800
032900 01  EXTRACT-HEADING-1.                                           PPL800
033000     05  FILLER                  PIC X(8)        VALUE ' GTN (3)'.PPL800
033100     05  FILLER                  PIC X(6)        VALUE SPACES.    PPL800
033200     05  FILLER                  PIC X(5)        VALUE 'VALUE'.   PPL800
033300     05  FILLER                  PIC X(113)      VALUE SPACES.    PPL800
033400*                                                                 PPL800
033500 01  EXTRACT-HEADING-2.                                           PPL800
033600     05  FILLER                  PIC X(4)        VALUE ALL '_'.   PPL800
033700     05  FILLER                  PIC X(1)        VALUE SPACE.     PPL800
033800     05  FILLER                  PIC X(3)        VALUE ALL '_'.   PPL800
033900     05  FILLER                  PIC X(6)        VALUE SPACES.    PPL800
034000     05  FILLER                  PIC X(5)        VALUE ALL '_'.   PPL800
034100     05  FILLER                  PIC X(113)      VALUE SPACES.    PPL800
034200/                                                                 PPL800
034300*01  PAYROLL-PROCESS-IC2         COPY CPWSXIC2.                   DS413
034400 01  PAYROLL-PROCESS-IC2.        COPY CPWSXIC2.                   DS413
034500/                                                                 PPL800
034600*01  IO-FUNCTIONS                COPY CPWSXIOF.                   DS413
034700 01  IO-FUNCTIONS.               COPY CPWSXIOF.                   DS413
034800/                                                                 PPL800
034900*01  CONTROL-FILE-KEYS           COPY CPWSXCFK.                   DS413
035000 01  CONTROL-FILE-KEYS.          COPY CPWSXCFK.                   DS413
035100/                                                                 PPL800
035200*01  EDB-INTERFACE               COPY CPWSXEIF.                   DS413
035300 01  EDB-INTERFACE.              COPY CPWSXEIF.                   DS413
035400/                                                                 PPL800
035500*01  EDB-SEGMENT-TABLE           COPY CPWSXEST.                   DS413
035600 01  EDB-SEGMENT-TABLE.          COPY CPWSXEST.                   DS413
035700/                                                                 PPL800
035800*01  ELEM-RETRIEVAL              COPY CLWSELEM.                   DS413
035900 01  ELEM-RETRIEVAL.             COPY CLWSELEM.                   DS413
036000/                                                                 PPL800
036100 PROCEDURE DIVISION.                                              PPL800
036200*                                                                 PPL800
036300 COPY CLPDCRPT.                                                   PPL800
036400*                                                                 PPL800
036500 MASTER-ROUTINE.                                                  PPL800
036600     OPEN  INPUT CONTROL-CARD-FILE                                PPL800
036700          OUTPUT WORK-FILE                                        PPL800
036800                 MONITOR-REPORT.                                  PPL800
036900     MOVE SEQ-OPEN-IN TO IO-EDB-ACTION.                           PPL800
037000     PERFORM CALL-PPIOEDB.                                        PPL800
037100     PERFORM READ-CONTROL-CARD-FILE.                              PPL800
037200     IF AT-END-OF-CONTROL-FILE                                    PPL800
037300         DISPLAY 'EMPTY CARDFILE -- ABORTED'                      PPL800
037400         PERFORM WRAPUP-ROUTINE.                                  PPL800
037500     MOVE ZERO TO ELEM-RETRIEVAL                                  PPL800
037600                  SS.                                             PPL800
037700     MOVE ZERO TO ELEM-RETR-MAX.                                  PPL800
037800     PERFORM INPUT-PROCESSING-ROUTINE                             PPL800
037900         UNTIL AT-END-OF-CONTROL-FILE.                            PPL800
038000     MOVE INITIALIZATION-INDICATOR TO ELEM-RETR-ACCESS.           PPL800
038100     PERFORM CALL-PPLELMEX.                                       PPL800
038200     IF ((ELEM-RETR-ERROR-CODE NOT = ZERO)
038300         OR (ELEM-RETR-IO-ERROR-CODE NOT = ZERO))
038400         DISPLAY 'INITIALIZATION ERROR - JOB ABORTED'
038500         DISPLAY 'PPLELMEX ERROR CODE IS ' ELEM-RETR-ERROR-CODE
038600         DISPLAY 'PPIOEDB ERROR CODE IS ' ELEM-RETR-IO-ERROR-CODE
038700         PERFORM WRAPUP-ROUTINE.                                  PPL800
038800     MOVE SEQ-READ TO IO-EDB-ACTION.                              PPL800
038900     MOVE XCFK-CTL-FILE-DELIM TO IO-EDB-NOM-KEY.                  PPL800
039000     PERFORM CALL-PPIOEDB.                                        PPL800
039100     MOVE SEQ-READ-SET TO IO-EDB-ACTION.                          PPL800
039200     MOVE ZEROS TO IO-EDB-NOM-KEY
039300                   IO-EDB-ERROR-CODE.
039400     MOVE SEGMENT-TYPES TO IO-EDB-SEGMENT-LIST.                   PPL800
039500     PERFORM CALL-PPIOEDB.                                        PPL800
039600     MOVE SPACES TO WORK-RECORD-WS.                               PPL800
039700     IF SPECIFIC-APPT-DIST-REQUESTED                              PPL800
039800         MOVE SPECIFIC-APPT-DIST-INDICATOR TO ELEM-RETR-ACCESS    PPL800
039900     ELSE                                                         PPL800
040000         MOVE EXTRACTION-INDICATOR TO ELEM-RETR-ACCESS.           PPL800
040100     PERFORM CALL-PPLELMEX.                                       PPL800
040200     SET ELEM-RETR-ENTRY-INX TO 1.                                PPL800
040300     PERFORM WRITE-PARAMETERS-ROUTINE.                            PPL800
040400     IF WORK-LISTING-REQUESTED                                    PPL800
040500         PERFORM WRITE-EXTRACT-HEADINGS-ROUTINE                   PPL800
040600         MOVE SPACES TO MONITOR-RECORD-WS                         PPL800
040700         PERFORM WRITE-MONITOR-REPORT-RECORD                      PPL800
040800         ADD 1 TO LINES-PRINTED-THIS-PAGE.                        PPL800
040900     PERFORM OUTPUT-PROCESSING-ROUTINE                            PPL800
041000         UNTIL AT-END-OF-EDB.                                     PPL800
041100     MOVE PARAMETER-CARDS-CTR TO PARAMETERS-CTR-EDITING-AREA.     PPL800
041200     MOVE PARAMETER-COUNT-LINE TO MONITOR-RECORD-WS.              PPL800
041300     PERFORM WRITE-MONITOR-REPORT-RECORD.                         PPL800
041400     MOVE EMPLOYEE-CTR TO EMPLOYEE-CTR-EDITING-AREA.              PPL800
041500     MOVE EMPLOYEE-COUNT-LINE TO MONITOR-RECORD-WS.               PPL800
041600     PERFORM WRITE-MONITOR-REPORT-RECORD.                         PPL800
041700     MOVE WORK-RECORDS-CTR TO WORK-RECORD-CTR-EDITING-AREA.       PPL800
041800     MOVE WORK-RECORD-COUNT-LINE TO MONITOR-RECORD-WS.            PPL800
041900     PERFORM WRITE-MONITOR-REPORT-RECORD.                         PPL800
042000     PERFORM WRAPUP-ROUTINE.                                      PPL800
042100/                                                                 PPL800
042200 INPUT-PROCESSING-ROUTINE.                                        PPL800
042300     IF MONITOR-CARD-READ                                         PPL800
042400         MOVE 'YES' TO WORK-LISTING-REQUEST-SW                    PPL800
042500         PERFORM READ-CONTROL-CARD-FILE                           PPL800
042600         GO TO INPUT-PROCESSING-ROUTINE                           PPL800
042700     ELSE                                                         PPL800
042800     IF CULPRIT-CARD-READ                                         PPL800
042900         OPEN OUTPUT CULPRIT-FILE                                 PPL800
043000         MOVE 'YES' TO CULPRIT-DICTIONARY-REQUEST-SW              PPL800
043100                       CULPRIT-FILE-OPEN-SW                       PPL800
043200         PERFORM WRITE-INPUT-FILE-DEF-PARAM
043300         PERFORM WRITE-RDW-REC-CARD
043400         PERFORM READ-CONTROL-CARD-FILE                           PPL800
043500         GO TO INPUT-PROCESSING-ROUTINE                           PPL800
043600     ELSE                                                         PPL800
043700     IF SPECIFIC-APPT-DIST-CARD-READ                              PPL800
043800         MOVE 'YES' TO SPECIFIC-APPT-DIST-REQUEST-SW              PPL800
043900         PERFORM READ-CONTROL-CARD-FILE                           PPL800
044000         GO TO INPUT-PROCESSING-ROUTINE.                          PPL800
044100     ADD 1 TO PARAMETER-CARDS-CTR                                 PPL800
044200              ELEM-RETR-MAX                                       PPL800
044300              SS.                                                 PPL800
044400     IF ELEM-RETR-IN-BOUNDS                                       PPL800
044500         SET ELEM-RETR-ENTRY-INX TO ELEM-RETR-MAX                 PPL800
044600     ELSE                                                         PPL800
044700         DISPLAY 'ELEM MAX OUT OF BOUNDS, = ', ELEM-RETR-MAX,     PPL800
044800            ' -- ABORTED'                                         PPL800
044900         PERFORM WRAPUP-ROUTINE.                                  PPL800
045000     MOVE EDB-DATA-ITEM-NUMBER TO                                 PPL800
045100         ELEM-RETR-NO (ELEM-RETR-ENTRY-INX).                      PPL800
045200     IF ALTERNATE-EDB-DATA-ITEM-NAME NOT = SPACES                 PPL800
045300         MOVE ALTERNATE-EDB-DATA-ITEM-NAME TO                     PPL800
045400             EDB-DATA-ITEM-NAME-STORAGE (SS)                      PPL800
045500     ELSE                                                         PPL800
045600         MOVE EDB-DATA-ITEM-NAME TO                               PPL800
045700             EDB-DATA-ITEM-NAME-STORAGE (SS).                     PPL800
045800     IF RAW-DATA-REQUESTED                                        PPL800
045900         MOVE '0' TO ELEM-RETR-FORMAT (ELEM-RETR-ENTRY-INX)       PPL800
046000     ELSE                                                         PPL800
046100     IF EDITED-DATA-REQUESTED                                     PPL800
046200         MOVE '1' TO ELEM-RETR-FORMAT (ELEM-RETR-ENTRY-INX).      PPL800
046300     PERFORM READ-CONTROL-CARD-FILE.                              PPL800
046400/                                                                 PPL800
046500 OUTPUT-PROCESSING-ROUTINE.                                       PPL800
046600     ADD 1 TO EMPLOYEE-CTR.                                       PPL800
046700     SET ELEM-RETR-ENTRY-INX                                      PPL800
046800         WORK-RECORD-CHARACTER-INDEX                              PPL800
046900             TO 1.                                                PPL800
047000     PERFORM CALL-PPLELMEX.                                       PPL800
047100     IF ELEM-RETR-ERROR-CODE = ZERO                               PPL800
047200         PERFORM PROCESSING-ROUTINE ELEM-RETR-MAX TIMES           PPL800
047300         SET WORK-RECORD-SIZE TO WORK-RECORD-CHARACTER-INDEX
047400         PERFORM WRITE-WORK-FILE                                  PPL800
047500         ADD 1 TO WORK-RECORDS-CTR                                PPL800
047600     ELSE                                                         PPL800
047700         DISPLAY 'EXTRACT FAILED FOR ID - ', SEG-ID (1).          PPL800
047800     IF WORK-LISTING-REQUESTED                                    PPL800
047900         IF (LINES-PRINTED-THIS-PAGE + ELEM-RETR-MAX) >           PPL800
048000             MAXIMUM-PRINTED-LINES-PER-PAGE                       PPL800
048100             PERFORM WRITE-EXTRACT-HEADINGS-ROUTINE.              PPL800
048200     IF WORK-LISTING-REQUESTED                                    PPL800
048300         MOVE SPACES TO MONITOR-REPORT-RECORD                     PPL800
048400         WRITE MONITOR-REPORT-RECORD                              PPL800
048500         ADD +0001 TO LINES-PRINTED-THIS-PAGE.                    PPL800
048600     PERFORM CALL-PPIOEDB.                                        PPL800
048700*                                                                 PPL800
048800 PROCESSING-ROUTINE.                                              PPL800
048900     SET ELEM-RETR-VALUE-INX TO 1.                                PPL800
049000     PERFORM MOVE-CHARACTER-STRING                                PPL800
049100         ELEM-RETR-EXT-LENGTH (ELEM-RETR-ENTRY-INX) TIMES.        PPL800
049200     IF WORK-LISTING-REQUESTED                                    PPL800
049300         PERFORM MONITOR-REPORT-PROCESS-ROUTINE.                  PPL800
049400     IF ELEM-RETR-ENTRY-INX < ELEM-RETR-MAX                       PPL800
049500         SET ELEM-RETR-ENTRY-INX UP BY 1                          PPL800
049600         SET WORK-RECORD-CHARACTER-INDEX UP BY 1.                 PPL800
049700*                                                                 PPL800
049800 MOVE-CHARACTER-STRING.                                           PPL800
049900     MOVE ELEM-RETR-VALUE-CHAR                                    PPL800
050000              (ELEM-RETR-ENTRY-INX, ELEM-RETR-VALUE-INX) TO       PPL800
050100         WORK-LINE (WORK-RECORD-CHARACTER-INDEX).                 PPL800
050200     IF ELEM-RETR-VALUE-INX < ELEM-RETR-EXT-LENGTH                PPL800
050300                                  (ELEM-RETR-ENTRY-INX)           PPL800
050400         SET ELEM-RETR-VALUE-INX UP BY 1                          PPL800
050500         SET WORK-RECORD-CHARACTER-INDEX UP BY 1.                 PPL800
050600*                                                                 PPL800
050700 MONITOR-REPORT-PROCESS-ROUTINE.                                  PPL800
050800     ADD +0001 TO LINES-PRINTED-THIS-PAGE.                        PPL800
050900     IF LINES-PRINTED-THIS-PAGE > MAXIMUM-PRINTED-LINES-PER-PAGE  PPL800
051000         PERFORM WRITE-EXTRACT-HEADINGS-ROUTINE.                  PPL800
051100     MOVE SPACES TO MONITOR-RECORD-WS.                            PPL800
051200     MOVE ELEM-RETR-NO (ELEM-RETR-ENTRY-INX) TO EDB-ELEMENT.      PPL800
051300     MOVE ELEM-RETR-VALUE (ELEM-RETR-ENTRY-INX) TO DATA-ITEM-VALUEPPL800
051400     PERFORM WRITE-MONITOR-REPORT-RECORD.                         PPL800
051500*                                                                 PPL800
051600 WRAPUP-ROUTINE.                                                  PPL800
051700     CLOSE  CONTROL-CARD-FILE                                     PPL800
051800            WORK-FILE                                             PPL800
051900            MONITOR-REPORT.                                       PPL800
052000     IF CULPRIT-FILE-IS-OPEN                                      PPL800
052100         CLOSE CULPRIT-FILE.                                      PPL800
052200     MOVE SEQ-CLOSE TO IO-EDB-ACTION.                             PPL800
052300     PERFORM CALL-PPIOEDB.                                        PPL800
052400     PERFORM PRINT-CONTROL-REPORT.                                PPL800
052500     STOP RUN.                                                    PPL800
052600*                                                                 PPL800
052700 READ-CONTROL-CARD-FILE.                                          PPL800
052800     READ CONTROL-CARD-FILE INTO CONTROL-CARD-EDIT-AREA           PPL800
052900         AT END                                                   PPL800
053000             MOVE 'YES' TO CONTROL-FILE-EOF-SW.                   PPL800
053100*                                                                 PPL800
053200 CALL-PPLELMEX.                                                   PPL800
053300     CALL 'PPLELMEX'                                              PPL800
053400         USING EDB-SEGMENT-TABLE                                  PPL800
053500               ELEM-RETRIEVAL.                                    PPL800
053600*                                                                 PPL800
053700 CALL-PPIOEDB.                                                    PPL800
053800     CALL 'PPIOEDB'                                               PPL800
053900         USING EDB-INTERFACE                                      PPL800
054000               EDB-SEGMENT-TABLE.                                 PPL800
054100     IF IO-EDB-ERROR-CODE = 06                                    PPL800
054200        MOVE 'YES' TO EDB-EOF-SW.                                 PPL800
054300*                                                                 PPL800
054400 WRITE-WORK-FILE.                                                 PPL800
054500     WRITE WORK-FILE-RECORD FROM WORK-RECORD-WS.                  PPL800
054600*                                                                 PPL800
054700 WRITE-MONITOR-REPORT-RECORD.                                     PPL800
054800     MOVE MONITOR-RECORD-WS TO MONITOR-RECORD.                    PPL800
054900     WRITE MONITOR-REPORT-RECORD.                                 PPL800
055000*                                                                 PPL800
055100 WRITE-PARAMETERS-ROUTINE.                                        PPL800
055200     MOVE INITIALIZATION-HEADING-1 TO MONITOR-RECORD.             PPL800
055300     WRITE MONITOR-REPORT-RECORD                                  PPL800
055400         AFTER ADVANCING PAGE.                                    PPL800
055500     MOVE INITIALIZATION-HEADING-2 TO MONITOR-RECORD.             PPL800
055600     WRITE MONITOR-REPORT-RECORD.                                 PPL800
055700     MOVE INITIALIZATION-HEADING-3 TO MONITOR-RECORD.             PPL800
055800     WRITE MONITOR-REPORT-RECORD.                                 PPL800
055900     MOVE INITIALIZATION-HEADING-4 TO MONITOR-RECORD.             PPL800
056000     WRITE MONITOR-REPORT-RECORD                                  PPL800
056100         AFTER ADVANCING ZERO LINES.                              PPL800
056200     MOVE SPACES TO MONITOR-RECORD.                               PPL800
056300     WRITE MONITOR-REPORT-RECORD.                                 PPL800
056400     MOVE +0004 TO LINES-PRINTED-THIS-PAGE.                       PPL800
056500     MOVE SPACES TO MONITOR-RECORD-WS.                            PPL800
056600     PERFORM WRITE-PARAMETERS                                     PPL800
056700         VARYING SS FROM 1 BY 1                                   PPL800
056800         UNTIL SS > ELEM-RETR-MAX.                                PPL800
056900*                                                                 PPL800
057000 WRITE-PARAMETERS.                                                PPL800
057100     MOVE ELEM-RETR-NO (SS) TO EDB-ELEMENT.                       PPL800
057200     IF ELEM-RETR-NUMERIC (ELEM-RETR-ENTRY-INX)                   PPL800
057300         MOVE NUMERIC-LITERAL TO DATA-TYPE OF MONITOR-RECORD-WS   PPL800
057400     ELSE                                                         PPL800
057500     IF ELEM-RETR-ALPHANUM (ELEM-RETR-ENTRY-INX)                  PPL800
057600         MOVE ALPHANUMERIC-LITERAL TO                             PPL800
057700             DATA-TYPE OF MONITOR-RECORD-WS                       PPL800
057800     ELSE                                                         PPL800
057900         MOVE DATE-LITERAL TO DATA-TYPE OF MONITOR-RECORD-WS.     PPL800
058000     IF ELEM-RETR-CHAR (SS)                                       PPL800
058100         MOVE DISPLAY-LITERAL TO MODE-INDICATOR                   PPL800
058200     ELSE                                                         PPL800
058300         MOVE PACKED-LITERAL TO MODE-INDICATOR.                   PPL800
058400     IF ELEM-RETR-RAW (SS)                                        PPL800
058500         MOVE RAW-LITERAL TO FORMAT-INDICATOR                     PPL800
058600     ELSE                                                         PPL800
058700         MOVE EDITED-LITERAL TO FORMAT-INDICATOR.                 PPL800
058800     MOVE ELEM-RETR-START-POS (SS) TO                             PPL800
058900         STARTING-POSITION OF MONITOR-RECORD-WS.                  PPL800
059000     MOVE ELEM-RETR-INT-LENGTH (SS) TO INTERNAL-LENGTH.           PPL800
059100     MOVE EXTERNAL-START-POSITION TO                              PPL800
059200         EXTERNAL-START-POSITION-EDITED.                          PPL800
059300     MOVE ELEM-RETR-EXT-LENGTH (SS) TO EXTERNAL-LENGTH.           PPL800
059400     MOVE ELEM-RETR-DEC-SIZE (SS) TO DECIMAL-POSITIONS.           PPL800
059500     IF ELEM-RETR-NUMERIC (SS)                                    PPL800
059600         MOVE NUMERIC-LITERAL TO DATA-TYPE OF MONITOR-RECORD-WS   PPL800
059700     ELSE                                                         PPL800
059800     IF ELEM-RETR-ALPHANUM (SS)                                   PPL800
059900         MOVE ALPHANUMERIC-LITERAL TO                             PPL800
060000             DATA-TYPE OF MONITOR-RECORD-WS                       PPL800
060100     ELSE                                                         PPL800
060200         MOVE DATE-LITERAL TO DATA-TYPE OF MONITOR-RECORD-WS.     PPL800
060300     IF ELEM-RETR-INITIALIZED (SS)                                PPL800
060400         MOVE VALID-LITERAL TO STATUS-INDICATOR                   PPL800
060500     ELSE                                                         PPL800
060600         MOVE INVALID-LITERAL TO STATUS-INDICATOR.                PPL800
060700     PERFORM WRITE-MONITOR-REPORT-RECORD.                         PPL800
060800     IF CULPRIT-DICTIONARY-REQUESTED                              PPL800
060900         PERFORM CULPRIT-DICTIONARY-PROCESSING.                   PPL800
061000     ADD ELEM-RETR-EXT-LENGTH (SS) TO EXTERNAL-START-POSITION.    PPL800
061100*                                                                 PPL800
061200 CULPRIT-DICTIONARY-PROCESSING.                                   PPL800
061300     MOVE EDB-DATA-ITEM-NAME-STORAGE (SS) TO FIELD-NAME.          PPL800
061400     MOVE EXTERNAL-START-POSITION TO                              PPL800
061500         STARTING-POSITION OF CULPRIT-DICTIONARY-RECORD.          PPL800
061600     MOVE EXTERNAL-LENGTH TO FIELD-LENGTH.                        PPL800
061700     IF ELEM-RETR-NUMERIC (SS)                                    PPL800
061800         MOVE 2 TO DATA-TYPE OF CULPRIT-DICTIONARY-RECORD         PPL800
061900     ELSE                                                         PPL800
062000         MOVE SPACE TO DATA-TYPE OF CULPRIT-DICTIONARY-RECORD.    PPL800
062100     IF ELEM-RETR-DEC-SIZE (SS) = ZEROS                           PPL800
062200         MOVE SPACES TO DECIMAL-PLACE-LITERAL                     PPL800
062300                        DECIMAL-PLACES                            PPL800
062400     ELSE                                                         PPL800
062500         MOVE DECIMAL-PLACE-INDICATOR TO DECIMAL-PLACE-LITERAL    PPL800
062600         MOVE DECIMAL-POSITIONS TO DECIMAL-PLACES.                PPL800
062700     PERFORM WRITE-CULPRIT-RECORD.                                PPL800
062800     ADD 1 TO CULPRIT-RECORDS-CREATED-CTR.                        PPL800
062900                                                                  PPL800
063000 WRITE-EXTRACT-HEADINGS-ROUTINE.                                  PPL800
063100     MOVE GENERAL-HEADING TO MONITOR-RECORD.                      PPL800
063200     WRITE MONITOR-REPORT-RECORD                                  PPL800
063300         AFTER ADVANCING PAGE.                                    PPL800
063400     MOVE EXTRACT-HEADING-1 TO MONITOR-RECORD.                    PPL800
063500     WRITE MONITOR-REPORT-RECORD.                                 PPL800
063600     MOVE EXTRACT-HEADING-2 TO MONITOR-RECORD.                    PPL800
063700     WRITE MONITOR-REPORT-RECORD                                  PPL800
063800         AFTER ADVANCING ZERO LINES.                              PPL800
063900     MOVE +0002 TO LINES-PRINTED-THIS-PAGE.                       PPL800
064000*                                                                 PPL800
064100 WRITE-INPUT-FILE-DEF-PARAM.
064200     WRITE CULPRIT-RECORD FROM INPUT-FILE-DEFINITION-PARAM.
064300*                                                                 PPL800
064400 WRITE-RDW-REC-CARD.
064500     MOVE RDW-FIELD-NAME TO FIELD-NAME.
064600     MOVE RDW-STARTING-POSITION TO
064700         STARTING-POSITION OF CULPRIT-DICTIONARY-RECORD.
064800     MOVE RDW-FIELD-LENGTH TO FIELD-LENGTH.
064900     MOVE SPACES TO DATA-TYPE OF CULPRIT-DICTIONARY-RECORD
065000                    DECIMAL-PLACE-LITERAL
065100                    DECIMAL-PLACES.
065200     PERFORM WRITE-CULPRIT-RECORD.
065300*                                                                 PPL800
065400 WRITE-CULPRIT-RECORD.                                            PPL800
065500     WRITE CULPRIT-RECORD FROM CULPRIT-DICTIONARY-RECORD.         PPL800
065600/                                                                 DS413
065700*                                                                 DS413
065800*      CONTROL REPORT PPL800CR                                    DS413
065900*                                                                 DS413
066000*                                                                 DS413
066100 PRINT-CONTROL-REPORT SECTION.                                    DS413
066200                                                                  DS413
066300     OPEN OUTPUT CONTROLREPORT.                                   DS413
066400                                                                  DS413
066500     MOVE 'PPL800CR'             TO CR-HL1-RPT.                   DS413
066600     MOVE CR-HDG-LINE1           TO CONTROL-DATA.                 DS413
066700     WRITE CONTROLRECORD AFTER ADVANCING PAGE.                    DS413
066800                                                                  DS413
066900     MOVE CR-HDG-LINE2           TO CONTROL-DATA.                 DS413
067000     WRITE CONTROLRECORD AFTER ADVANCING 1 LINES.                 DS413
067100                                                                  DS413
067200     MOVE WHEN-COMPILED          TO COMPILE-TIME-AND-DATE.        DS413
067300     MOVE COMPILE-TIME           TO CR-HL3-CMP-TIME.              DS413
067400     MOVE COMPILE-DATE           TO CR-HL3-CMP-DATE.              DS413
067500     MOVE CR-HDG-LINE3           TO CONTROL-DATA.                 DS413
067600     WRITE CONTROLRECORD AFTER ADVANCING 2 LINES.                 DS413
067700                                                                  DS413
067800     MOVE CR-HDG-LINE4           TO CONTROL-DATA.                 DS413
067900     WRITE CONTROLRECORD AFTER ADVANCING 3 LINES.                 DS413
068000                                                                  DS413
068100     MOVE SPACES TO CONTROL-FILE-EOF-SW.                          DS413
068200     OPEN INPUT CONTROL-CARD-FILE.                                DS413
068300     PERFORM READ-CONTROL-CARD-FILE.                              DS413
068400     PERFORM WRITE-CONTROL-RECORD                                 DS413
068500         UNTIL AT-END-OF-CONTROL-FILE.                            DS413
068600     CLOSE CONTROL-CARD-FILE.                                     DS413
068700*    MOVE CNTL-REC               TO CR-DL5-CTL-CARD.              DS413
068800*    MOVE CR-DET-LINE5           TO CONTROL-DATA.                 DS413
068900*    WRITE CONTROLRECORD AFTER ADVANCING 2 LINES.                 DS413
069000                                                                  DS413
069100     MOVE CR-HDG-LINE6           TO CONTROL-DATA.                 DS413
069200     WRITE CONTROLRECORD AFTER ADVANCING 3 LINES.                 DS413
069300                                                                  DS413
069400*    ACCEPT TIME-WORK-AREA FROM TIME.                             DS413
069500     MOVE TIME-OF-DAY            TO TIME-WORK-AREA.               DS413
069600     MOVE CORR TIME-WORK-AREA    TO TIME-WORK-AREA-SPLIT.         DS413
069700     MOVE TIME-WORK-AREA-SPLIT   TO CR-DL7-CTL-TIME.              DS413
069800     MOVE CR-DET-LINE7           TO CONTROL-DATA.                 DS413
069900     WRITE CONTROLRECORD AFTER ADVANCING 2 LINES.                 DS413
070000                                                                  DS413
070100     MOVE CR-HDG-LINE8           TO CONTROL-DATA.                 DS413
070200     WRITE CONTROLRECORD AFTER ADVANCING 3 LINES.                 DS413
070300*                                                                 DS413
070400*  FOLLOWING CODE MUST BE DUPLICATED FOR EVERY FILE               DS413
070500*                                                                 DS413
070600*  FILE NAME, ACTION (SO-CREATED OR SO-READ), AND                 DS413
070700*  THE ACTUAL RECORD COUNTER MUST BE FILLED IN                    DS413
070800*                                                                 DS413
070900     MOVE 'WORK FILE'            TO CR-DL9-FILE.                  DS413
071000     MOVE SO-CREATED             TO CR-DL9-ACTION.                DS413
071100     MOVE WORK-RECORDS-CTR       TO CR-DL9-VALUE.                 DS413
071200     MOVE CR-DET-LINE9           TO CONTROL-DATA.                 DS413
071300     WRITE CONTROLRECORD AFTER ADVANCING 2 LINES.                 DS413
071400*                                                                 DS413
071500     MOVE 'CULPRIT FILE'         TO CR-DL9-FILE.                  DS413
071600     MOVE SO-CREATED             TO CR-DL9-ACTION.                DS413
071700     MOVE CULPRIT-RECORDS-CREATED-CTR TO CR-DL9-VALUE.            DS413
071800     MOVE CR-DET-LINE9           TO CONTROL-DATA.                 DS413
071900     WRITE CONTROLRECORD AFTER ADVANCING 2 LINES.                 DS413
072000*                                                                 DS413
072100*                                                                 DS413
072200*                                                                 DS413
072300*                                                                 DS413
072400     MOVE END-OF-REPORT-MSG      TO CONTROL-DATA.                 DS413
072500     WRITE CONTROLRECORD AFTER ADVANCING 4 LINES.                 DS413
072600                                                                  DS413
072700     CLOSE CONTROLREPORT.                                         DS413
072800 WRITE-CONTROL-RECORD SECTION.                                    DS413
072900     MOVE CONTROL-CARD-EDIT-AREA TO CR-DL5-CTL-CARD.              DS413
073000     MOVE CR-DET-LINE5           TO CONTROL-DATA.                 DS413
073100     WRITE CONTROLRECORD AFTER ADVANCING 2 LINES.                 DS413
073200     PERFORM READ-CONTROL-CARD-FILE.                              DS413
