000100*==========================================================%      DS413
000200*=    PROGRAM: PPLIDSCH                                   =%      DS413
000300*=    CHANGE #DS413         PROJ. REQUEST: REL413         =%      DS413
000400*=    NAME: J.E. MCCLANE    MODIFICATION DATE: 7/20/89    =%      DS413
000500*=                                                        =%      DS413
000600*=    DESCRIPTION:  COBOL TO COBOL II CONVERSION.         =%      DS413
000700*=                                                        =%      DS413
000800*==========================================================%      DS413
000900 IDENTIFICATION DIVISION.
001000 PROGRAM-ID. PPLIDSCH.
001100*REMARKS.    BUILD AND/OR SEARCH AN ID TABLE.                     DS413
001200**************************************************************
001300*
001400*  THE FOLLOWING PARAMETERS ARE PASSED TO THIS PROGRAM.
001500*       FUNCTION CODE, STATUS CODE, OLD ID NUMBER.
001600*
001700**************************************************************
001800 AUTHOR.  J. E. MCCLANE.                                          DS413
001900 DATE-WRITTEN.
002000 DATE-COMPILED.
002100
002200 ENVIRONMENT DIVISION.
002300 CONFIGURATION SECTION.
002400 SOURCE-COMPUTER.  IBM4341.
002500 OBJECT-COMPUTER.  IBM4341.
002600 SPECIAL-NAMES.    C01 IS TOP-PAGE.
002700
002800 INPUT-OUTPUT SECTION.
002900 FILE-CONTROL.
003000
003100     SELECT IDCHNG-FILE ASSIGN TO UT-S-IDCHNG.
003200     SELECT PRINT-FILE  ASSIGN TO UT-S-MSGPRNT.
003300
003400 DATA DIVISION.
003500 FILE SECTION.
003600
003700 FD  IDCHNG-FILE
003800     RECORD CONTAINS 80 CHARACTERS
003900     BLOCK CONTAINS 0 RECORDS
004000     LABEL RECORDS ARE OMITTED.
004100
004200 01  IDCHNG-REC       PIC X(80).
004300
004400 FD  PRINT-FILE
004500     RECORD CONTAINS 133 CHARACTERS
004600     BLOCK CONTAINS 0 RECORDS
004700     LABEL RECORDS ARE OMITTED.
004800
004900 01  PRINT-REC.
005000     05 PRINT-CC               PIC X.
005100     05 PRINT-LN               PIC X(132).
005200
005300 WORKING-STORAGE SECTION.
005400
005500 01  WS-COUNTS.
005600     05 WS-READ-CNT            PIC 9(5)  VALUE ZEROS.
005700     05 WS-ERR-CNT             PIC 9(5)  VALUE ZEROS.
005800     05 WS-TBL-CNT             PIC 9(5)  VALUE ZEROS.
005900     05 WS-LIMIT               PIC 9(5)  VALUE 500.
006000     05 WS-LINE-CNT            PIC 9(5)  VALUE ZERO.
006100     05 WS-SC1                 PIC S9(5) VALUE +1.
006200
006300 01  WS-FUNC                   PIC 9.
006400     88  FUNC-ONE                    VALUE 1.
006500     88  FUNC-TWO                    VALUE 2.
006600     88  FUNC-THREE                  VALUE 3.
006700
006800 01  WS-LIT.
006900     05 WS-LIT-ONE             PIC 9 VALUE 1.
007000     05 WS-LIT-FIVE            PIC 9 VALUE 5.
007100     05 WS-LIT-NO              PIC X VALUE 'N'.
007200     05 WS-LIT-YES             PIC X VALUE 'Y'.
007300     05 WS-LIT-FUNC            PIC X(16)  VALUE
007400        'INVALID FUNCTION'.
007500     05 WS-LIT-TBLIMIT         PIC X(16)  VALUE
007600        'TABLE SIZE > 500'.
007700     05 WS-LIT-TOTRD           PIC X(25)  VALUE
007800        'ID RECORDS LOADED =      '.
007900
008000 01  WS-IDCHNG-SW              PIC X.
008100     88 WS-IDCHNG-EOF                VALUE 'Y'.
008200
008300 01  FORMAT-DATE.     COPY CPWSDATE.                              DS413
008400
008500 01  PRT-ERR-MSG.
008600     05 FILLER                 PIC X(10) VALUE SPACES.
008700     05 PRT-ERR-ID             PIC 9(9).
008800     05 FILLER                 PIC X(10) VALUE SPACES.
008900     05 PRT-ERROR-MSG          PIC X(16).
009000     05 FILLER                 PIC X(10) VALUE SPACES.
009100     05 PRT-ERR-FIELD          PIC 9(9).
009200     05 FILLER                 PIC X(69) VALUE SPACES.
009300
009400 01  PRT-MSG-END.
009500     05 FILLER                 PIC X(16) VALUE SPACES.
009600     05 PRT-MSG-MSG            PIC X(25).
009700     05 FILLER                 PIC X(15) VALUE SPACES.
009800     05 PRT-MSG-CNT            PIC ZZZ,ZZ9.
009900     05 FILLER                 PIC X(70) VALUE SPACES.
010000
010100 01  PRT-TITLE.
010200     05 FILLER                 PIC X(16) VALUE SPACES.
010300     05 PRT-DATE               PIC X(8).
010400     05 FILLER                 PIC X(15) VALUE SPACES.
010500     05 FILLER                 PIC X(28) VALUE
010600        'ID TABLE BUILD STATUS REPORT'.
010700     05 FILLER                 PIC X(75) VALUE SPACES.
010800
010900 01  WS-IDCHNG.
011000     05 WS-IDOLD               PIC X(9).
011100     05 WS-IDNEW               PIC X(9).
011200     05 FILLER                 PIC X(62).
011300
011400 01  TBL-ID.
011500     05 TBL-SEARCID OCCURS 1 TO 500 TIMES
011600            DEPENDING ON WS-TBL-CNT
011700            ASCENDING KEY IS TBL-OLDID
011800            INDEXED BY INDX-SCHID.
011900        10 TBL-OLDID             PIC X(9).
012000        10 TBL-NEWID             PIC X(9).
012100     EJECT
012200 LINKAGE SECTION.
012300 01  INOUT-IDCHNG.
012400     05  DATA-FUNC           PIC 9.
012500     05  DATA-IDNO           PIC X(9).
012600     05  DATA-NEWID          PIC X(9).
012700     05  DATA-STATCD         PIC 99.
012800
012900     EJECT
013000 PROCEDURE DIVISION USING INOUT-IDCHNG.
013100
013200     MOVE DATA-FUNC TO WS-FUNC.
013300     IF FUNC-ONE
013400         PERFORM INIT-TBL THRU INIT-TBL-EXIT
013500     ELSE
013600         IF FUNC-TWO
013700             PERFORM SEARCH-ID-TABLE THRU SEARCH-ID-TABLE-EXIT
013800         ELSE
013900             IF FUNC-THREE
014000                 CLOSE IDCHNG-FILE
014100                       PRINT-FILE
014200             ELSE
014300                 MOVE WS-LIT-FIVE TO DATA-STATCD
014400                 MOVE WS-FUNC TO PRT-ERROR-MSG
014500                 PERFORM WRITE-ERR-MSG THRU WRITE-ERR-MSG-EXIT
014600                 CLOSE IDCHNG-FILE
014700                       PRINT-FILE.
014800
014900     GOBACK.
015000     EJECT
015100 INIT-TBL.
015200
015300     OPEN INPUT IDCHNG-FILE
015400         OUTPUT PRINT-FILE.
015500*    MOVE CURRENT-DATE TO PRT-DATE.                               DS413
015600     MOVE CURRENT-DATE TO GREGORIAN-DATE.                         DS413
015700*    ACCEPT PRE-EDIT-DATE FROM DATE.                              DS413
015800*    MOVE PRE-MM TO GREG-MM.                                      DS413
015900*    MOVE PRE-DD TO GREG-DD.                                      DS413
016000*    MOVE PRE-YY TO GREG-YY.                                      DS413
015600     MOVE GREGORIAN-DATE TO PRT-DATE.                             DS413
015700     MOVE SPACES TO TBL-ID.
015800     MOVE WS-LIT-NO TO WS-IDCHNG-SW.
015900     SET INDX-SCHID TO WS-SC1.
016000     PERFORM READ-INPUT-CHNG THRU READ-INPUT-CHNG-EXIT
016100         UNTIL WS-IDCHNG-EOF.
016200
016300 INIT-TBL-EXIT.
016400     EXIT.
016500
016600 READ-INPUT-CHNG.
016700
016800     READ IDCHNG-FILE INTO WS-IDCHNG
016900         AT END
017000             MOVE WS-LIT-YES TO WS-IDCHNG-SW
017100             MOVE ZEROS TO DATA-STATCD
017200             PERFORM END-TBL-LOAD THRU END-TBL-LOAD-EXIT
017300             GO TO READ-INPUT-CHNG-EXIT.
017400     ADD WS-LIT-ONE TO WS-READ-CNT.
017500     PERFORM BUILD-ID-TABLE THRU BUILD-ID-TABLE-EXIT.
017600
017700 READ-INPUT-CHNG-EXIT.
017800     EXIT.
017900
018000 BUILD-ID-TABLE.
018100
018200     IF INDX-SCHID > WS-LIMIT
018300         MOVE WS-LIT-FIVE TO DATA-STATCD
018400         MOVE WS-LIT-TBLIMIT TO PRT-ERROR-MSG
018500         PERFORM WRITE-ERR-MSG THRU WRITE-ERR-MSG-EXIT
018600         PERFORM END-TBL-LOAD  THRU END-TBL-LOAD-EXIT
018700         GO TO BUILD-ID-TABLE-EXIT.
018800
018900     MOVE WS-IDOLD TO TBL-OLDID (INDX-SCHID).
019000     MOVE WS-IDNEW TO TBL-NEWID (INDX-SCHID).
019100     ADD 1 TO WS-TBL-CNT.
019200     SET INDX-SCHID UP BY 1.
019300
019400 BUILD-ID-TABLE-EXIT.
019500     EXIT.
019600
019700 END-TBL-LOAD.
019800
019900     WRITE PRINT-REC FROM PRT-TITLE AFTER
020000         ADVANCING TOP-PAGE.
020100
020200     MOVE WS-LIT-TOTRD TO PRT-MSG-MSG.
020300     MOVE WS-READ-CNT TO PRT-MSG-CNT.
020400     WRITE PRINT-REC FROM PRT-MSG-END AFTER
020500         ADVANCING 2 LINES.
020600
020700 END-TBL-LOAD-EXIT.
020800     EXIT.
020900     EJECT
021000 SEARCH-ID-TABLE.
021100
021200     SEARCH ALL TBL-SEARCID
021300         AT END
021400             MOVE WS-LIT-ONE TO DATA-STATCD
021500         WHEN TBL-OLDID (INDX-SCHID) = DATA-IDNO
021600             MOVE ZEROS TO DATA-STATCD
021700             MOVE TBL-NEWID (INDX-SCHID) TO DATA-NEWID.
021800
021900 SEARCH-ID-TABLE-EXIT.
022000     EXIT.
022100
022200
022300 WRITE-ERR-MSG.
022400
022500     ADD 1 TO WS-ERR-CNT.
022600     WRITE PRINT-REC FROM PRT-ERR-MSG AFTER ADVANCING
022700         1 LINES.
022800     ADD 1 TO WS-LINE-CNT.
022900
023000 WRITE-ERR-MSG-EXIT.
023100     EXIT.
023200     EJECT
