000100**************************************************************/   30930413
000200*  PROGRAM: PPLVASM                                          */   30930413
000300*  RELEASE: ____0413____  SERVICE REQUEST(S): ____3093____   */   30930413
000400*  NAME:____JIM WILLIAMS__CREATION DATE:      __05/23/89__   */   30930413
000500*  DESCRIPTION:                                              */   30930413
000600*  - CHANGED FOR CONVERSION FROM OS/VS COBOL TO VS COBOL II. */   30930413
000700**************************************************************/   30930413
000800**************************************************************/   30860375
000801*  PROGRAM:  PPLVASM                                         */   30860375
000802*  REL#:  0375   REF: 0362  SERVICE REQUESTS:   ___3086_____ */   30860375
000803*  NAME _____JLT_______   MODIFICATION DATE ____09/28/88_____*/   30860375
000804*  DESCRIPTION                                               */   30860375
000805*   - INITIAL INSTALLATION OF 'PPLVASM'.                     */   30860375
000806**************************************************************/   30860375
000807*                                                                 PPLVASM
000808 IDENTIFICATION DIVISION.                                         PPLVASM
000809 PROGRAM-ID. PPLVASM.                                             PPLVASM
000810 AUTHOR. UNIV OF CAL.                                             PPLVASM
000820 DATE-WRITTEN.  SEPT 28, 1988.                                    PPLVASM
000830 DATE-COMPILED.                                                   PPLVASM
000840 INSTALLATION. U.C.O.P.                                           PPLVASM
000850*REMARKS. THIS MODULE (CALLED BY PPP520) CALCULATES/PRINTS LEAVE  30930413
000860*    ASSESSMENT RATES.                                            PPLVASM
000870     EJECT                                                        PPLVASM
000880*                                                                 PPLVASM
000890 ENVIRONMENT DIVISION.                                            PPLVASM
000900 CONFIGURATION SECTION.                                           PPLVASM
001000 SOURCE-COMPUTER.        IBM-370.                                 PPLVASM
001100 OBJECT-COMPUTER.        IBM-370.                                 PPLVASM
001200 SPECIAL-NAMES.                                                   PPLVASM
001300     C01 IS NEW-PAGE.                                             PPLVASM
001400     EJECT                                                        PPLVASM
001500 INPUT-OUTPUT SECTION.                                            PPLVASM
001600 FILE-CONTROL.                                                    PPLVASM
001700*                                                                 PPLVASM
001800     SKIP2                                                        PPLVASM
001900     SELECT PRINT1                                                PPLVASM
002000         ASSIGN TO UT-S-PRINTLV.                                  PPLVASM
002100*                                                                 PPLVASM
002200     EJECT                                                        PPLVASM
002300******************************************************************PPLVASM
002400*                    D A T A   D I V I S I O N                   *PPLVASM
002500******************************************************************PPLVASM
002600 DATA DIVISION.                                                   PPLVASM
002700 FILE SECTION.                                                    PPLVASM
002800     SKIP3                                                        PPLVASM
002900*                                                                 PPLVASM
003000     SKIP3                                                        PPLVASM
003100 FD  PRINT1                   COPY  CPFDXPRT.                     PPLVASM
003200     SKIP3                                                        PPLVASM
003300     EJECT                                                        PPLVASM
003400******************************************************************PPLVASM
003500*                                                                 PPLVASM
003600*                                                                 PPLVASM
003700 WORKING-STORAGE SECTION.                                         PPLVASM
003800*                                                                 PPLVASM
003900 77  A-STND-PROG-ID          PIC X(26) VALUE 'PPLVASM/100188'.    PPLVASM
004000*                                                                 PPLVASM
004100 77  LINE-CNT                     PIC S9(3)      VALUE +50.       PPLVASM
004200 77  PRT-SPACEING                 PIC S9(4) COMP SYNC VALUE +1.   PPLVASM
004300 77  FIRST-TIME-SW                PIC X     VALUE 'Y'.            PPLVASM
004400*                                                                 PPLVASM
004500***                                                               PPLVASM
004600     SKIP3                                                        PPLVASM
004700*                                                                 PPLVASM
004800 01  DATE-FORMAT.       COPY CPWSDATE.                            30930413
004900*                                                                 30930413
005000 01  LV-WORK-AREAS.                                               PPLVASM
005100     03  CONSTANT-WORK-DAYS-PER-YEAR                              PPLVASM
005200                                  PIC S9(3)V99 COMP-3 VALUE ZERO. PPLVASM
005300     03  ANNUAL-LV-TYPE-HRS       PIC S9(5)V99 COMP-3 VALUE ZERO. PPLVASM
005400     03  ANNUAL-VAC-HRS           PIC S9(5)V99 COMP-3 VALUE ZERO. PPLVASM
005500     03  ANNUAL-SKL-HRS           PIC S9(5)V99 COMP-3 VALUE ZERO. PPLVASM
005600     03  ANNUAL-PTO-HRS           PIC S9(5)V99 COMP-3 VALUE ZERO. PPLVASM
005700     03  ANTICP-ANNUAL-VAC-HRS    PIC S9(5)V99 COMP-3 VALUE ZERO. PPLVASM
005800     03  ANTICP-ANNUAL-SKL-HRS    PIC S9(5)V99 COMP-3 VALUE ZERO. PPLVASM
005900     03  ANTICP-ANNUAL-PTO-HRS    PIC S9(5)V99 COMP-3 VALUE ZERO. PPLVASM
006000     03  TOT-ANNUAL-LV-HRS        PIC S9(5)V99 COMP-3 VALUE ZERO. PPLVASM
006100     03  ANNUAL-WORK-AND-LEAVE-HRS                                PPLVASM
006200                                  PIC S9(5)V99 COMP-3 VALUE ZERO. PPLVASM
006300     03  ANNUAL-HRS-TO-BE-WORKED  PIC S9(5)V99 COMP-3 VALUE ZERO. PPLVASM
006400     03  LEAVE-HRS-WORK-HRS-RATIO PIC S9V9(4)  COMP-3 VALUE ZERO. PPLVASM
006500     03  LEAVE-ASSESSMENT-RATE    PIC S9V9(4)  COMP-3 VALUE ZERO. PPLVASM
006600*                                                                 PPLVASM
006700* * * * * * * * * * * *                                           PPLVASM
006800*                                                                 PPLVASM
006900*                                                                 PPLVASM
007000 01  SUBSCRIPTS.                                                  PPLVASM
007100     05  LRT-X                    PIC S9(4) COMP SYNC VALUE ZERO. PPLVASM
007200     05  FRWD-LATI-INDX           PIC S9(4) COMP SYNC VALUE ZERO. PPLVASM
007300     05  MISC-INDX                PIC S9(4) COMP SYNC VALUE ZERO. PPLVASM
007400*                                                                 PPLVASM
007500 01  SAVE-AREAS.                                                  PPLVASM
007600     05  SAVE-LRT-LV-PLAN         PIC X    VALUE SPACE.           PPLVASM
007700     05  SAVE-LRT-PAY-CYC         PIC X    VALUE SPACE.           PPLVASM
007800*                                                                 PPLVASM
007900 01  PRINT-WORK-LITERALS.                                         PPLVASM
008000     03  LINE-LITERALS.                                           PPLVASM
008100         05  LINE01 PIC X(44)                                     PPLVASM
008200            VALUE '                                            '. PPLVASM
008300         05  LINE02 PIC X(44)                                     PPLVASM
008400            VALUE '         LEAVE PLAN:     ACCRU PERIODS:     '. PPLVASM
008500         05  LINE03 PIC X(44)                                     PPLVASM
008600            VALUE 'ANNUAL HOURS TOWARD LEAVE                   '. PPLVASM
008700         05  LINE04 PIC X(44)                                     PPLVASM
008800            VALUE ' 1) STND YEARLY HOURS FOR LEAVE ACCRUAL     '. PPLVASM
008900         05  LINE05 PIC X(44)                                     PPLVASM
009000            VALUE ' 2) STND HOURS PER DAY                      '. PPLVASM
009100         05  LINE06 PIC X(44)                                     PPLVASM
009200            VALUE ' 3) STND DAYS PER YEAR                      '. PPLVASM
009300         05  LINE07 PIC X(44)                                     PPLVASM
009400            VALUE ' 4) BARGANING UNIT HOURS PER DAY            '. PPLVASM
009500         05  LINE08 PIC X(44)                                     PPLVASM
009600            VALUE ' 5) ANNUAL HOURS TOWARD LEAVE               '. PPLVASM
009700         05  LINE09 PIC X(44)                                     PPLVASM
009800            VALUE 'ANTICIPATED ANNUAL LEAVE AND WORK HOURS     '. PPLVASM
009900         05  LINE10 PIC X(44)                                     PPLVASM
010000            VALUE ' 6) NORMAL VACATION HOURS                   '. PPLVASM
010100         05  LINE11 PIC X(44)                                     PPLVASM
010200            VALUE ' 7) VACATION UTILIZATION FACTOR             '. PPLVASM
010300         05  LINE12 PIC X(44)                                     PPLVASM
010400            VALUE ' 8) ADJUSTED VACATION HOURS                 '. PPLVASM
010500         05  LINE13 PIC X(44)                                     PPLVASM
010600            VALUE ' 9) NORMAL SICK LEAVE HOURS                 '. PPLVASM
010700         05  LINE14 PIC X(44)                                     PPLVASM
010800            VALUE ' 10) SICK LEAVE UTILIZATION FACTOR          '. PPLVASM
010900         05  LINE15 PIC X(44)                                     PPLVASM
011000            VALUE ' 11) ADJUSTED SICK LEAVE HOURS              '. PPLVASM
011100         05  LINE16 PIC X(44)                                     PPLVASM
011200            VALUE ' 12) NORMAL PTO HOURS                       '. PPLVASM
011300         05  LINE17 PIC X(44)                                     PPLVASM
011400            VALUE ' 13) PTO UTILIZATION FACTOR                 '. PPLVASM
011500         05  LINE18 PIC X(44)                                     PPLVASM
011600            VALUE ' 14) ADJUSTED PTO HOURS                     '. PPLVASM
011700         05  LINE19 PIC X(44)                                     PPLVASM
011800            VALUE ' 15) ANNUAL LEAVE HOURS                     '. PPLVASM
011900         05  LINE20 PIC X(44)                                     PPLVASM
012000            VALUE ' 16) ANNUAL WORK HOURS                      '. PPLVASM
012100         05  LINE21 PIC X(44)                                     PPLVASM
012200            VALUE 'RATIO:                                      '. PPLVASM
012300         05  LINE22 PIC X(44)                                     PPLVASM
012400            VALUE ' 17) ANNUAL LEAVE HOURS TO ANNUAL WORK HOURS'. PPLVASM
012500         05  LINE23 PIC X(44)                                     PPLVASM
012600            VALUE '       BENEFITS  CATEGORY                   '. PPLVASM
012700         05  LINE24 PIC X(44)                                     PPLVASM
012800            VALUE '       ------------------                   '. PPLVASM
012900         05  LINE25 PIC X(44)                                     PPLVASM
013000            VALUE '1. NO EMPLOYER RETIREMENT CONTRIBUTION      '. PPLVASM
013100         05  LINE26 PIC X(44)                                     PPLVASM
013200            VALUE '2. RETRMNT WITHOUT FICA/FICA WITHOUT RETRMNT'. PPLVASM
013300         05  LINE27 PIC X(44)                                     PPLVASM
013400            VALUE '3. RETIRMNT WITHOUT FICA WITH EXEC CONTRIBTN'. PPLVASM
013500         05  LINE28 PIC X(44)                                     PPLVASM
013600            VALUE '4. RETIREMENT WITH FICA                     '. PPLVASM
013700         05  LINE29 PIC X(44)                                     PPLVASM
013800            VALUE '5. RETIRMNT WITHOUT FICA (SAFETY)           '. PPLVASM
013900         05  LINE30 PIC X(44)                                     PPLVASM
014000            VALUE '6. RETIRMNT WITH FICA WITH EXEC CONTRIBTN   '. PPLVASM
014100     03  LINE-LITERALS-RDF  REDEFINES                             PPLVASM
014200         LINE-LITERALS.                                           PPLVASM
014300         05  LINE-LITERAL  OCCURS 30.                             PPLVASM
014400             07  LINE-LIT               PIC X(44).                PPLVASM
014500             07  LINE-LIT-1  REDEFINES                            PPLVASM
014600                 LINE-LIT.                                        PPLVASM
014700                 09  FILLER             PIC X(4).                 PPLVASM
014800                 09  LIT-1-TITLE-TYP    PIC X.                    PPLVASM
014900                 09  FILLER             PIC X(6).                 PPLVASM
015000                 09  LIT-1-TUC          PIC XX.                   PPLVASM
015100                 09  FILLER             PIC X(4).                 PPLVASM
015200                 09  LIT-1-AREP         PIC X.                    PPLVASM
015300                 09  FILLER             PIC X(5).                 PPLVASM
015400                 09  LIT-1-SHC          PIC X.                    PPLVASM
015500                 09  FILLER             PIC X(4).                 PPLVASM
015600                 09  LIT-1-DUC          PIC X.                    PPLVASM
015700                 09  FILLER             PIC X(4).                 PPLVASM
015800                 09  LIT-1-HRS-DAY      PIC Z9.99.                PPLVASM
015900                 09  FILLER             PIC X(6).                 PPLVASM
016000             07  LINE-LIT-2  REDEFINES                            PPLVASM
016100                 LINE-LIT.                                        PPLVASM
016200                 09  FILLER             PIC X(21).                PPLVASM
016300                 09  LIT-2-LV-PLAN      PIC X.                    PPLVASM
016400                 09  FILLER             PIC X(18).                PPLVASM
016500                 09  LIT-2-ACRU-PER     PIC X(4).                 PPLVASM
016600*                                                                 PPLVASM
016700 01  PRINT-WORK-AMOUNTS.                                          PPLVASM
016800     03  PRT-EACH-LINE     OCCURS 30.                             PPLVASM
016900         05  PRT-EACH-FUND-COL    OCCURS 6.                       PPLVASM
017000             07  PRT-FUND-COL.                                    PPLVASM
017100                 09  PRT-FUND-LO       PIC 9(5).                  PPLVASM
017200                 09  PRT-FUND-DASH     PIC X.                     PPLVASM
017300                 09  PRT-FUND-HI       PIC 9(5).                  PPLVASM
017400                 09  FILLER            PIC X.                     PPLVASM
017500             07  PRT-FUND-COL-RDF1  REDEFINES                     PPLVASM
017600                 PRT-FUND-COL.                                    PPLVASM
017700                 09  FILLER            PIC X.                     PPLVASM
017800                 09  PRT-LFT-AMT-2DEC  PIC ZZZ9.99.               PPLVASM
017900                 09  FILLER            PIC X(4).                  PPLVASM
018000             07  PRT-FUND-COL-RDF2  REDEFINES                     PPLVASM
018100                 PRT-FUND-COL.                                    PPLVASM
018200                 09  FILLER            PIC X.                     PPLVASM
018300                 09  PRT-LFT-AMT-4DEC  PIC ZZ.9999.               PPLVASM
018400                 09  FILLER            PIC X(4).                  PPLVASM
018500             07  PRT-FUND-COL-RDF3  REDEFINES                     PPLVASM
018600                 PRT-FUND-COL.                                    PPLVASM
018700                 09  FILLER            PIC X(4).                  PPLVASM
018800                 09  PRT-AMT-2DEC      PIC ZZZ9.99.               PPLVASM
018900                 09  FILLER            PIC X.                     PPLVASM
019000             07  PRT-FUND-COL-RDF4  REDEFINES                     PPLVASM
019100                 PRT-FUND-COL.                                    PPLVASM
019200                 09  FILLER            PIC X(4).                  PPLVASM
019300                 09  PRT-AMT-4DEC      PIC ZZ.9999.               PPLVASM
019400                 09  FILLER            PIC X.                     PPLVASM
019500*                                                                 PPLVASM
019600*                                                                 PPLVASM
019700 01  PRT-LINE                 PIC X(133) VALUE SPACES.            PPLVASM
019800*                                                                 PPLVASM
019900 01  PRINT-LINE1  REDEFINES  PRT-LINE.                            PPLVASM
020000     05  CARRIAGE-CTL-CHAR       PIC X.                           PPLVASM
020100     05  FILLER                  PIC X(10).                       PPLVASM
020200     05  PRT-LINE-LITERAL        PIC X(44).                       PPLVASM
020300     05  FILLER                  PIC X(4).                        PPLVASM
020400     05  PRT-LINE-AMOUNTS        PIC X(72).                       PPLVASM
020500     05  FILLER                  PIC X(2).                        PPLVASM
020600*                                                                 PPLVASM
020700*                                                                 PPLVASM
020800 01  RPT-HEAD-LN1.                                                PPLVASM
020900     05  FILLER      PIC X.                                       PPLVASM
021000     05  FILLER      PIC X(10) VALUE SPACES.                      PPLVASM
021100     05  FILLER      PIC X(20) VALUE 'TITLE TYP  TUC  AREP'.      PPLVASM
021200     05  FILLER      PIC X(20) VALUE '  SHC  DUC  HRS/DAY '.      PPLVASM
021300     05  FILLER      PIC X(20) VALUE '         FUND RANGE '.      PPLVASM
021400     05  FILLER      PIC X(20) VALUE ' FUND RANGE  FUND RA'.      PPLVASM
021500     05  FILLER      PIC X(20) VALUE 'NGE  FUND RANGE  FUN'.      PPLVASM
021600     05  FILLER      PIC X(20) VALUE 'D RANGE  FUND RANGE '.      PPLVASM
021700     05  FILLER      PIC X(2)  VALUE SPACES.                      PPLVASM
021800*                                                                 PPLVASM
021900*01  STND-RPT-HD             COPY  CPWSPSHR.                      30930413
021910 01  STND-RPT-HD.            COPY  CPWSPSHR.                      30930413
021920     SKIP3                                                        PPLVASM
021930*                                                                 PPLVASM
021940*                                                                 PPLVASM
021950*01  IO-FUNCTIONS            COPY CPWSXIOF.                       30930413
021960 01  IO-FUNCTIONS.           COPY CPWSXIOF.                       30930413
021970*                                                                 PPLVASM
021980     EJECT                                                        PPLVASM
021990*                                                                 PPLVASM
022000 01  SYSTEM-PARAMETERS.                                           PPLVASM
022100*                                                                 PPLVASM
022200     03  PARM-STD-HRS-PER-DAY            PIC S9V99      COMP-3.   PPLVASM
022300     03  PARM-LV-WRK-HRS-PER-YR          PIC S9(5)V99   COMP-3.   PPLVASM
022400     03  PARM-BENEFIT-CATEGORIES.                                 PPLVASM
022500         05  PARM-BENEFITS-PERCENT  OCCURS 6                      PPLVASM
022600                                         PIC S9V9(4)  COMP-3.     PPLVASM
022700*                                                                 PPLVASM
022800*01  SYSTEM-PARAMETER-INTERFACE  COPY  CPWSXSPI.                  30930413
022900 01  SYSTEM-PARAMETER-INTERFACE. COPY  CPWSXSPI.                  30930413
023000*                                                                 PPLVASM
023100     05  ADDL-PARMS               OCCURS 7.                       PPLVASM
023200         10  ADDL-PARM-NO         PIC S9(3)      COMP-3.          PPLVASM
023300         10  ADDL-PARM-VALUE      PIC S9(5)V9999 COMP-3.          PPLVASM
023400*                                                                 PPLVASM
023500*                                                                 PPLVASM
023600     EJECT                                                        PPLVASM
023700*                                                                 PPLVASM
023800*01  PPLATUTL-INTERFACE          COPY CPWSLATI.                   30930413
023900 01  PPLATUTL-INTERFACE.         COPY CPWSLATI.                   30930413
024000     EJECT                                                        PPLVASM
024100*                                                                 PPLVASM
024200*01  PPLRTUTL-INTERFACE          COPY CPWSLRTI.                   30930413
024300 01  PPLRTUTL-INTERFACE.         COPY CPWSLRTI.                   30930413
024400     EJECT                                                        PPLVASM
024500******************************************************************PPLVASM
024600*                L I N K A G E   S E C T I O N                   *PPLVASM
024700******************************************************************PPLVASM
024800*                                                                 PPLVASM
024900 LINKAGE SECTION.                                                 PPLVASM
025000*                                                                 PPLVASM
025100*01  PPLVASM-INTERFACE-DATA      COPY CPWSLVAS.                   30930413
025200 01  PPLVASM-INTERFACE-DATA.     COPY CPWSLVAS.                   30930413
025300*                                                                 PPLVASM
025400     EJECT                                                        PPLVASM
025500******************************************************************PPLVASM
025600*            P R O C E D U R E    D I V I S I O N                *PPLVASM
025700******************************************************************PPLVASM
025800*                                                                 PPLVASM
025900 PROCEDURE DIVISION  USING   PPLVASM-INTERFACE-DATA.              PPLVASM
026000*                                                                 PPLVASM
026100 START-PPLVASM-PROCESSING-0010 SECTION.                           PPLVASM
026200 ENTY-0010.                                                       PPLVASM
026300*                                                                 PPLVASM
026400     MOVE ZERO      TO LVAS-ERROR-CODE.                           PPLVASM
026500     MOVE ZERO      TO LVAS-LV-ASSESSMENT-RATE.                   PPLVASM
026600     MOVE LVAS-LV-RESRV-ACCT-DEFAULT                              PPLVASM
026700                    TO LVAS-LV-RESRV-ACCOUNT.                     PPLVASM
026800*                                                                 PPLVASM
026900     IF FIRST-TIME-SW  = 'Y'                                      PPLVASM
027000         MOVE 'N'  TO FIRST-TIME-SW                               PPLVASM
027100         PERFORM PROG-INITITIALIZATION-1000                       PPLVASM
027200            THRU PROG-INIT-EXIT-1000.                             PPLVASM
027300*                                                                 PPLVASM
027400     IF LVAS-ERROR-CODE  > ZERO                                   PPLVASM
027500         NEXT SENTENCE                                            PPLVASM
027600     ELSE                                                         PPLVASM
027700     IF LVAS-ESTABLISH-RATE-CALL       OR                         PPLVASM
027800        LVAS-GET-LV-RESRV-ACCT-CALL                               PPLVASM
027900         PERFORM ESTAB-LAT-LRT-PROCESS-2000                       PPLVASM
028000            THRU EXIT-2000.                                       PPLVASM
028100*                                                                 PPLVASM
028200     GOBACK.                                                      PPLVASM
028300*                                                                 PPLVASM
028400******************************************************************PPLVASM
028500     EJECT                                                        PPLVASM
028600*                                                                 PPLVASM
028700 PROG-INITITIALIZATION-1000  SECTION.                             PPLVASM
028800*                                                                 PPLVASM
028900*                                                                 PPLVASM
029000     MOVE SEQ-READ  TO XSPI-READ-MODE.                            PPLVASM
029100     MOVE +7  TO XSPI-TABLE-SIZE.                                 PPLVASM
029200*                                                                 PPLVASM
029300     MOVE 040 TO XSPI-PARM-NO.                                    PPLVASM
029400     MOVE 042 TO ADDL-PARM-NO (1).                                PPLVASM
029500     MOVE 100 TO ADDL-PARM-NO (2).                                PPLVASM
029600     MOVE 101 TO ADDL-PARM-NO (3).                                PPLVASM
029700     MOVE 102 TO ADDL-PARM-NO (4).                                PPLVASM
029800     MOVE 103 TO ADDL-PARM-NO (5).                                PPLVASM
029900     MOVE 104 TO ADDL-PARM-NO (6).                                PPLVASM
030000     MOVE 105 TO ADDL-PARM-NO (7).                                PPLVASM
030100*                                                                 PPLVASM
030200     PERFORM CALL-PPPRMUTL-8900.                                  PPLVASM
030300*                                                                 PPLVASM
030400     MOVE XSPI-PARM-VALUE      TO PARM-STD-HRS-PER-DAY.           PPLVASM
030500     MOVE ADDL-PARM-VALUE (01) TO PARM-LV-WRK-HRS-PER-YR.         PPLVASM
030600     MOVE ADDL-PARM-VALUE (02) TO PARM-BENEFITS-PERCENT (1).      PPLVASM
030700     MOVE ADDL-PARM-VALUE (03) TO PARM-BENEFITS-PERCENT (2).      PPLVASM
030800     MOVE ADDL-PARM-VALUE (04) TO PARM-BENEFITS-PERCENT (3).      PPLVASM
030900     MOVE ADDL-PARM-VALUE (05) TO PARM-BENEFITS-PERCENT (4).      PPLVASM
031000     MOVE ADDL-PARM-VALUE (06) TO PARM-BENEFITS-PERCENT (5).      PPLVASM
031100     MOVE ADDL-PARM-VALUE (07) TO PARM-BENEFITS-PERCENT (6).      PPLVASM
031200*                                                                 PPLVASM
031300     COMPUTE CONSTANT-WORK-DAYS-PER-YEAR  =                       PPLVASM
031400               PARM-LV-WRK-HRS-PER-YR  /  PARM-STD-HRS-PER-DAY.   PPLVASM
031500*                                                                 PPLVASM
031600     PERFORM PRINT-LEAVE-RATES-5000.                              PPLVASM
031700*                                                                 PPLVASM
031800 PROG-INIT-EXIT-1000.                                             PPLVASM
031900     EXIT.                                                        PPLVASM
032000*                                                                 PPLVASM
032100     EJECT                                                        PPLVASM
032200*                                                                 PPLVASM
032300 ESTAB-LAT-LRT-PROCESS-2000  SECTION.                             PPLVASM
032400*                                                                 PPLVASM
032500**  SET UP LAT SEARCH KEY                                         PPLVASM
032600*                                                                 PPLVASM
032700     MOVE LVAS-DISTR-KEY           TO LATI-IN-SEARCH-KEY.         PPLVASM
032800*                                                                 PPLVASM
032900     PERFORM CALL-PPLATUTL-8700.                                  PPLVASM
033000     IF LATI-ERROR-COND  NOT = ZERO                               PPLVASM
033100         GO TO EXIT-2000.                                         PPLVASM
033200*                                                                 PPLVASM
033300     PERFORM SEARCH-LAT-FUND-2500                                 PPLVASM
033400        THRU EXIT-2500.                                           PPLVASM
033500*                                                                 PPLVASM
033600     IF LVAS-GET-LV-RESRV-ACCT-CALL                               PPLVASM
033700         MOVE LATI-LV-RES-ACCT (LATI-INDX, LATI-FUND-INDX)        PPLVASM
033800                                        TO LVAS-LV-RESRV-ACCOUNT  PPLVASM
033900         IF LVAS-LV-RESRV-ACCOUNT  = ZEROS                        PPLVASM
034000             MOVE LVAS-LV-RESRV-ACCT-DEFAULT                      PPLVASM
034100                                        TO LVAS-LV-RESRV-ACCOUNT  PPLVASM
034200         ELSE                                                     PPLVASM
034300             NEXT SENTENCE                                        PPLVASM
034400     ELSE                                                         PPLVASM
034500     IF LVAS-ESTABLISH-RATE-CALL                                  PPLVASM
034600         PERFORM ESTAB-ASSESSMENT-RATE-3000.                      PPLVASM
034700*                                                                 PPLVASM
034800 EXIT-2000.    EXIT.                                              PPLVASM
034900*                                                                 PPLVASM
035000     SKIP2                                                        PPLVASM
035100*                                                                 PPLVASM
035200 SEARCH-LAT-FUND-2500  SECTION.                                   PPLVASM
035300*                                                                 PPLVASM
035400     MOVE +2  TO LATI-FUND-INDX.                                  PPLVASM
035500 SEARCH-LAT-LOOP-2500.                                            PPLVASM
035600     IF LATI-FUND-INDX  > LATI-FUND-INDX-MAX  OR                  PPLVASM
035700        LATI-FR-LO (LATI-INDX, LATI-FUND-INDX)  = ZEROS           PPLVASM
035800         MOVE +1  TO LATI-FUND-INDX                               PPLVASM
035900     ELSE                                                         PPLVASM
036000         IF LVAS-DISTR-FUND  <                                    PPLVASM
036100                      LATI-FR-LO (LATI-INDX, LATI-FUND-INDX)  OR  PPLVASM
036200            LVAS-DISTR-FUND  >                                    PPLVASM
036300                      LATI-FR-HI (LATI-INDX, LATI-FUND-INDX)      PPLVASM
036400             ADD +1  TO LATI-FUND-INDX                            PPLVASM
036500             GO  TO SEARCH-LAT-LOOP-2500.                         PPLVASM
036600*                                                                 PPLVASM
036700 EXIT-2500.    EXIT.                                              PPLVASM
036800*                                                                 PPLVASM
036900     EJECT                                                        PPLVASM
037000*                                                                 PPLVASM
037100 ESTAB-ASSESSMENT-RATE-3000  SECTION.                             PPLVASM
037200*                                                                 PPLVASM
037300**  SET UP LRT SEARCH KEY                                         PPLVASM
037400*                                                                 PPLVASM
037500     MOVE LATI-RT-SCHED-NO (LATI-INDX)  TO LRTI-SRCH-RT-SCHED-NO. PPLVASM
037600     MOVE LATI-SRCH-DATE-YYMMDD         TO LRTI-SRCH-DATE-YYMMDD. PPLVASM
037700     MOVE LVAS-DISTR-LV-PLAN            TO LRTI-SRCH-LEAVE-PLAN.  PPLVASM
037800     IF LVAS-PRIMARY-PAY-SCHED  = 'BW'                            PPLVASM
037900         MOVE 'B'                       TO LRTI-SRCH-PAY-CYC-IND  PPLVASM
038000     ELSE                                                         PPLVASM
038100         MOVE 'M'                       TO LRTI-SRCH-PAY-CYC-IND. PPLVASM
038200*                                                                 PPLVASM
038300     PERFORM LRT-CALC-RATE-4000                                   PPLVASM
038400        THRU EXIT-4000.                                           PPLVASM
038500*                                                                 PPLVASM
038600**  FACTOR IN THE APPROPRIATE BENEFITS PERCENT IN ORDER TO        PPLVASM
038700**  COMPLETE THE DERIVATION OF THE LEAVE ASSESSMENT RATE.         PPLVASM
038800*                                                                 PPLVASM
038900     COMPUTE LVAS-LV-ASSESSMENT-RATE  ROUNDED =                   PPLVASM
039000             LEAVE-HRS-WORK-HRS-RATIO  *                          PPLVASM
039100        (1.0  +  PARM-BENEFITS-PERCENT (LVAS-XLAC-BENEFIT-INDX)). PPLVASM
039200*                                                                 PPLVASM
039300 EXIT-3000.    EXIT.                                              PPLVASM
039400*                                                                 PPLVASM
039500     EJECT                                                        PPLVASM
039600*                                                                 PPLVASM
039700 LRT-CALC-RATE-4000  SECTION.                                     PPLVASM
039800*                                                                 PPLVASM
039900**  SEARCH LRT FOR VACATION TYPE OF LEAVE                         PPLVASM
040000*                                                                 PPLVASM
040100     MOVE 'V'  TO LRTI-SRCH-LEAVE-TYPE.                           PPLVASM
040200     PERFORM CALL-PPLRTUTL-8800.                                  PPLVASM
040300*                                                                 PPLVASM
040400**  CALCULATE ANNUAL VACATION HOURS                               PPLVASM
040500*                                                                 PPLVASM
040600     IF LRTI-INDX  = ZERO                                         PPLVASM
040700         MOVE ZERO  TO ANNUAL-VAC-HRS                             PPLVASM
040800     ELSE                                                         PPLVASM
040900         PERFORM CALC-LRT-ANNUAL-HRS-4010                         PPLVASM
041000         MOVE ANNUAL-LV-TYPE-HRS  TO ANNUAL-VAC-HRS.              PPLVASM
041100*                                                                 PPLVASM
041200** APPLY LAT UTILIZATION FACTOR TO ANNUAL VAC HOURS               PPLVASM
041300*                                                                 PPLVASM
041400     COMPUTE ANTICP-ANNUAL-VAC-HRS  ROUNDED =                     PPLVASM
041500             ANNUAL-VAC-HRS  *                                    PPLVASM
041600             LATI-UF-VAC (LATI-INDX, LATI-FUND-INDX).             PPLVASM
041700*                                                                 PPLVASM
041800**  SEARCH LRT FOR SICK TYPE OF LEAVE                             PPLVASM
041900*                                                                 PPLVASM
042000     MOVE 'S'  TO LRTI-SRCH-LEAVE-TYPE.                           PPLVASM
042100     PERFORM CALL-PPLRTUTL-8800.                                  PPLVASM
042200*                                                                 PPLVASM
042300**  CALCULATE ANNUAL SICK LEAVE HOURS                             PPLVASM
042400*                                                                 PPLVASM
042500     IF LRTI-INDX  = ZERO                                         PPLVASM
042600         MOVE ZERO  TO ANNUAL-SKL-HRS                             PPLVASM
042700     ELSE                                                         PPLVASM
042800         PERFORM CALC-LRT-ANNUAL-HRS-4010                         PPLVASM
042900         MOVE ANNUAL-LV-TYPE-HRS  TO ANNUAL-SKL-HRS.              PPLVASM
043000*                                                                 PPLVASM
043100** APPLY LAT UTILIZATION FACTOR TO ANNUAL SKL HOURS               PPLVASM
043200*                                                                 PPLVASM
043300     COMPUTE ANTICP-ANNUAL-SKL-HRS  ROUNDED =                     PPLVASM
043400             ANNUAL-SKL-HRS  *                                    PPLVASM
043500             LATI-UF-SKL (LATI-INDX, LATI-FUND-INDX).             PPLVASM
043600*                                                                 PPLVASM
043700**  SEARCH LRT FOR PAID TIME OFF (PTO) TYPE OF LEAVE              PPLVASM
043800*                                                                 PPLVASM
043900     MOVE 'P'  TO LRTI-SRCH-LEAVE-TYPE.                           PPLVASM
044000     PERFORM CALL-PPLRTUTL-8800.                                  PPLVASM
044100*                                                                 PPLVASM
044200**  CALCULATE ANNUAL PTO HOURS                                    PPLVASM
044300*                                                                 PPLVASM
044400     IF LRTI-INDX  = ZERO                                         PPLVASM
044500         MOVE ZERO  TO ANNUAL-PTO-HRS                             PPLVASM
044600     ELSE                                                         PPLVASM
044700         PERFORM CALC-LRT-ANNUAL-HRS-4010                         PPLVASM
044800         MOVE ANNUAL-LV-TYPE-HRS  TO ANNUAL-PTO-HRS.              PPLVASM
044900*                                                                 PPLVASM
045000** APPLY LAT UTILIZATION FACTOR TO ANNUAL PTO HOURS               PPLVASM
045100*                                                                 PPLVASM
045200     COMPUTE ANTICP-ANNUAL-PTO-HRS  ROUNDED =                     PPLVASM
045300             ANNUAL-PTO-HRS  *                                    PPLVASM
045400             LATI-UF-PTO (LATI-INDX, LATI-FUND-INDX).             PPLVASM
045500*                                                                 PPLVASM
045600**  DERIVE THE TOTAL ANNUAL LEAVE HOURS                           PPLVASM
045700*                                                                 PPLVASM
045800     COMPUTE TOT-ANNUAL-LV-HRS  =                                 PPLVASM
045900      ANTICP-ANNUAL-VAC-HRS  +                                    PPLVASM
046000      ANTICP-ANNUAL-SKL-HRS  +                                    PPLVASM
046100      ANTICP-ANNUAL-PTO-HRS.                                      PPLVASM
046200*                                                                 PPLVASM
046300     COMPUTE ANNUAL-WORK-AND-LEAVE-HRS  ROUNDED =                 PPLVASM
046400             LATI-HRS-PER-DAY  (LATI-INDX)  *                     PPLVASM
046500             CONSTANT-WORK-DAYS-PER-YEAR.                         PPLVASM
046600*                                                                 PPLVASM
046700     COMPUTE ANNUAL-HRS-TO-BE-WORKED  =                           PPLVASM
046800             ANNUAL-WORK-AND-LEAVE-HRS  -                         PPLVASM
046900             TOT-ANNUAL-LV-HRS.                                   PPLVASM
047000*                                                                 PPLVASM
047100**  CALCULATE THE RATIO OF LEAVE HOURS TO HOURS WORKED            PPLVASM
047200*                                                                 PPLVASM
047300     COMPUTE LEAVE-HRS-WORK-HRS-RATIO   ROUNDED =                 PPLVASM
047400             TOT-ANNUAL-LV-HRS  /  ANNUAL-HRS-TO-BE-WORKED.       PPLVASM
047500*                                                                 PPLVASM
047600**  FACTOR IN THE APPROPRIATE BENEFITS PERCENT IN ORDER TO        PPLVASM
047700**  COMPLETE THE DERIVATION OF THE LEAVE ASSESSMENT RATE.         PPLVASM
047800*                                                                 PPLVASM
047900 EXIT-4000.    EXIT.                                              PPLVASM
048000*                                                                 PPLVASM
048100     EJECT                                                        PPLVASM
048200*                                                                 PPLVASM
048300 CALC-LRT-ANNUAL-HRS-4010  SECTION.                               PPLVASM
048400*                                                                 PPLVASM
048500     IF LRTI-REC-CD-HOURLY (LRTI-INDX)                            PPLVASM
048600         COMPUTE ANNUAL-LV-TYPE-HRS  ROUNDED =                    PPLVASM
048700                  LRTI-HOURLY-RATE  (LRTI-INDX)  *                PPLVASM
048800                  LATI-HRS-PER-DAY  (LATI-INDX)  *                PPLVASM
048900                  CONSTANT-WORK-DAYS-PER-YEAR                     PPLVASM
049000         GO TO EXIT-4010.                                         PPLVASM
049100*                                                                 PPLVASM
049200     MOVE LRTI-INDX  TO LRTI-LAST-MATCHED-INDX.                   PPLVASM
049300 REC-LOOP-4010.                                                   PPLVASM
049400     ADD +1  TO LRTI-LAST-MATCHED-INDX.                           PPLVASM
049500     IF LRTI-SHORT-KEY  (LRTI-INDX)  =                            PPLVASM
049600        LRTI-SHORT-KEY  (LRTI-LAST-MATCHED-INDX)                  PPLVASM
049700         GO TO REC-LOOP-4010.                                     PPLVASM
049800*                                                                 PPLVASM
049900     SUBTRACT +1 FROM LRTI-LAST-MATCHED-INDX.                     PPLVASM
050000     MOVE +2  TO LRTI-LV-HRS-INDX.                                PPLVASM
050100 LV-HRS-EARNED-LOOP-4010.                                         PPLVASM
050200     IF LRTI-LV-HRS-EARND                                         PPLVASM
050300                     (LRTI-LAST-MATCHED-INDX, LRTI-LV-HRS-INDX)   PPLVASM
050400        NOT = ZERO                                                PPLVASM
050500         ADD +1  TO LRTI-LV-HRS-INDX                              PPLVASM
050600         IF LRTI-LV-HRS-INDX  NOT >                               PPLVASM
050700            LRTI-LV-HRS-INDX-MAX                                  PPLVASM
050800             GO TO LV-HRS-EARNED-LOOP-4010.                       PPLVASM
050900*                                                                 PPLVASM
051000     SUBTRACT +1 FROM LRTI-LV-HRS-INDX.                           PPLVASM
051100*                                                                 PPLVASM
051200     COMPUTE ANNUAL-LV-TYPE-HRS  ROUNDED =                        PPLVASM
051300          +12  *  LRTI-LV-HRS-EARND                               PPLVASM
051400                      (LRTI-LAST-MATCHED-INDX, LRTI-LV-HRS-INDX). PPLVASM
051500*                                                                 PPLVASM
051600 EXIT-4010.    EXIT.                                              PPLVASM
051700*                                                                 PPLVASM
051800     EJECT                                                        PPLVASM
051900*                                                                 PPLVASM
052000 PRINT-LEAVE-RATES-5000  SECTION.                                 PPLVASM
052100*                                                                 PPLVASM
052200     OPEN OUTPUT  PRINT1.                                         PPLVASM
052300*                                                                 PPLVASM
052400     COPY  CPPDDATE.                                              30930413
052500     MOVE 'PPP5201'       TO STND-RPT-ID.                         PPLVASM
052600     MOVE A-STND-PROG-ID  TO STND-PROG-ID.                        PPLVASM
052700*****MOVE CURRENT-DATE TO STND-RPT-DATE.                          30930413
052800     MOVE GREGORIAN-DATE TO STND-RPT-DATE.                        30930413
052900*                                                                 PPLVASM
053000     MOVE '        LEAVE ASSESSMENT RATES   '     TO STND-RPT-TTL.PPLVASM
053100*                                                                 PPLVASM
053200     MOVE SPACES TO STND-RPT-COMMENT.                             PPLVASM
053300     MOVE 'RATES IN EFFECT AS OF:'       TO STND-RPT-END-DATE.    PPLVASM
053400     MOVE '  /  '                        TO STND-RPT-CYCLES.      PPLVASM
053500     MOVE LVAS-PROCESS-MONTH-MM          TO STND-RPT-CYCLE (1).   PPLVASM
053600     MOVE LVAS-PROCESS-MONTH-YY          TO STND-RPT-CYCLE (2).   PPLVASM
053700*                                                                 PPLVASM
053800** READ AND STORE THE LEAVE ACCRUAL TABLE BY CALLING MODULE       PPLVASM
053900** PPLATUTL. NOTE THAT A BLANK SEARCH KEY IS PASSED IN AND A      PPLVASM
054000** NO FIND CONDITION SHOULD BE RETURNED.                          PPLVASM
054100*                                                                 PPLVASM
054200     MOVE SPACES TO LATI-IN-SEARCH-KEY.                           PPLVASM
054300     MOVE ZEROS  TO LATI-SRCH-DATE-YYMMDD.                        PPLVASM
054400     PERFORM CALL-PPLATUTL-8700.                                  PPLVASM
054500     IF LVAS-ERROR-CODE  > 2                                      PPLVASM
054600         GO TO EXIT-5000.                                         PPLVASM
054700     MOVE ZERO TO LVAS-ERROR-CODE.                                PPLVASM
054800*                                                                 PPLVASM
054900** READ AND STORE THE LEAVE RATE TABLE BY CALLING MODULE          PPLVASM
055000** PPLRTUTL. NOTE THAT A BLANK SEARCH KEY IS PASSED IN AND A      PPLVASM
055100** NO FIND CONDITION SHOULD BE RETURNED.                          PPLVASM
055200*                                                                 PPLVASM
055300     MOVE SPACES TO LRTI-IN-SEARCH-KEY.                           PPLVASM
055400     MOVE ZEROS  TO LRTI-SRCH-RT-SCHED-NO.                        PPLVASM
055500     MOVE ZEROS  TO LRTI-SRCH-DATE-YYMMDD.                        PPLVASM
055600     PERFORM CALL-PPLRTUTL-8800.                                  PPLVASM
055700     IF LVAS-ERROR-CODE  > ZERO                                   PPLVASM
055800         NEXT SENTENCE                                            PPLVASM
055900     ELSE                                                         PPLVASM
056000         PERFORM PRT-LEAVE-RATES-REPORT-5010.                     PPLVASM
056100*                                                                 PPLVASM
056200     CLOSE  PRINT1.                                               PPLVASM
056300*                                                                 PPLVASM
056400 EXIT-5000.                                                       PPLVASM
056500     EXIT.                                                        PPLVASM
056600*                                                                 PPLVASM
056700     EJECT                                                        PPLVASM
056800*                                                                 PPLVASM
056900 PRT-LEAVE-RATES-REPORT-5010  SECTION.                            PPLVASM
057000*                                                                 PPLVASM
057100     MOVE +1  TO LATI-INDX,                                       PPLVASM
057200                 FRWD-LATI-INDX.                                  PPLVASM
057300 PRT-LEAVE-LAT-LOOP-5010.                                         PPLVASM
057400     ADD +1 TO FRWD-LATI-INDX.                                    PPLVASM
057500     IF FRWD-LATI-INDX  NOT > LATI-INDX-MAX  AND                  PPLVASM
057600        LATI-TITLE-TYPE (LATI-INDX)    =                          PPLVASM
057700        LATI-TITLE-TYPE (FRWD-LATI-INDX)     AND                  PPLVASM
057800        LATI-TITLE-UNIT-CD (LATI-INDX)    =                       PPLVASM
057900        LATI-TITLE-UNIT-CD (FRWD-LATI-INDX)     AND               PPLVASM
058000        LATI-AREP-CD (LATI-INDX)    =                             PPLVASM
058100        LATI-AREP-CD (FRWD-LATI-INDX)     AND                     PPLVASM
058200        LATI-SPEC-HAND-CD (LATI-INDX)    =                        PPLVASM
058300        LATI-SPEC-HAND-CD (FRWD-LATI-INDX)     AND                PPLVASM
058400        LATI-DISTR-UNIT-CD (LATI-INDX)    =                       PPLVASM
058500        LATI-DISTR-UNIT-CD (FRWD-LATI-INDX)     AND               PPLVASM
058600        LATI-EFF-DATE (FRWD-LATI-INDX)                            PPLVASM
058700                                 NOT > LVAS-PROCESS-MONTH-NUM     PPLVASM
058800         MOVE FRWD-LATI-INDX  TO LATI-INDX                        PPLVASM
058900         GO TO PRT-LEAVE-LAT-LOOP-5010.                           PPLVASM
059000*                                                                 PPLVASM
059100     IF LATI-EFF-DATE (LATI-INDX)  > LVAS-PROCESS-MONTH-NUM       PPLVASM
059200         NEXT SENTENCE                                            PPLVASM
059300     ELSE                                                         PPLVASM
059400         PERFORM PROCESS-LAT-RECORD-5020.                         PPLVASM
059500*                                                                 PPLVASM
059600     IF FRWD-LATI-INDX  NOT > LATI-INDX-MAX                       PPLVASM
059700         MOVE FRWD-LATI-INDX  TO LATI-INDX                        PPLVASM
059800         GO TO PRT-LEAVE-LAT-LOOP-5010.                           PPLVASM
059900*                                                                 PPLVASM
060000 EXIT-5010.                                                       PPLVASM
060100     EXIT.                                                        PPLVASM
060200*                                                                 PPLVASM
060300     EJECT                                                        PPLVASM
060400*                                                                 PPLVASM
060500 PROCESS-LAT-RECORD-5020  SECTION.                                PPLVASM
060600*                                                                 PPLVASM
060700     MOVE SPACES  TO SAVE-LRT-LV-PLAN,                            PPLVASM
060800                     SAVE-LRT-PAY-CYC.                            PPLVASM
060900     MOVE ZERO TO LRT-X.                                          PPLVASM
061000 LRT-RATE-SCHED-LOOP-5020.                                        PPLVASM
061100     ADD +1 TO LRT-X.                                             PPLVASM
061200     IF LRT-X  > LRTI-INDX-MAX  OR                                PPLVASM
061300        LRTI-RT-SCHED-NO (LRT-X)  >                               PPLVASM
061400        LATI-RT-SCHED-NO (LATI-INDX)                              PPLVASM
061500         IF SAVE-LRT-LV-PLAN  = SPACES  AND                       PPLVASM
061600            SAVE-LRT-PAY-CYC  = SPACES                            PPLVASM
061700             MOVE 9  TO LVAS-ERROR-CODE                           PPLVASM
061800             GO TO EXIT-5020                                      PPLVASM
061900         ELSE                                                     PPLVASM
062000             GO TO EXIT-5020.                                     PPLVASM
062100     IF LRTI-RT-SCHED-NO (LRT-X)  =                               PPLVASM
062200        LATI-RT-SCHED-NO (LATI-INDX)  AND                         PPLVASM
062300        LRTI-RT-EFF-DATE (LRT-X)  NOT > LVAS-PROCESS-MONTH-NUM    PPLVASM
062400         NEXT SENTENCE                                            PPLVASM
062500     ELSE                                                         PPLVASM
062600         GO TO LRT-RATE-SCHED-LOOP-5020.                          PPLVASM
062700     IF LRTI-LEAVE-PLAN  (LRT-X)  = SAVE-LRT-LV-PLAN  AND         PPLVASM
062800        LRTI-PAY-CYC-IND (LRT-X)  = SAVE-LRT-PAY-CYC              PPLVASM
062900         GO TO LRT-RATE-SCHED-LOOP-5020.                          PPLVASM
063000*                                                                 PPLVASM
063100     MOVE LRTI-LEAVE-PLAN  (LRT-X) TO SAVE-LRT-LV-PLAN.           PPLVASM
063200     MOVE LRTI-PAY-CYC-IND (LRT-X) TO SAVE-LRT-PAY-CYC.           PPLVASM
063300*                                                                 PPLVASM
063400     PERFORM PRINT-RATES-PER-LV-PLAN-5030.                        PPLVASM
063500*                                                                 PPLVASM
063600     GO TO LRT-RATE-SCHED-LOOP-5020.                              PPLVASM
063700*                                                                 PPLVASM
063800 EXIT-5020.                                                       PPLVASM
063900     EXIT.                                                        PPLVASM
064000*                                                                 PPLVASM
064100     EJECT                                                        PPLVASM
064200*                                                                 PPLVASM
064300 PRINT-RATES-PER-LV-PLAN-5030  SECTION.                           PPLVASM
064400*                                                                 PPLVASM
064500**  SET UP LRT SEARCH KEY                                         PPLVASM
064600*                                                                 PPLVASM
064700     MOVE LATI-RT-SCHED-NO (LATI-INDX)  TO LRTI-SRCH-RT-SCHED-NO. PPLVASM
064800     MOVE LVAS-PROCESS-MONTH-NUM        TO LRTI-SRCH-DATE-YYMM.   PPLVASM
064900     MOVE SAVE-LRT-LV-PLAN              TO LRTI-SRCH-LEAVE-PLAN.  PPLVASM
065000     IF SAVE-LRT-PAY-CYC  = 'B'                                   PPLVASM
065100         MOVE 'B'                       TO LRTI-SRCH-PAY-CYC-IND  PPLVASM
065200     ELSE                                                         PPLVASM
065300         MOVE 'M'                       TO LRTI-SRCH-PAY-CYC-IND. PPLVASM
065400*                                                                 PPLVASM
065500     MOVE SPACES TO PRINT-WORK-AMOUNTS.                           PPLVASM
065600*                                                                 PPLVASM
065700     MOVE +1  TO LATI-FUND-INDX.                                  PPLVASM
065800 PRINT-RATES-FUND-LOOP-5030.                                      PPLVASM
065900*                                                                 PPLVASM
066000     PERFORM LRT-CALC-RATE-4000.                                  PPLVASM
066100     PERFORM MOVE-AMTS-TO-PRT-WORK-5040.                          PPLVASM
066200*                                                                 PPLVASM
066300     ADD +1  TO LATI-FUND-INDX.                                   PPLVASM
066400     IF LATI-FUND-INDX  > LATI-FUND-INDX-MAX  OR                  PPLVASM
066500        LATI-FR-LO (LATI-INDX, LATI-FUND-INDX)  = ZEROS           PPLVASM
066600         NEXT SENTENCE                                            PPLVASM
066700     ELSE                                                         PPLVASM
066800         GO TO PRINT-RATES-FUND-LOOP-5030.                        PPLVASM
066900*                                                                 PPLVASM
067000     PERFORM SETUP-AND-PRNT-ALL-LINES-5060.                       PPLVASM
067100*                                                                 PPLVASM
067200 EXIT-5030.    EXIT.                                              PPLVASM
067300*                                                                 PPLVASM
067400     EJECT                                                        PPLVASM
067500*                                                                 PPLVASM
067600 MOVE-AMTS-TO-PRT-WORK-5040  SECTION.                             PPLVASM
067700*                                                                 PPLVASM
067800     IF LATI-FUND-INDX  = +1                                      PPLVASM
067900         MOVE '  DEFAULT'    TO PRT-FUND-COL (1, LATI-FUND-INDX)  PPLVASM
068000     ELSE                                                         PPLVASM
068100         MOVE LATI-FR-LO (LATI-INDX, LATI-FUND-INDX)              PPLVASM
068200                             TO PRT-FUND-LO  (1, LATI-FUND-INDX)  PPLVASM
068300         MOVE LATI-FR-HI (LATI-INDX, LATI-FUND-INDX)              PPLVASM
068400                             TO PRT-FUND-HI  (1, LATI-FUND-INDX)  PPLVASM
068500         MOVE '-'            TO PRT-FUND-DASH (1, LATI-FUND-INDX).PPLVASM
068600*                                                                 PPLVASM
068700     MOVE PARM-LV-WRK-HRS-PER-YR                                  PPLVASM
068800                       TO PRT-LFT-AMT-2DEC (4, LATI-FUND-INDX).   PPLVASM
068900     MOVE PARM-STD-HRS-PER-DAY                                    PPLVASM
069000                       TO PRT-LFT-AMT-2DEC (5, LATI-FUND-INDX).   PPLVASM
069100     MOVE CONSTANT-WORK-DAYS-PER-YEAR                             PPLVASM
069200                       TO PRT-AMT-2DEC     (6, LATI-FUND-INDX).   PPLVASM
069300     MOVE LATI-HRS-PER-DAY  (LATI-INDX)                           PPLVASM
069400                       TO PRT-AMT-2DEC     (7, LATI-FUND-INDX).   PPLVASM
069500     MOVE ANNUAL-WORK-AND-LEAVE-HRS                               PPLVASM
069600                       TO PRT-AMT-2DEC     (8, LATI-FUND-INDX).   PPLVASM
069700*                                                                 PPLVASM
069800     MOVE ANNUAL-VAC-HRS                                          PPLVASM
069900                       TO PRT-LFT-AMT-2DEC (10, LATI-FUND-INDX).  PPLVASM
070000     MOVE LATI-UF-VAC (LATI-INDX, LATI-FUND-INDX)                 PPLVASM
070100                       TO PRT-LFT-AMT-4DEC (11, LATI-FUND-INDX).  PPLVASM
070200     MOVE ANTICP-ANNUAL-VAC-HRS                                   PPLVASM
070300                       TO PRT-AMT-2DEC     (12, LATI-FUND-INDX).  PPLVASM
070400     MOVE ANNUAL-SKL-HRS                                          PPLVASM
070500                       TO PRT-LFT-AMT-2DEC (13, LATI-FUND-INDX).  PPLVASM
070600     MOVE LATI-UF-SKL (LATI-INDX, LATI-FUND-INDX)                 PPLVASM
070700                       TO PRT-LFT-AMT-4DEC (14, LATI-FUND-INDX).  PPLVASM
070800     MOVE ANTICP-ANNUAL-SKL-HRS                                   PPLVASM
070900                       TO PRT-AMT-2DEC     (15, LATI-FUND-INDX).  PPLVASM
071000     MOVE ANNUAL-PTO-HRS                                          PPLVASM
071100                       TO PRT-LFT-AMT-2DEC (16, LATI-FUND-INDX).  PPLVASM
071200     MOVE LATI-UF-PTO (LATI-INDX, LATI-FUND-INDX)                 PPLVASM
071300                       TO PRT-LFT-AMT-4DEC (17, LATI-FUND-INDX).  PPLVASM
071400     MOVE ANTICP-ANNUAL-PTO-HRS                                   PPLVASM
071500                       TO PRT-AMT-2DEC     (18, LATI-FUND-INDX).  PPLVASM
071600     MOVE TOT-ANNUAL-LV-HRS                                       PPLVASM
071700                       TO PRT-AMT-2DEC     (19, LATI-FUND-INDX).  PPLVASM
071800     MOVE ANNUAL-HRS-TO-BE-WORKED                                 PPLVASM
071900                       TO PRT-AMT-2DEC     (20, LATI-FUND-INDX).  PPLVASM
072000     MOVE LEAVE-HRS-WORK-HRS-RATIO                                PPLVASM
072100                       TO PRT-AMT-4DEC     (22, LATI-FUND-INDX).  PPLVASM
072200*                                                                 PPLVASM
072300     COMPUTE LEAVE-ASSESSMENT-RATE  ROUNDED =                     PPLVASM
072400             LEAVE-HRS-WORK-HRS-RATIO  *                          PPLVASM
072500          (1.0  +  PARM-BENEFITS-PERCENT (1)).                    PPLVASM
072600     MOVE LEAVE-ASSESSMENT-RATE                                   PPLVASM
072700                       TO PRT-AMT-4DEC     (25, LATI-FUND-INDX).  PPLVASM
072800*                                                                 PPLVASM
072900     COMPUTE LEAVE-ASSESSMENT-RATE  ROUNDED =                     PPLVASM
073000             LEAVE-HRS-WORK-HRS-RATIO  *                          PPLVASM
073100          (1.0  +  PARM-BENEFITS-PERCENT (2)).                    PPLVASM
073200     MOVE LEAVE-ASSESSMENT-RATE                                   PPLVASM
073300                       TO PRT-AMT-4DEC     (26, LATI-FUND-INDX).  PPLVASM
073400*                                                                 PPLVASM
073500     COMPUTE LEAVE-ASSESSMENT-RATE  ROUNDED =                     PPLVASM
073600             LEAVE-HRS-WORK-HRS-RATIO  *                          PPLVASM
073700          (1.0  +  PARM-BENEFITS-PERCENT (3)).                    PPLVASM
073800     MOVE LEAVE-ASSESSMENT-RATE                                   PPLVASM
073900                       TO PRT-AMT-4DEC     (27, LATI-FUND-INDX).  PPLVASM
074000*                                                                 PPLVASM
074100     COMPUTE LEAVE-ASSESSMENT-RATE  ROUNDED =                     PPLVASM
074200             LEAVE-HRS-WORK-HRS-RATIO  *                          PPLVASM
074300          (1.0  +  PARM-BENEFITS-PERCENT (4)).                    PPLVASM
074400     MOVE LEAVE-ASSESSMENT-RATE                                   PPLVASM
074500                       TO PRT-AMT-4DEC     (28, LATI-FUND-INDX).  PPLVASM
074600*                                                                 PPLVASM
074700     COMPUTE LEAVE-ASSESSMENT-RATE  ROUNDED =                     PPLVASM
074800             LEAVE-HRS-WORK-HRS-RATIO  *                          PPLVASM
074900          (1.0  +  PARM-BENEFITS-PERCENT (5)).                    PPLVASM
075000     MOVE LEAVE-ASSESSMENT-RATE                                   PPLVASM
075100                       TO PRT-AMT-4DEC     (29, LATI-FUND-INDX).  PPLVASM
075200*                                                                 PPLVASM
075300     COMPUTE LEAVE-ASSESSMENT-RATE  ROUNDED =                     PPLVASM
075400             LEAVE-HRS-WORK-HRS-RATIO  *                          PPLVASM
075500          (1.0  +  PARM-BENEFITS-PERCENT (6)).                    PPLVASM
075600     MOVE LEAVE-ASSESSMENT-RATE                                   PPLVASM
075700                       TO PRT-AMT-4DEC     (30, LATI-FUND-INDX).  PPLVASM
075800*                                                                 PPLVASM
075900 EXIT-5040.    EXIT.                                              PPLVASM
076000*                                                                 PPLVASM
076100     EJECT                                                        PPLVASM
076200*                                                                 PPLVASM
076300 SETUP-AND-PRNT-ALL-LINES-5060  SECTION.                          PPLVASM
076400*                                                                 PPLVASM
076500     MOVE LATI-TITLE-TYPE    (LATI-INDX) TO LIT-1-TITLE-TYP (1).  PPLVASM
076600     MOVE LATI-TITLE-UNIT-CD (LATI-INDX) TO LIT-1-TUC       (1).  PPLVASM
076700     MOVE LATI-AREP-CD       (LATI-INDX) TO LIT-1-AREP      (1).  PPLVASM
076800     MOVE LATI-SPEC-HAND-CD  (LATI-INDX) TO LIT-1-SHC       (1).  PPLVASM
076900     MOVE LATI-DISTR-UNIT-CD (LATI-INDX) TO LIT-1-DUC       (1).  PPLVASM
077000     MOVE LATI-HRS-PER-DAY   (LATI-INDX) TO LIT-1-HRS-DAY   (1).  PPLVASM
077100     MOVE SAVE-LRT-LV-PLAN               TO LIT-2-LV-PLAN   (2).  PPLVASM
077200     IF SAVE-LRT-PAY-CYC  = 'B'                                   PPLVASM
077300         MOVE 'BW  '                     TO LIT-2-ACRU-PER  (2)   PPLVASM
077400     ELSE                                                         PPLVASM
077500     IF SAVE-LRT-PAY-CYC  = 'M'                                   PPLVASM
077600         MOVE 'MNTH'                     TO LIT-2-ACRU-PER  (2)   PPLVASM
077700     ELSE                                                         PPLVASM
077800         MOVE 'ALL '                     TO LIT-2-ACRU-PER  (2).  PPLVASM
077900*                                                                 PPLVASM
078000     PERFORM HEADING-ROUTINE-5200.                                PPLVASM
078100*                                                                 PPLVASM
078200     MOVE +1  TO MISC-INDX.                                       PPLVASM
078300 PRINT-LOOP-5060.                                                 PPLVASM
078400     MOVE LINE-LITERAL (MISC-INDX)  TO PRT-LINE-LITERAL.          PPLVASM
078500     MOVE PRT-EACH-LINE (MISC-INDX)  TO PRT-LINE-AMOUNTS.         PPLVASM
078600     IF MISC-INDX > +3  AND                                       PPLVASM
078700        MISC-INDX < +23                                           PPLVASM
078800         MOVE 1 TO PRT-SPACEING                                   PPLVASM
078900     ELSE                                                         PPLVASM
079000         MOVE 2 TO PRT-SPACEING.                                  PPLVASM
079100*                                                                 PPLVASM
079200** PROGRAMMERS NOTE:                                              PPLVASM
079300**  LINES 3 THROUGH 22 CONTAIN THE INTERMEDIATE CALCULATIONS      PPLVASM
079400**USED IN DERIVING THE LEAVE ASSESSMENT RATES.  IF IT IS          PPLVASM
079500**  NECESSARY TO PRINT THESE, COMMENT OUT THE NEXT THREE STATE-   PPLVASM
079600**  MENTS (I.E.,  IF MISC-INDX > +2 AND < +23                     PPLVASM
079700**                    NEXT SENTENCE                               PPLVASM
079800**                ELSE)                                           PPLVASM
079900*                                                                 PPLVASM
080000     IF MISC-INDX > +2 AND < +23                                  PPLVASM
080100         NEXT SENTENCE                                            PPLVASM
080200     ELSE                                                         PPLVASM
080300     WRITE PRINT-REC FROM PRT-LINE                                PPLVASM
080400         AFTER PRT-SPACEING.                                      PPLVASM
080500     ADD PRT-SPACEING TO LINE-CNT.                                PPLVASM
080600     MOVE SPACES TO PRT-LINE.                                     PPLVASM
080700*                                                                 PPLVASM
080800     ADD +1  TO MISC-INDX.                                        PPLVASM
080900     IF MISC-INDX NOT > +30                                       PPLVASM
081000         GO TO PRINT-LOOP-5060.                                   PPLVASM
081100*                                                                 PPLVASM
081200 EXIT-5060.    EXIT.                                              PPLVASM
081300*                                                                 PPLVASM
081400     EJECT                                                        PPLVASM
081500*                                                                 PPLVASM
081600 HEADING-ROUTINE-5200  SECTION.                                   PPLVASM
081700*                                                                 PPLVASM
081800     ADD 1 TO STND-PAGE-NO.                                       PPLVASM
081900     MOVE ZERO TO LINE-CNT.                                       PPLVASM
082000*                                                                 PPLVASM
082100     SKIP2                                                        PPLVASM
082200     WRITE PRINT-REC FROM STND-RPT-HD1 AFTER NEW-PAGE.            PPLVASM
082300     WRITE PRINT-REC FROM STND-RPT-HD2 AFTER 1.                   PPLVASM
082400     WRITE PRINT-REC FROM STND-RPT-HD3 AFTER 1.                   PPLVASM
082500*                                                                 PPLVASM
082600     WRITE PRINT-REC FROM RPT-HEAD-LN1 AFTER 2.                   PPLVASM
082700*                                                                 PPLVASM
082800 EXIT-5200.                                                       PPLVASM
082900     EXIT.                                                        PPLVASM
083000*                                                                 PPLVASM
083100     EJECT                                                        PPLVASM
083200*  *  *  *  *  *                                                  PPLVASM
083300*                                                                 PPLVASM
083400 INPUT-OUTPUT-RTNS-8500  SECTION.                                 PPLVASM
083500*                                                                 PPLVASM
083600     SKIP3                                                        PPLVASM
083700*  *  *  *  *  *  *                                               PPLVASM
083800*                                                                 PPLVASM
083900 CALL-PPLATUTL-8700.                                              PPLVASM
084000*                                                                 PPLVASM
084100     CALL 'PPLATUTL' USING PPLATUTL-INTERFACE.                    PPLVASM
084200*                                                                 PPLVASM
084300     IF LATI-ERR-NOT-FOUND                                        PPLVASM
084400         IF LVAS-ESTABLISH-RATE-CALL                              PPLVASM
084500             MOVE 1         TO LVAS-ERROR-CODE                    PPLVASM
084600         ELSE                                                     PPLVASM
084700             MOVE 2         TO LVAS-ERROR-CODE                    PPLVASM
084800     ELSE                                                         PPLVASM
084900     IF LATI-ERR-NO-DELIM  OR                                     PPLVASM
085000        LATI-ERR-EMPTY-FILE                                       PPLVASM
085100         MOVE 3         TO LVAS-ERROR-CODE                        PPLVASM
085200     ELSE                                                         PPLVASM
085300     IF LATI-ERR-I-O-ERROR                                        PPLVASM
085400         MOVE 4         TO LVAS-ERROR-CODE                        PPLVASM
085500     ELSE                                                         PPLVASM
085600     IF LATI-ERR-LAT-OVRFLO                                       PPLVASM
085700         MOVE 5         TO LVAS-ERROR-CODE.                       PPLVASM
085800*                                                                 PPLVASM
085900 EXIT-8700.    EXIT.                                              PPLVASM
086000*                                                                 PPLVASM
086100     SKIP3                                                        PPLVASM
086200*                                                                 PPLVASM
086300 CALL-PPLRTUTL-8800.                                              PPLVASM
086400*                                                                 PPLVASM
086500     CALL 'PPLRTUTL' USING PPLRTUTL-INTERFACE.                    PPLVASM
086600*                                                                 PPLVASM
086700     IF LRTI-ERR-NO-DELIM  OR                                     PPLVASM
086800        LRTI-ERR-EMPTY-FILE                                       PPLVASM
086900         MOVE 6         TO LVAS-ERROR-CODE                        PPLVASM
087000     ELSE                                                         PPLVASM
087100     IF LRTI-ERR-I-O-ERROR                                        PPLVASM
087200         MOVE 7         TO LVAS-ERROR-CODE                        PPLVASM
087300     ELSE                                                         PPLVASM
087400     IF LRTI-ERR-LRT-OVRFLO                                       PPLVASM
087500         MOVE 8         TO LVAS-ERROR-CODE.                       PPLVASM
087600*                                                                 PPLVASM
087700 EXIT-8800.    EXIT.                                              PPLVASM
087800*                                                                 PPLVASM
087900***                                                               PPLVASM
088000*                                                                 PPLVASM
088100 CALL-PPPRMUTL-8900.                                              PPLVASM
088200*                                                                 PPLVASM
088300     CALL 'PPPRMUTL'  USING SYSTEM-PARAMETER-INTERFACE.           PPLVASM
088400*                                                                 PPLVASM
088500*  *  *  *                                                        PPLVASM
