000100**************************************************************/   30930413
000200*  PROGRAM: PPPAVRAG                                         */   30930413
000300*  RELEASE: ____0413____  SERVICE REQUEST(S): ____3093____   */   30930413
000400*  NAME:____JIM WILLIAMS__CREATION DATE:      __05/23/89__   */   30930413
000500*  DESCRIPTION:                                              */   30930413
000600*  - CHANGED FOR CONVERSION FROM OS/VS COBOL TO VS COBOL II. */   30930413
000700**************************************************************/   30930413
000800**************************************************************/   30920387
000801*  PROGRAM: PPPAVRAG                                         */   30920387
000802*  RELEASE: ____0387____  SERVICE REQUEST(S): ____3092____   */   30920387
000803*  NAME:    __D.BRYANT__  MODIFICATION DATE:  __12/12/88__   */   30920387
000804*  DESCRIPTION:                                              */   30920387
000805*                                                            */   30920387
000806*  LOGIC HAS BEEN ADDED TO SET THE PPPAVRAG-THRESHHOLD-IND   */   30920387
000807*  AS 'N' IF THE THRESSHOLD AVG HRS/WK HAS NOT BEEN CROSSED  */   30920387
000808*  IN EITHER DIRECTION AND 'Y' IF IT HAS.                    */   30920387
000809*                                                            */   30920387
000810*  CORRECTIONS TO DELETE INCORRECT CODE INTENDED TO OPTIMIZE */   30920387
000820*  THE TABLE-HANDLING ROUTINES.                              */   30920387
000830**************************************************************/   30920387
000840**************************************************************/   30920381
000850*  PROGRAM: PPPAVRAG                                         */   30920381
000860*  RELEASE: ____0381____  SERVICE REQUEST(S): ____3092____   */   30920381
000870*  NAME:    __D.BRYANT__  MODIFICATION DATE:  __11/10/88__   */   30920381
000880*  DESCRIPTION:                                              */   30920381
000890*                                                            */   30920381
000900*  NEW BASE SYSTEM MODULE.                                   */   30920381
001000**************************************************************/   30920381
001100     SKIP2                                                        PPPAVRAG
001200 IDENTIFICATION DIVISION.                                         PPPAVRAG
001300 PROGRAM-ID. PPPAVRAG.                                            PPPAVRAG
001400*SOURCE-COMPUTER.              COPY CPOTXUCS.                     30930413
001500*OBJECT-COMPUTER.              COPY CPOTXOBJ.                     30930413
001600 INSTALLATION.  UNIVERSITY OF CALIFORNIA BASE PAYROLL SYSTEM.     PPPAVRAG
001700 DATE-WRITTEN.  11/10/88.                                         PPPAVRAG
001800 DATE-COMPILED.                                                   PPPAVRAG
001900     SKIP2                                                        PPPAVRAG
002000******************************************************************PPPAVRAG
002100*****                                                        *****PPPAVRAG
002200*****  PPPAVRAG IS A NEW MODULE WHOSE FUNCTION IS TO RETURN  *****PPPAVRAG
002300*****  AN EMPLOYEE'S AVERAGE REGULAR HOURS PER WEEK USING    *****PPPAVRAG
002400*****  AN AS-OF DATE CONTAINED ON THE EMPLOYEES EDB RECORD   *****PPPAVRAG
002500*****  IN CONJUNCTION WITH A THRESHOLD HOURS/WEEK FROM THE   *****PPPAVRAG
002600*****  SYSTEMS PARAMETER FILE, THE HOURS AVAILABLE/WEEK FROM *****PPPAVRAG
002700*****  SYSTEM CALENDAR (CONTROL FILE), AND 12 MONTHS OF      *****PPPAVRAG
002800*****  HISTORY FROM THE EMPLOYEE'S EDB RECORD.               *****PPPAVRAG
002900*****                                                        *****PPPAVRAG
003000*****  THE MODULE RECEIVES TWO RECORDS FROM THE CALLING      *****PPPAVRAG
003100*****  PROGRAM:                                              *****PPPAVRAG
003200*****       1) PPPAVRAG-INTERFACE (COPY MEMBER CPLNKAVG),    *****PPPAVRAG
003300*****          WHICH CONTAINS SPECIFIC ITEMS INPUT TO THE    *****PPPAVRAG
003400*****          MODULE BY THE CALLING PROGRAM AND SPECIFIC    *****PPPAVRAG
003500*****          ITEMS RETURNED TO THE CALLING PROGRAM BY THE  *****PPPAVRAG
003600*****          MODULE.                                       *****PPPAVRAG
003700*****       2) XEDB-SEGMENT-AREA (COPY MEMBER CPWSXEDB),     *****PPPAVRAG
003800*****          WHICH IS THE EMPLOYEE'S COMPLETE EDB SEGMENT  *****PPPAVRAG
003900*****          SET.                                          *****PPPAVRAG
004000*****                                                        *****PPPAVRAG
004100*****  NOTE THAT DATA ELEMENTS EMPL-START-AVERAGE-DATE AND   *****PPPAVRAG
004200*****  EMPL-HOURS-PER-WEEK-AVERAGE WILL BE UPDATED IN THE    *****PPPAVRAG
004300*****  CPWSXEDB COPY MEMBER.                                 *****PPPAVRAG
004400*****                                                        *****PPPAVRAG
004500******************************************************************PPPAVRAG
004600     EJECT                                                        PPPAVRAG
004700 ENVIRONMENT DIVISION.                                            PPPAVRAG
004800 CONFIGURATION SECTION.                                           PPPAVRAG
004900 SOURCE-COMPUTER.              COPY CPOTXUCS.                     30930413
005000 OBJECT-COMPUTER.              COPY CPOTXOBJ.                     30930413
005100 SPECIAL-NAMES.                                                   PPPAVRAG
005200     SKIP1                                                        PPPAVRAG
005300 INPUT-OUTPUT SECTION.                                            PPPAVRAG
005400 FILE-CONTROL.                                                    PPPAVRAG
005500     EJECT                                                        PPPAVRAG
005600 DATA DIVISION.                                                   PPPAVRAG
005700 FILE SECTION.                                                    PPPAVRAG
005800     SKIP2                                                        PPPAVRAG
005900******************************************************************PPPAVRAG
006000*****                                                        *****PPPAVRAG
006100*****               WORKING STORAGE                          *****PPPAVRAG
006200*****                                                        *****PPPAVRAG
006300******************************************************************PPPAVRAG
006400 WORKING-STORAGE SECTION.                                         PPPAVRAG
006500     SKIP2                                                        PPPAVRAG
006600 77  HOURS-PER-WEEK-THRESHOLD  PIC S9(5)V9(4) COMP-3 VALUE ZEROS. PPPAVRAG
006700 77  TEST-FILE-STATUS          PIC X(12).                         PPPAVRAG
006800     88  CTL-FILE-CLOSED          VALUE  'FILE-CLOSED '.          PPPAVRAG
006900     88  CTL-FILE-OPEN-SEQ        VALUES 'SEQ-OPEN-IN ',          PPPAVRAG
007000                                         'SEQ-OPEN-IO '.          PPPAVRAG
007100     88  CTL-FILE-OPEN-RAND       VALUES 'RAND-OPEN-IN',          PPPAVRAG
007200                                         'RAND-OPEN-IO'.          PPPAVRAG
007300     88  CTL-FILE-INVALID-MODE    VALUE  'SEQ-OPEN-OUT'.          PPPAVRAG
007400 01  WS-INDICATORS.                                               PPPAVRAG
007500     05  WS-INITIALIZED-IND  PIC X(01)         VALUE ' '.         PPPAVRAG
007600         88  INITIALIZED                       VALUE 'I'.         PPPAVRAG
007700         88  NOT-INITIALIZED                   VALUE ' '.         PPPAVRAG
007800 01  WS-COMP-FIELDS          COMP.                                PPPAVRAG
007900     05  WS-START-IDX        PIC S9(04)        VALUE ZEROS.       PPPAVRAG
008000     05  WS-START-SEG-IDX    PIC S9(04)        VALUE ZEROS.       PPPAVRAG
008100     05  WS-SEGMENT-IDX      PIC S9(04)        VALUE ZEROS.       PPPAVRAG
008200     05  WS-TABLE-IDX        PIC S9(04)        VALUE ZEROS.       PPPAVRAG
008300     05  BIWEEKLY-IDX        PIC S9(04)        VALUE ZEROS.       PPPAVRAG
008400     05  WS-MAX-TABLE-IDX    PIC S9(04)        VALUE +0012.       PPPAVRAG
008500     05  WS-NEXT-TABLE-IDX   PIC S9(04)        VALUE ZEROS.       PPPAVRAG
008600     05  WS-AS-OF-IDX        PIC S9(04)        VALUE ZEROS.       PPPAVRAG
008700     05  WS-RESTART-IDX      PIC S9(04)        VALUE ZEROS.       PPPAVRAG
008800 01  WS-COMP-3-FIELDS        COMP-3.                              PPPAVRAG
008900     05  WS-TOTAL-HOURS      PIC S9(05)V99     VALUE ZEROS.       PPPAVRAG
008910     05  WS-TOTAL-WEEKS      PIC S9(05)        VALUE ZEROS.       30930413
008920     05  WS-TOTAL-CAL-DAYS   PIC S9(05)        VALUE ZEROS.       PPPAVRAG
008930     05  WS-MONTHS-IN-TOTAL  PIC S999          VALUE ZEROS.       PPPAVRAG
008940     05  WS-HRS-PER-WK-AVG   PIC S9(07)V99     VALUE ZEROS.       PPPAVRAG
008950 01  TABLE-OF-MONTH-PARMS.                                        PPPAVRAG
008960     05  PASS-DATE-YYMM.                                          PPPAVRAG
008970         10  PASS-YY             PIC 99            VALUE ZEROS.   PPPAVRAG
008980         10  PASS-MM             PIC 99            VALUE ZEROS.   PPPAVRAG
008990     05  AS-OF-DATE-YYMM.                                         PPPAVRAG
009000         10  AS-OF-YY            PIC 99            VALUE ZEROS.   PPPAVRAG
009100         10  AS-OF-MM            PIC 99            VALUE ZEROS.   PPPAVRAG
009200     05  LAST-YEAR               PIC 99            VALUE ZEROS.   PPPAVRAG
009300     05  TABLE-MONTH-ENTRY   OCCURS 12 TIMES.                     PPPAVRAG
009400       10  TABLE-YYMM.                                            PPPAVRAG
009500         15  TABLE-YEAR          PIC 99.                          PPPAVRAG
009600         15  TABLE-MONTH         PIC 99.                          PPPAVRAG
009700       10  TABLE-TAKE-IND        PIC X.                           PPPAVRAG
009800       10  TABLE-EMPL-REG-HRS    PIC 999V9.                       PPPAVRAG
009900       10  TABLE-EMPL-HRS-PER-WK PIC 999V99.                      PPPAVRAG
010000       10  TABLE-CAL-DAYS-IN-MO  PIC 99.                          PPPAVRAG
010100       10  TABLE-BIW-DAYS-IN-MO  PIC 99.                          PPPAVRAG
010200     EJECT                                                        PPPAVRAG
010300 01  PAYROLL-PROCESS-INST-CONST-2.                                30930413
010400                                           COPY CPWSXIC2.         PPPAVRAG
010500     EJECT                                                        PPPAVRAG
010600 01  SYSTEM-PARAMETER-INTERFACE.                                  30930413
010700                                           COPY CPWSXSPI.         PPPAVRAG
010800     EJECT                                                        PPPAVRAG
010900 01  CTL-INTERFACE.                                               30930413
011000                                           COPY CPWSXCIF.         PPPAVRAG
011100     EJECT                                                        PPPAVRAG
011200 01  CTL-SEGMENT-TABLE.                                           30930413
011300                                           COPY CPWSXCST.         PPPAVRAG
011400     EJECT                                                        PPPAVRAG
011500 01  XCL1-CALENDAR-SEGMENT.                                       30930413
011600                                           COPY CPWSXCL1.         PPPAVRAG
011700     EJECT                                                        PPPAVRAG
011800 01  IO-FUNCTIONS.                                                30930413
011900                                           COPY CPWSXIOF.         PPPAVRAG
012000     EJECT                                                        PPPAVRAG
012100 01  XCFK-CONTROL-FILE-KEYS.                                      30930413
012200                                           COPY CPWSXCFK.         PPPAVRAG
012300     EJECT                                                        PPPAVRAG
012400******************************************************************PPPAVRAG
012500*****                                                        *****PPPAVRAG
012600*****               LINKAGE SECTION                          *****PPPAVRAG
012700*****                                                        *****PPPAVRAG
012800******************************************************************PPPAVRAG
012900 LINKAGE SECTION.                                                 PPPAVRAG
013000 01  PPPAVRAG-INTERFACE.                                          30930413
013100                                    COPY CPLNKAVG.                PPPAVRAG
013200     EJECT                                                        PPPAVRAG
013210 01  XEDB-SEGMENT-AREA.                                           30930413
013220                                    COPY CPWSXEDB.                PPPAVRAG
013230     EJECT                                                        PPPAVRAG
013240******************************************************************PPPAVRAG
013250*****                                                        *****PPPAVRAG
013260*****             PROCEDURE DIVISION                         *****PPPAVRAG
013270*****                                                        *****PPPAVRAG
013280******************************************************************PPPAVRAG
013290 PROCEDURE DIVISION USING PPPAVRAG-INTERFACE                      PPPAVRAG
013300                          XEDB-SEGMENT-AREA.                      PPPAVRAG
013400     SKIP2                                                        PPPAVRAG
013500 10000-MAINLINE SECTION.                                          PPPAVRAG
013600 10000-ENTRY.                                                     PPPAVRAG
013700     SKIP1                                                        PPPAVRAG
013800     MOVE ZERO TO PPPAVRAG-RETURN-STATUS-FLAG.                    PPPAVRAG
013900     SKIP1                                                        PPPAVRAG
014000     IF PPPAVRAG-INITIALIZE-CALL                                  PPPAVRAG
014100         PERFORM 20000-INITIALIZE                                 PPPAVRAG
014200     ELSE                                                         PPPAVRAG
014300     IF PPPAVRAG-DERIVE-CALL                                      PPPAVRAG
014400         PERFORM 30000-DERIVE-AVERAGE                             PPPAVRAG
014500     ELSE                                                         PPPAVRAG
014600         MOVE 31 TO PPPAVRAG-RETURN-STATUS-FLAG.                  PPPAVRAG
014700     SKIP2                                                        PPPAVRAG
014800 19999-MAINLINE-EXIT.                                             PPPAVRAG
014900     GOBACK.                                                      PPPAVRAG
015000     EJECT                                                        PPPAVRAG
015100 20000-INITIALIZE SECTION.                                        PPPAVRAG
015200 20000-ENTRY.                                                     PPPAVRAG
015300     SKIP1                                                        PPPAVRAG
015400******************************************************************PPPAVRAG
015500***** THIS ROUTINE IS PERFORMED ONLY ON AN INITIALIZATION    *****PPPAVRAG
015600***** CALL.  IT PERFORMS FOUR FUNCTIONS:                     *****PPPAVRAG
015700*****   1) CAPTURE INITIAL STATUS OF CONTROL TABLE FILE;     *****PPPAVRAG
015800*****      CLOSE/REOPEN OR OPEN AS NECESSARY                 *****PPPAVRAG
015900*****   2) LOAD SYSTEM PARAMETERS USING PARAMETER UTILITY;   *****PPPAVRAG
016000*****   3) LOAD TABLE OF ALL AVAILABLE DAYS FOR THE 12       *****PPPAVRAG
016100*****      MONTHS REQUIRED FOR THE AVERAGE CALCULATIONS; AND *****PPPAVRAG
016200*****   4) RESET THE CONTROL TABLE FILE TO INITIAL STATUS    *****PPPAVRAG
016300******************************************************************PPPAVRAG
016400     SKIP1                                                        PPPAVRAG
016500     PERFORM 21000-SET-CONTROL-FILE.                              PPPAVRAG
016600     PERFORM 22000-LOAD-SYSTEM-PARAMETERS.                        PPPAVRAG
016700     PERFORM 23000-LOAD-CALENDAR-TABLE.                           PPPAVRAG
016800     PERFORM 24000-RESET-CONTROL-FILE.                            PPPAVRAG
016900     SKIP1                                                        PPPAVRAG
017000     GO TO 29999-EXIT.                                            PPPAVRAG
017100     SKIP3                                                        PPPAVRAG
017200 21000-SET-CONTROL-FILE.                                          PPPAVRAG
017300     SKIP1                                                        PPPAVRAG
017400     MOVE 'FILE-STATUS' TO IO-CTL-ACTION.                         PPPAVRAG
017500     PERFORM 29000-CALL-PPIOCTL.                                  PPPAVRAG
017600     MOVE IO-CTL-ACTION TO TEST-FILE-STATUS.                      PPPAVRAG
017700     IF CTL-FILE-INVALID-MODE                                     PPPAVRAG
017800         MOVE 32 TO PPPAVRAG-RETURN-STATUS-FLAG                   PPPAVRAG
017900         GO TO 29999-EXIT.                                        PPPAVRAG
018000     SKIP1                                                        PPPAVRAG
018100     IF CTL-FILE-OPEN-RAND                                        PPPAVRAG
018200         MOVE RAND-CLOSE TO IO-CTL-ACTION                         PPPAVRAG
018300         PERFORM 29000-CALL-PPIOCTL.                              PPPAVRAG
018400     SKIP1                                                        PPPAVRAG
018500     IF NOT CTL-FILE-OPEN-SEQ                                     PPPAVRAG
018600         MOVE SEQ-OPEN-IN TO IO-CTL-ACTION                        PPPAVRAG
018700         PERFORM 29000-CALL-PPIOCTL.                              PPPAVRAG
018800     SKIP2                                                        PPPAVRAG
018900 22000-LOAD-SYSTEM-PARAMETERS.                                    PPPAVRAG
019000     SKIP1                                                        PPPAVRAG
019100     MOVE 153 TO XSPI-PARM-NO.                                    PPPAVRAG
019200     CALL 'PPPRMUTL' USING SYSTEM-PARAMETER-INTERFACE.            PPPAVRAG
019300     MOVE XSPI-PARM-VALUE TO HOURS-PER-WEEK-THRESHOLD.            PPPAVRAG
019400     SKIP2                                                        PPPAVRAG
019500 23000-LOAD-CALENDAR-TABLE.                                       PPPAVRAG
019600     SKIP1                                                        PPPAVRAG
019700     MOVE PPPAVRAG-AS-OF-DATE-YYMM TO AS-OF-DATE-YYMM             PPPAVRAG
019800                                      PASS-DATE-YYMM.             PPPAVRAG
019900     IF AS-OF-MM = 01                                             PPPAVRAG
020000         MOVE 12 TO AS-OF-MM                                      PPPAVRAG
020100         COMPUTE AS-OF-YY = AS-OF-YY - 1                          PPPAVRAG
020200     ELSE                                                         PPPAVRAG
020300         COMPUTE AS-OF-MM = AS-OF-MM - 1.                         PPPAVRAG
020400     SKIP1                                                        PPPAVRAG
020500     MOVE XCFK-CALNDR           TO XCL1-KEY-AREA.                 PPPAVRAG
020600     IF AS-OF-MM = 12                                             PPPAVRAG
020700         MOVE AS-OF-YY          TO XCL1-YEAR                      PPPAVRAG
020800         MOVE 01                TO XCL1-MONTH                     PPPAVRAG
020900     ELSE                                                         PPPAVRAG
021000         COMPUTE XCL1-YEAR      =  AS-OF-YY - 1                   PPPAVRAG
021100         COMPUTE XCL1-MONTH     =  AS-OF-MM + 1.                  PPPAVRAG
021200     MOVE 1                     TO XCL1-SEQUENCE.                 PPPAVRAG
021300     MOVE SEQ-READ              TO IO-CTL-ACTION.                 PPPAVRAG
021400     PERFORM 23100-GET-CALENDAR-ENTRIES                           PPPAVRAG
021500         UNTIL IO-CTL-ERROR-CODE > ZEROS                          PPPAVRAG
021600            OR INITIALIZED.                                       PPPAVRAG
021700     SKIP1                                                        PPPAVRAG
021800     PERFORM 23300-CHECK-BIW-30DAYS                               PPPAVRAG
021900         VARYING WS-TABLE-IDX FROM 1 BY 1                         PPPAVRAG
022000           UNTIL WS-TABLE-IDX > 12.                               PPPAVRAG
022100     SKIP2                                                        PPPAVRAG
022200 23100-GET-CALENDAR-ENTRIES.                                      PPPAVRAG
022300     SKIP1                                                        PPPAVRAG
022400     MOVE XCL1-KEY-AREA         TO IO-CTL-NOM-KEY.                PPPAVRAG
022500     PERFORM 28000-CALL-PPIOCTL.                                  PPPAVRAG
022600     IF IO-CTL-ERROR-CODE = ZEROS                                 PPPAVRAG
022700         IF XCL1-SEQUENCE = 1                                     PPPAVRAG
022800             IF XCL1-YEAR     > AS-OF-YY    OR                    PPPAVRAG
022900               (XCL1-YEAR     = AS-OF-YY    AND                   PPPAVRAG
023000                XCL1-MONTH    > AS-OF-MM)                         PPPAVRAG
023100                 MOVE 'I' TO WS-INITIALIZED-IND                   PPPAVRAG
023200             ELSE                                                 PPPAVRAG
023300                 MOVE XCL1-MONTH TO WS-TABLE-IDX                  PPPAVRAG
023400                 MOVE XCL1-YEAR  TO TABLE-YEAR      (WS-TABLE-IDX)PPPAVRAG
023500                 MOVE XCL1-MONTH TO TABLE-MONTH     (WS-TABLE-IDX)PPPAVRAG
023600                 MOVE ZEROS      TO TABLE-EMPL-REG-HRS            PPPAVRAG
023700                                                    (WS-TABLE-IDX)PPPAVRAG
023800                 MOVE ZEROS      TO TABLE-EMPL-HRS-PER-WK         PPPAVRAG
023900                                                    (WS-TABLE-IDX)PPPAVRAG
024000                 MOVE SPACE      TO TABLE-TAKE-IND  (WS-TABLE-IDX)PPPAVRAG
024100                 MOVE XCL1-FISCAL-DAYS-IN-MO                      PPPAVRAG
024200                                 TO TABLE-CAL-DAYS-IN-MO          PPPAVRAG
024300                                                    (WS-TABLE-IDX)PPPAVRAG
024400                 MOVE 20                                          PPPAVRAG
024500                                 TO TABLE-BIW-DAYS-IN-MO          PPPAVRAG
024600                                                    (WS-TABLE-IDX)PPPAVRAG
024700                 PERFORM 23200-SET-NEXT-CTL-KEY                   PPPAVRAG
024800         ELSE                                                     PPPAVRAG
024900             PERFORM 23200-SET-NEXT-CTL-KEY.                      PPPAVRAG
025000     SKIP2                                                        PPPAVRAG
025100 23200-SET-NEXT-CTL-KEY.                                          PPPAVRAG
025200     SKIP1                                                        PPPAVRAG
025300     IF XCL1-SEQUENCE = 3                                         PPPAVRAG
025400         MOVE 1                  TO XCL1-SEQUENCE                 PPPAVRAG
025500         COMPUTE XCL1-MONTH      =  XCL1-MONTH + 1                PPPAVRAG
025600         IF XCL1-MONTH > 12                                       PPPAVRAG
025700             MOVE 01             TO XCL1-MONTH                    PPPAVRAG
025800             COMPUTE XCL1-YEAR   =  XCL1-YEAR + 01                PPPAVRAG
025900         ELSE                                                     PPPAVRAG
026000             NEXT SENTENCE                                        PPPAVRAG
026100     ELSE                                                         PPPAVRAG
026200         COMPUTE XCL1-SEQUENCE   =  XCL1-SEQUENCE + 1.            PPPAVRAG
026300     SKIP2                                                        PPPAVRAG
026400 23300-CHECK-BIW-30DAYS.                                          PPPAVRAG
026500     SKIP1                                                        PPPAVRAG
026600     PERFORM 23350-BIWEEKLY-CHECK                                 PPPAVRAG
026700         VARYING BIWEEKLY-IDX FROM 1 BY 1                         PPPAVRAG
026800           UNTIL BIWEEKLY-IDX > 4.                                PPPAVRAG
026900     SKIP2                                                        PPPAVRAG
027000 23350-BIWEEKLY-CHECK.                                            PPPAVRAG
027100     SKIP1                                                        PPPAVRAG
027200     IF TABLE-YYMM (WS-TABLE-IDX) =                               PPPAVRAG
027300        BIWKLY-XCEPTION-YYMM-REDEF (BIWEEKLY-IDX)                 PPPAVRAG
027400         MOVE 30 TO TABLE-BIW-DAYS-IN-MO (WS-TABLE-IDX).          PPPAVRAG
027500     SKIP2                                                        PPPAVRAG
027600 24000-RESET-CONTROL-FILE.                                        PPPAVRAG
027700     SKIP1                                                        PPPAVRAG
027800     IF NOT CTL-FILE-OPEN-SEQ                                     PPPAVRAG
027900         MOVE SEQ-CLOSE TO IO-CTL-ACTION                          PPPAVRAG
028000         PERFORM 29000-CALL-PPIOCTL.                              PPPAVRAG
028100     SKIP1                                                        PPPAVRAG
028200     IF CTL-FILE-OPEN-RAND                                        PPPAVRAG
028300         MOVE TEST-FILE-STATUS TO IO-CTL-ACTION                   PPPAVRAG
028400         PERFORM 29000-CALL-PPIOCTL.                              PPPAVRAG
028500     SKIP2                                                        PPPAVRAG
028600 28000-CALL-PPIOCTL.                                              PPPAVRAG
028700     SKIP1                                                        PPPAVRAG
028800     CALL 'PPIOCTL' USING CTL-INTERFACE,                          PPPAVRAG
028900                          XCL1-CALENDAR-SEGMENT.                  PPPAVRAG
029000     SKIP1                                                        PPPAVRAG
029100     IF IO-CTL-ERROR-CODE > ZEROS                                 PPPAVRAG
029200         MOVE IO-CTL-ERROR-CODE TO PPPAVRAG-RETURN-STATUS-FLAG    PPPAVRAG
029300         GO TO 29999-EXIT.                                        PPPAVRAG
029400     SKIP3                                                        PPPAVRAG
029500 28999-EXIT.                                                      PPPAVRAG
029600     EXIT.                                                        PPPAVRAG
029700     SKIP2                                                        PPPAVRAG
029800 29000-CALL-PPIOCTL.                                              PPPAVRAG
029900     SKIP1                                                        PPPAVRAG
030000     CALL 'PPIOCTL' USING CTL-INTERFACE,                          PPPAVRAG
030100                          CTL-SEGMENT-TABLE.                      PPPAVRAG
030200     SKIP1                                                        PPPAVRAG
030300     IF IO-CTL-ERROR-CODE NOT = ZEROES                            PPPAVRAG
030400         IF IO-CTL-ERROR-CODE = 06                                PPPAVRAG
030500             MOVE SPACES TO CTL-SEGMENT-TABLE                     PPPAVRAG
030600         ELSE                                                     PPPAVRAG
030700             MOVE IO-CTL-ERROR-CODE                               PPPAVRAG
030800               TO PPPAVRAG-RETURN-STATUS-FLAG                     PPPAVRAG
030900             GO TO 29999-EXIT.                                    PPPAVRAG
031000     SKIP3                                                        PPPAVRAG
031100 29999-EXIT.                                                      PPPAVRAG
031200     EXIT.                                                        PPPAVRAG
031300     EJECT                                                        PPPAVRAG
031400 30000-DERIVE-AVERAGE SECTION.                                    PPPAVRAG
031500 30000-ENTRY.                                                     PPPAVRAG
031600     SKIP1                                                        PPPAVRAG
031700     IF NOT-INITIALIZED                                           PPPAVRAG
031800         MOVE 31 TO PPPAVRAG-RETURN-STATUS-FLAG                   PPPAVRAG
031900         GO TO 39999-EXIT.                                        PPPAVRAG
032000     SKIP1                                                        PPPAVRAG
032100     MOVE ZEROS TO WS-TOTAL-HOURS                                 PPPAVRAG
032200                   WS-MONTHS-IN-TOTAL                             PPPAVRAG
032300                   WS-TOTAL-CAL-DAYS.                             PPPAVRAG
032400     MOVE 1 TO WS-TABLE-IDX.                                      30920387
032500     MOVE 1 TO WS-START-IDX.                                      30920387
032600     MOVE 20 TO WS-START-SEG-IDX.                                 30920387
032700     SKIP1                                                        PPPAVRAG
032800**** PERFORM 30500-SET-START-INDICES                              30920387
032900******** VARYING WS-TABLE-IDX FROM 1 BY 1                         30920387
033000********** UNTIL WS-TABLE-IDX > 12                                30920387
033100************* OR PPPAVRAG-START-DATE-YYMM                         30920387
033200************** = TABLE-YYMM (WS-TABLE-IDX).                       30920387
033300*****SKIP1                                                        30920387
033400**** IF WS-TABLE-IDX > 12                                         30920387
033500******** MOVE 1 TO WS-TABLE-IDX                                   30920387
033600******** MOVE 1 TO WS-START-IDX                                   30920387
033700******** MOVE 20 TO WS-START-SEG-IDX                              30920387
033800**** ELSE                                                         30920387
033900******** MOVE WS-TABLE-IDX TO WS-START-IDX                        30920387
034000******** COMPUTE WS-START-SEG-IDX = WS-TABLE-IDX + 19.            30920387
034100     SKIP1                                                        PPPAVRAG
034200     PERFORM 31000-ACCUMULATE                                     PPPAVRAG
034300         VARYING WS-SEGMENT-IDX FROM WS-START-SEG-IDX BY 1        PPPAVRAG
034400           UNTIL WS-SEGMENT-IDX > 31.                             PPPAVRAG
034500      SKIP1                                                       PPPAVRAG
034600      PERFORM 32000-CHECK-ZERO-ADJACENT-HRS                       PPPAVRAG
034700         THRU 32999-EXIT                                          PPPAVRAG
034800          VARYING WS-TABLE-IDX FROM WS-START-IDX BY 1             PPPAVRAG
034900            UNTIL WS-TABLE-IDX > 12.                              PPPAVRAG
035000      SKIP1                                                       PPPAVRAG
035100      PERFORM 33000-SET-RESTART-EXCLUSIONS                        PPPAVRAG
035200          VARYING WS-TABLE-IDX FROM WS-START-IDX BY 1             PPPAVRAG
035300            UNTIL WS-TABLE-IDX > 12.                              PPPAVRAG
035400     SKIP1                                                        PPPAVRAG
035500     PERFORM 34000-TEST-INCLUSION                                 PPPAVRAG
035600         VARYING WS-TABLE-IDX FROM WS-START-IDX BY 1              PPPAVRAG
035700           UNTIL WS-TABLE-IDX > 12.                               PPPAVRAG
035800     SKIP1                                                        PPPAVRAG
035900     PERFORM 36000-SET-RET-PARMS.                                 PPPAVRAG
036000     SKIP1                                                        PPPAVRAG
036100     GO TO 39999-EXIT.                                            PPPAVRAG
036200**** SKIP2                                                        30920387
036300*30500-SET-START-INDICES.                                         30920387
036400**** SKIP2                                                        30920387
036500     EJECT                                                        30920387
036600 31000-ACCUMULATE.                                                PPPAVRAG
036700     SKIP1                                                        PPPAVRAG
036800     IF XEDB-SEG-NO-51 = '51'                                     PPPAVRAG
036900         COMPUTE TABLE-EMPL-REG-HRS      (WS-TABLE-IDX)           PPPAVRAG
037000               = XEDB-5100-HRS-BAL       (WS-SEGMENT-IDX)         PPPAVRAG
037100     ELSE                                                         PPPAVRAG
037200         COMPUTE TABLE-EMPL-REG-HRS      (WS-TABLE-IDX)           PPPAVRAG
037300               = ZEROS.                                           PPPAVRAG
037400     SKIP1                                                        PPPAVRAG
037500     ADD 1 TO WS-TABLE-IDX.                                       PPPAVRAG
037600     SKIP2                                                        PPPAVRAG
037700 32000-CHECK-ZERO-ADJACENT-HRS.                                   PPPAVRAG
037800     SKIP1                                                        PPPAVRAG
037900     COMPUTE WS-NEXT-TABLE-IDX = WS-TABLE-IDX + 1.                PPPAVRAG
038000     SKIP1                                                        PPPAVRAG
038100     IF WS-NEXT-TABLE-IDX > WS-MAX-TABLE-IDX                      PPPAVRAG
038200         IF AS-OF-MM = 12                                         PPPAVRAG
038300             GO TO 32999-EXIT                                     PPPAVRAG
038400         ELSE                                                     PPPAVRAG
038500             COMPUTE WS-NEXT-TABLE-IDX = +0001.                   PPPAVRAG
038600     SKIP1                                                        PPPAVRAG
038700     IF TABLE-YEAR (WS-TABLE-IDX) > TABLE-YEAR (WS-NEXT-TABLE-IDX)PPPAVRAG
038800         GO TO 32999-EXIT.                                        PPPAVRAG
038900     SKIP1                                                        PPPAVRAG
039000     IF XEDB-MONTH-AVG-EXCLUDE (WS-TABLE-IDX)      > SPACE   OR   PPPAVRAG
039100        XEDB-MONTH-AVG-EXCLUDE (WS-NEXT-TABLE-IDX) > SPACE        PPPAVRAG
039200         GO TO 32999-EXIT.                                        PPPAVRAG
039300     SKIP1                                                        PPPAVRAG
039400     IF TABLE-EMPL-REG-HRS (WS-TABLE-IDX)      = ZEROS    AND     PPPAVRAG
039500        TABLE-EMPL-REG-HRS (WS-NEXT-TABLE-IDX) = ZEROS            PPPAVRAG
039600         PERFORM 35000-TRY-RESTART-DATE-CHG.                      PPPAVRAG
039700     SKIP2                                                        PPPAVRAG
039800 32999-EXIT. EXIT.                                                PPPAVRAG
039900     SKIP2                                                        PPPAVRAG
040000 33000-SET-RESTART-EXCLUSIONS.                                    PPPAVRAG
040100     SKIP1                                                        PPPAVRAG
040200     IF PPPAVRAG-START-DATE-YYMM > TABLE-YYMM (WS-TABLE-IDX)      PPPAVRAG
040300         MOVE 'N' TO TABLE-TAKE-IND (WS-TABLE-IDX)                PPPAVRAG
040400     ELSE                                                         PPPAVRAG
040500     IF PPPAVRAG-START-DATE-YYMM = TABLE-YYMM (WS-TABLE-IDX) OR   PPPAVRAG
040600        XEDB-MONTH-AVG-EXCLUDE (WS-TABLE-IDX) > SPACE             PPPAVRAG
040700         PERFORM 33500-COMPUTE-A-MONTH                            PPPAVRAG
040800         IF TABLE-EMPL-HRS-PER-WK (WS-TABLE-IDX)                  PPPAVRAG
040900          < HOURS-PER-WEEK-THRESHOLD                              PPPAVRAG
041000             MOVE 'N' TO TABLE-TAKE-IND (WS-TABLE-IDX)            PPPAVRAG
041100         ELSE                                                     PPPAVRAG
041200             MOVE 'Y' TO TABLE-TAKE-IND (WS-TABLE-IDX)            PPPAVRAG
041300     ELSE                                                         PPPAVRAG
041400         MOVE 'Y' TO TABLE-TAKE-IND (WS-TABLE-IDX).               PPPAVRAG
041500     SKIP2                                                        PPPAVRAG
041600 33500-COMPUTE-A-MONTH.                                           PPPAVRAG
041700     SKIP1                                                        PPPAVRAG
041800     IF XEDB-0152-PY-CL-BIWKLY                                    PPPAVRAG
041900         COMPUTE TABLE-EMPL-HRS-PER-WK          (WS-TABLE-IDX)    PPPAVRAG
042000                       = (TABLE-EMPL-REG-HRS    (WS-TABLE-IDX)    PPPAVRAG
042100                       * 5)                                       PPPAVRAG
042200                       / TABLE-BIW-DAYS-IN-MO   (WS-TABLE-IDX)    PPPAVRAG
042300     ELSE                                                         PPPAVRAG
042400         COMPUTE TABLE-EMPL-HRS-PER-WK          (WS-TABLE-IDX)    PPPAVRAG
042500                       = (TABLE-EMPL-REG-HRS    (WS-TABLE-IDX)    PPPAVRAG
042600                       * 5)                                       PPPAVRAG
042700                       / TABLE-CAL-DAYS-IN-MO   (WS-TABLE-IDX).   PPPAVRAG
042800     SKIP2                                                        PPPAVRAG
042900 34000-TEST-INCLUSION.                                            PPPAVRAG
043000     SKIP1                                                        PPPAVRAG
043100     IF TABLE-TAKE-IND (WS-TABLE-IDX) = 'Y'                       PPPAVRAG
043200         COMPUTE WS-TOTAL-HOURS                                   PPPAVRAG
043300               = WS-TOTAL-HOURS                                   PPPAVRAG
043400               + TABLE-EMPL-REG-HRS (WS-TABLE-IDX)                PPPAVRAG
043500         COMPUTE WS-MONTHS-IN-TOTAL                               PPPAVRAG
043600               = WS-MONTHS-IN-TOTAL                               PPPAVRAG
043700               + 1                                                PPPAVRAG
043800         IF XEDB-0152-PY-CL-BIWKLY                                PPPAVRAG
043900             COMPUTE WS-TOTAL-CAL-DAYS                            PPPAVRAG
044000                   = WS-TOTAL-CAL-DAYS                            PPPAVRAG
044100                   + TABLE-BIW-DAYS-IN-MO (WS-TABLE-IDX)          PPPAVRAG
044200         ELSE                                                     PPPAVRAG
044300             COMPUTE WS-TOTAL-CAL-DAYS                            PPPAVRAG
044400                   = WS-TOTAL-CAL-DAYS                            PPPAVRAG
044500                   + TABLE-CAL-DAYS-IN-MO (WS-TABLE-IDX).         PPPAVRAG
044600     SKIP2                                                        PPPAVRAG
044700 35000-TRY-RESTART-DATE-CHG.                                      PPPAVRAG
044800     SKIP1                                                        PPPAVRAG
044900     IF WS-NEXT-TABLE-IDX = WS-MAX-TABLE-IDX                      PPPAVRAG
045000         COMPUTE WS-RESTART-IDX = +0001                           PPPAVRAG
045100     ELSE                                                         PPPAVRAG
045200         COMPUTE WS-RESTART-IDX = WS-NEXT-TABLE-IDX + 1.          PPPAVRAG
045300     SKIP1                                                        PPPAVRAG
045400*****IF TABLE-YEAR (WS-RESTART-IDX)                               30920387
045500***** < TABLE-YEAR (WS-NEXT-TABLE-IDX)                            30920387
045600     IF TABLE-YYMM (WS-NEXT-TABLE-IDX) = AS-OF-DATE-YYMM          30920387
045700         IF PASS-DATE-YYMM > PPPAVRAG-START-DATE-YYMM             PPPAVRAG
045800             MOVE PASS-DATE-YYMM TO PPPAVRAG-START-DATE-YYMM      PPPAVRAG
045900         ELSE                                                     PPPAVRAG
046000             NEXT SENTENCE                                        PPPAVRAG
046100     ELSE                                                         PPPAVRAG
046200         IF TABLE-YYMM (WS-RESTART-IDX)                           PPPAVRAG
046300          > PPPAVRAG-START-DATE-YYMM                              PPPAVRAG
046400             MOVE TABLE-YYMM (WS-RESTART-IDX)                     PPPAVRAG
046500               TO PPPAVRAG-START-DATE-YYMM.                       PPPAVRAG
046600     SKIP2                                                        PPPAVRAG
046700 36000-SET-RET-PARMS.                                             PPPAVRAG
046800     SKIP1                                                        PPPAVRAG
046900     IF WS-MONTHS-IN-TOTAL = ZEROS                                PPPAVRAG
047000         MOVE ZEROS                 TO PPPAVRAG-DERIVED-AVERAGE   PPPAVRAG
047100     ELSE                                                         PPPAVRAG
047200         COMPUTE WS-TOTAL-WEEKS = WS-TOTAL-CAL-DAYS / 5           30930413
047300         COMPUTE WS-HRS-PER-WK-AVG  ROUNDED                       PPPAVRAG
047400               = WS-TOTAL-HOURS / WS-TOTAL-WEEKS                  30930413
047500************** = WS-TOTAL-HOURS                                   30930413
047600************** / (WS-TOTAL-CAL-DAYS / 5)                          30930413
047700         MOVE WS-HRS-PER-WK-AVG     TO PPPAVRAG-DERIVED-AVERAGE.  PPPAVRAG
047800     SKIP1                                                        PPPAVRAG
047900     IF PPPAVRAG-DERIVED-AVERAGE > 040.00                         PPPAVRAG
048000         MOVE 040.00 TO PPPAVRAG-DERIVED-AVERAGE.                 PPPAVRAG
048100     SKIP1                                                        30920387
048200     MOVE 'N' TO PPPAVRAG-THRESHOLD-IND.                          30920387
048300     SKIP1                                                        30920387
048400     IF XEDB-SEG-NO-51 = '51'                                     30920387
048500         IF PPPAVRAG-DERIVED-AVERAGE = ZEROS                      30920387
048600             IF XEDB-5132-AVG-HRS-WEEK > ZEROS                    30920387
048700                 MOVE 'Y' TO PPPAVRAG-THRESHOLD-IND.              30920387
048800     SKIP1                                                        30920387
048900     IF XEDB-SEG-NO-51 = '51'                                     30920387
049000         IF PPPAVRAG-DERIVED-AVERAGE > ZEROS                      30920387
049100             IF XEDB-5132-AVG-HRS-WEEK = ZEROS                    30920387
049200                 MOVE 'Y' TO PPPAVRAG-THRESHOLD-IND.              30920387
049300     SKIP1                                                        30920387
049400     IF XEDB-SEG-NO-51 = '51'                                     30920387
049500         IF PPPAVRAG-DERIVED-AVERAGE                              30920387
049600             NOT < HOURS-PER-WEEK-THRESHOLD                       30920387
049700             IF XEDB-5132-AVG-HRS-WEEK                            30920387
049800                 < HOURS-PER-WEEK-THRESHOLD                       30920387
049900                 MOVE 'Y' TO PPPAVRAG-THRESHOLD-IND.              30920387
050000     SKIP1                                                        30920387
050100     IF XEDB-SEG-NO-51 = '51'                                     30920387
050200         IF PPPAVRAG-DERIVED-AVERAGE                              30920387
050300             < HOURS-PER-WEEK-THRESHOLD                           30920387
050400             IF XEDB-5132-AVG-HRS-WEEK                            30920387
050500                 NOT < HOURS-PER-WEEK-THRESHOLD                   30920387
050600                 MOVE 'Y' TO PPPAVRAG-THRESHOLD-IND.              30920387
050700     SKIP2                                                        PPPAVRAG
050800 39999-EXIT.                                                      PPPAVRAG
050900     EXIT.                                                        PPPAVRAG
