000100**************************************************************/   30930413
000200*  PROGRAM: PPPBLS                                           */   30930413
000300*  RELEASE: ____0413____  SERVICE REQUEST(S): ____3093____   */   30930413
000400*  NAME:____JIM WILLIAMS__CREATION DATE:      __05/23/89__   */   30930413
000500*  DESCRIPTION:                                              */   30930413
000600*  - CHANGED FOR CONVERSION FROM OS/VS COBOL TO VS COBOL II. */   30930413
000700**************************************************************/   30930413
000800**************************************************************/   29250334
000900*  PROGRAM:  PPPBLS                                          */   29250334
001000*  REL#:  0334   REF: NONE  SERVICE REQUESTS:   ___2925_____ */   29250334
001100*  NAME _____JLT_______   MODIFICATION DATE ____12/10/87_____*/   29250334
001200*  DESCRIPTION                                               */   29250334
001300*   - RETURN EDB YTD TOTAL GROSS (D.E. #5501) TO PPI730.     */   29250334
001400**************************************************************/   29250334
001500**************************************************************/   14130259
001600*  PROGRAM:  PPPBLS                                          */   14130259
001700*  REL#:  1413   REF: NONE  SERVICE REQUESTS:   ____0259____ */   14130259
001800*  NAME __SRS__________   MODIFICATION DATE ____12/09/86_____*/   14130259
001900*  DESCRIPTION                                               */   14130259
002000*   - CORRECT PROBLEM WITH ERROR RETURN PROCESSING.          */   14130259
002100**************************************************************/   13880222
002200*  PROGRAM:  PPPBLS                                          */   13880222
002300*  REL#:  0222   REF: NONE  SERVICE REQUESTS:   ____1388____ */   13880222
002400*  NAME __M.NISHI______   MODIFICATION DATE ____07/01/86_____*/   13880222
002500*  DESCRIPTION                                               */   13880222
002600*                                                            */   13880222
002700*  ADDED TWO COPY MEMBERS TO WORKING STORAGE NEEDED TO       */   13880222
002800*  USE THE PPTTLUTL (TITLE CODE TABLE UTILITY.               */   13880222
002900*                                                            */   13880222
003000*  ADDED IN SECTION A500-LOAD-CTL-TABLE A PERFORM OF THE     */   13880222
003100*  NEW SECTION A800-LOAD-TITLE-TYPE.                         */   13880222
003200*                                                            */   13880222
003300*  NEW SECTION A800-LOAD-TITLE-TYPE PERFORMS THE FUNCTION    */   13880222
003400*  TO LOAD THE TITLE TYPES TO THE INTERNAL TABLE FOR USE     */   13880222
003500*  BY PPTTLUTL.  IF THERE IS A PROBLEM LOADING THE TITLE     */   13880222
003600*  CODE TABLE, AN ERROR OF '16' IS RETURNED TO THE CALLING   */   13880222
003700*  PROGRAM.                                                  */   13880222
003800*                                                            */   13880222
003900*  IN SECTION B500-PROCESS-DISTR, DETERMINATION OF THE       */   13880222
004000*  TITLE CODE CLASSIFICATION WILL NOW BE DONE USING THE      */   13880222
004100*  CALLED MODULE PPTTLUTL WHICH RETURNS THE TITLE TYPE CODE. */   13880222
004200*  THIS ALLOWS SEPARATION OF ACADEMIC VERSUS NON-ACADEMIC    */   13880222
004300*  IN THE REPORT TALLYS.                                     */   13880222
004400*                                                            */   13880222
004500*  E100-FIND-TITLE-TYPE SECTION WAS ADDED TO SET UP THE      */   13880222
004600*  FIELD FOR THE CALL TO PPTTLUTL AND IF AN ERROR CODE       */   13880222
004700*  OF '01' IS RETURNED FROM PPTTLUTL, AN ERROR CODE OF       */   13880222
004800*  '31' IS RETURNED TO THE CALLING PROGRAM;                  */   13880222
004900*  OTHERWISE, THE TITLE TYPE IS AVAILABLE FOR USE.           */   13880222
005000*                                                            */   13880222
005100*  A NEW SECTION TO CALL PPTTLUTL WAS ADDED CALLED           */   13880222
005200*  R800-CALL-PPTTLUTL.                                       */   13880222
005300*                                                            */   13880222
005400**************************************************************/   13880222
005500     SKIP1                                                        13880222
005600******************************************************************72450161
005700*  PROGRAM:  PPPBLS                                              *72450161
005800*  RELEASE # ___0161___  SERVICE REQUEST NO(S)___7245___________ *72450161
005900*  NAME _______________  MODIFICATION DATE ___09/17/85__________ *72450161
006000*  DESCRIPTION                                                   *72450161
006100*                                                                *72450161
006200*  THIS IS A NEW PROGRAM.  SEE REMARKS BELOW FOR DESCRIPTION.    *72450161
006300*                                                                *72450161
006400******************************************************************72450161
006500*                                                                *72450161
006600 IDENTIFICATION DIVISION.                                         PPPBLS
006700 PROGRAM-ID.    PPPBLS                                            PPPBLS
006800 AUTHOR.        M. NISHI (ORIG. C. RIDER 6/82)                    PPPBLS
006900 INSTALLATION.  UNIVERSITY OF CALIFORNIA.                         PPPBLS
007000 DATE-WRITTEN.  SEPT 1985.                                        PPPBLS
007100 DATE-COMPILED.                                                   PPPBLS
007200*REMARKS.                                                         30930413
007300******************************************************************PPPBLS
007400*                                                                *PPPBLS
007500*  THIS PROGRAM IS A CALLED MODULE WHICH IS CALLED BY PPI730     *PPPBLS
007600*    TO PRODUCE THE DATA NEEDED TO FILL IN THE STATE OF CALIF.   *PPPBLS
007700*    FORM BLS790S - BUREAU OF LABOR STATISTICS REPORT ON         *PPPBLS
007800*    EMPLOYMENT AND PAYROLL - EDUCATION (U.S. DEPARTMENT         *PPPBLS
007900*    OF LABOR).                                                  *PPPBLS
008000*                                                                *PPPBLS
008100*    PROGRAM PPPBLS  USES THE LINKAGE AREA WHICH ARE             *PPPBLS
008200*    COPY MEMBERS NAMED  CPWSXBLS AND CPWSXPAR.                  *PPPBLS
008300*    THIS INTERFACE AREA CARRIES THE NECESSARY                   *PPPBLS
008400*    INFORMATION NEEDED BY PPPBLS  TO PROCESS THE PAR DATA       *PPPBLS
008500*    BEING SENT   TO  CREATE  THE FINAL REPORT  AFTER THE PAR    *PPPBLS
008600*    DATA HAS BEEN ACCUMULATED.                                  *PPPBLS
008700*                                                                *PPPBLS
008800*    THIS PROGRAM ALSO READS THE EDB FILE VIA PPIOEDB FOR THE    *PPPBLS
008900*    FIELD CALLED 'SEX' (DATA ELEMENT 0108) FOR EACH EMPLOYEE.   *PPPBLS
009000*                                                                *PPPBLS
009100*  THIS PROGRAM PROVIDES ONE REPORT:                             *PPPBLS
009200*                                                                *PPPBLS
009300*    REPORT PPPBLS1   PROVIDES INFORMATION ON THE FOLLOWING:     *PPPBLS
009400*      HEAD COUNT - BY CAMPUS/HOSPITAL, MALE/FEMALE,             *PPPBLS
009500*          ACADEMIC/NON-ACADEMIC                                 *PPPBLS
009600*      GROSS PAY  - BY CAMPUS/HOSPITAL, MALE/FEMALE              *PPPBLS
009700*                                                                *PPPBLS
009800*      EACH EMPLOYEE IS COUNTED ONLY ONCE.  AN EMPLOYEE IS NOT   *PPPBLS
009900*      COUNTED IF THE ONLY ACTIVITY FOR THE EMPLOYEE IS EXPENSE  *PPPBLS
010000*      TRANSFERS.  THE EMPLOYEE IS COUNTED AS HOSPITAL IF THE    *PPPBLS
010100*      FIRST ACCT ENCOUNTERED IN THE PAYROLL AUDIT FILE IS       *PPPBLS
010200*         IN THE RANGE  420000 THRU 429999                       *PPPBLS
010300*      OTHERWISE, THE EMPLOYEE IS COUNTED AS MAIN CAMPUS.  THE   *PPPBLS
010400*      EMPLOYEE'S SEX IS READ FROM THE EMPLOYEE DATABASE.  THE   *PPPBLS
010500*      EMPLOYEE IS COUNTED AS ACADEMIC IF THE FIRST TITLE        *PPPBLS
010600*      ENCOUNTERED FOR THE EMPLOYEE IS IN THE RANGE 800 - 3999.  *PPPBLS
010700*                                                                *PPPBLS
010800*                                                                *PPPBLS
010900******************************************************************PPPBLS
011000 ENVIRONMENT DIVISION.                                            PPPBLS
011100 CONFIGURATION SECTION.                                           PPPBLS
011200*                                                                 PPPBLS
011300 SOURCE-COMPUTER. IBM-370.                                        PPPBLS
011400 OBJECT-COMPUTER. IBM-370.                                        PPPBLS
011500*                                                                 PPPBLS
011600 SPECIAL-NAMES.                                                   PPPBLS
011700     C01  IS  TOP-OF-PAGE.                                        PPPBLS
011800*                                                                 PPPBLS
011900 INPUT-OUTPUT SECTION.                                            PPPBLS
012000 FILE-CONTROL.                                                    PPPBLS
012100*                                                                 PPPBLS
012200*INPUTS:    (EDB VIA  PPIOEDB)                                    PPPBLS
012300*                                                                 PPPBLS
012400*OUTPUTS:                                                         PPPBLS
012500*                                                                 PPPBLS
012600     SELECT REPORT01-FILE                                         PPPBLS
012700         ASSIGN TO  UT-S-BLS790S.                                 PPPBLS
012800*                                                                 PPPBLS
012900     EJECT                                                        PPPBLS
013000 DATA DIVISION.                                                   PPPBLS
013100 FILE SECTION.                                                    PPPBLS
013200*                                                                 PPPBLS
013300 FD  REPORT01-FILE                                                PPPBLS
013400     LABEL RECORDS ARE STANDARD                                   PPPBLS
013500     VALUE OF FILE-ID 'PERSNLST'.                                 PPPBLS
013600 01  REPORT01-RECORD                  PIC BX(132).                PPPBLS
013700*                                                                 PPPBLS
013800     EJECT                                                        PPPBLS
013900******************************************************************PPPBLS
014000*                                                                *PPPBLS
014100*                WORKING STORAGE SECTION.                        *PPPBLS
014200******************************************************************PPPBLS
014300 WORKING-STORAGE SECTION.                                         PPPBLS
014400*                                                                 PPPBLS
014500*                                                                 PPPBLS
014600 01  SYSTEM-DATE.                                                 PPPBLS
014700     05  SYSTEM-DATE-YY               PIC XX.                     PPPBLS
014800     05  SYSTEM-DATE-MM               PIC XX.                     PPPBLS
014900     05  SYSTEM-DATE-DD               PIC XX.                     PPPBLS
015000*                                                                 PPPBLS
015100 01  PAGE-NUMBER                      PIC 999 VALUE ZERO.         PPPBLS
015200*                                                                 PPPBLS
015300 01  END-OF-FILES.                                                PPPBLS
015400*                                                                 PPPBLS
015500     05  CHECK-EMP-IN-MASTER          PIC X(1).                   PPPBLS
015600         88  EMP-IN-MASTER            VALUE 'T'.                  PPPBLS
015700*                                                                 PPPBLS
015800     05  CHECK-EMP-COUNTED            PIC X(1).                   PPPBLS
015900         88  EMP-COUNTED              VALUE 'T'.                  PPPBLS
016000*                                                                 PPPBLS
016100     05  CHECK-DOS-FOUND              PIC X(1).                   PPPBLS
016200         88  DOS-FOUND                VALUE 'T'.                  PPPBLS
016300     SKIP3                                                        PPPBLS
016400 01  800-SWITCHES.                                                PPPBLS
016500*                                                                 PPPBLS
016600     05  800-FATAL-SW             PIC 9     VALUE ZERO.           PPPBLS
016700             88  FATAL-ERROR                VALUE 1.              PPPBLS
016800*                                                                 PPPBLS
016900     05  800-DOS-LOADED           PIC 9     VALUE ZERO.           PPPBLS
017000             88  DOS-LOADED                 VALUE 1.              PPPBLS
017100                                                                  PPPBLS
017200     SKIP3                                                        PPPBLS
017300 01  INDEX-VARS.                                                  PPPBLS
017400     05  ACCT-IDX                     PIC 99 COMP.                PPPBLS
017500     05  SEX-IDX                      PIC 99 COMP.                PPPBLS
017600     05  DISTR-IDX                    PIC 99 COMP.                PPPBLS
017700     05  TABLE-IDX                    PIC 99 COMP.                PPPBLS
017800     05  CYCLE-IDX                    PIC 99 COMP.                PPPBLS
017900     05  PRINT-IDX                    PIC 99 COMP.                PPPBLS
018000     05  LINE-IDX                     PIC 99 COMP.                PPPBLS
018100     05  GROSS-IDX                    PIC 99 COMP.                PPPBLS
018200     05  GROSS-MAX                    PIC 99 COMP VALUE 10.       PPPBLS
018300*                                                                 PPPBLS
018400 01  LAST-EMPLOYEE-ID                 PIC X(9)  VALUE SPACES.     PPPBLS
018500*                                                                 PPPBLS
018600 01  SAVE-EARN-AMT                    PIC S9(9)V99.               PPPBLS
018700*                                                                 PPPBLS
018800     SKIP3                                                        PPPBLS
018900 01  ACCUMULATION-TABLE.                                          PPPBLS
019000     05  ACCT                         OCCURS 3.                   PPPBLS
019100         10  SEX                      OCCURS 2.                   PPPBLS
019200             15  TOT-ACAD             PIC 9(6).                   PPPBLS
019300             15  TOT-NON-ACAD         PIC 9(6).                   PPPBLS
019400             15  TOT-GROSS            PIC S9(9)V99.               PPPBLS
019500*                                                                 PPPBLS
019600 01  CYCLE-TABLE.                                                 PPPBLS
019700     05  CYCLE-DATA                   OCCURS 50.                  PPPBLS
019800         10  CYCLE-SCHED              PIC X(2).                   PPPBLS
019900         10  CYCLE-END-DATE.                                      PPPBLS
020000             15  CYCLE-END-YR         PIC X(2).                   PPPBLS
020100             15  CYCLE-END-MO         PIC X(2).                   PPPBLS
020200             15  CYCLE-END-DA         PIC X(2).                   PPPBLS
020300*                                                                 PPPBLS
020400 01  DOS-TABLE.                                                   PPPBLS
020500     05  DOS-TABLE-MAX                 PIC 999  VALUE ZERO.       PPPBLS
020600     05  DOS-TABLE-IDX                 PIC 999  VALUE ZERO.       PPPBLS
020700     05  DOS-DETAIL                   OCCURS 200.                 PPPBLS
020800         10  DOS-CODE                  PIC XXX.                   PPPBLS
020900         10  DOS-GROSS-INDICATORS.                                PPPBLS
021000             15  DOS-GROSS-IND        OCCURS 10                   PPPBLS
021100                                       PIC S9(1)                  PPPBLS
021200                                      COMP-3.                     PPPBLS
021300*                                                                 PPPBLS
021400 01  TEST-ELEMENTS.                                               PPPBLS
021500     05  WS-ACCT                      PIC 9(6).                   PPPBLS
021600         88  ACCT-HOSPITAL            VALUE 420000 THRU 429999.   PPPBLS
021700*                                                                 PPPBLS
021800     EJECT                                                        13880222
021900*01  XUTF-UTILITY-FUNCTIONS           COPY CPWSXUTF.              13880222
022000 01  XUTF-UTILITY-FUNCTIONS.                                      30930413
022100                                      COPY CPWSXUTF.              13880222
022200     EJECT                                                        13880222
022300 01  XTLI-INTERFACE-AREA.                                         13880222
022400                                      COPY CPWSXTLI.              13880222
022500     EJECT                                                        PPPBLS
022600*01  PAYROLL-PROCESS-INST-CONST-2     COPY CPWSXIC2.              PPPBLS
022700 01  PAYROLL-PROCESS-INST-CONST-2.                                30930413
022800                                      COPY CPWSXIC2.              PPPBLS
022900     EJECT                                                        PPPBLS
023000*01  XPCR-RECORD                      COPY CPWSXPCR.              PPPBLS
023100 01  XPCR-RECORD.                                                 30930413
023200                                      COPY CPWSXPCR.              PPPBLS
023300     EJECT                                                        PPPBLS
023400*01  XCFK-CONTROL-FILE-KEYS           COPY CPWSXCFK.              PPPBLS
023500 01  XCFK-CONTROL-FILE-KEYS.                                      30930413
023600                                      COPY CPWSXCFK.              PPPBLS
023700     EJECT                                                        PPPBLS
023800*01  IO-FUNCTIONS                     COPY CPWSXIOF.              PPPBLS
023900 01  IO-FUNCTIONS.                                                30930413
024000                                      COPY CPWSXIOF.              PPPBLS
024100     EJECT                                                        PPPBLS
024200*01  CTL-INTERFACE                    COPY CPWSXCIF.              PPPBLS
024300 01  CTL-INTERFACE.                                               30930413
024400                                      COPY CPWSXCIF.              PPPBLS
024500     SKIP3                                                        PPPBLS
024600*01  CTL-SEGMENT-TABLE                COPY CPWSXCST.              PPPBLS
024700 01  CTL-SEGMENT-TABLE.                                           30930413
024800                                      COPY CPWSXCST.              PPPBLS
024900     EJECT                                                        PPPBLS
025000*01  EDB-INTERFACE                    COPY CPWSXEIF.              PPPBLS
025100 01  EDB-INTERFACE.                                               30930413
025200                                      COPY CPWSXEIF.              PPPBLS
025300     SKIP3                                                        PPPBLS
025400*01* EDB-SEGMENT-TABLE   ************ COPY CPWSXEST.              29250334
025500**************************************COPY CPWSXEST.              29250334
025600*                                                                 29250334
025700*01  XEDB-SEGMENT-AREA                COPY CPWSXEDB.              29250334
025800 01  XEDB-SEGMENT-AREA.                                           30930413
025900                                      COPY CPWSXEDB.              29250334
026000     EJECT                                                        PPPBLS
026100*01  XDOS-DESC-SERV-REC               COPY CPWSXDOS.              PPPBLS
026200 01  XDOS-DESC-SERV-TABLE.                                        30930413
026300                                      COPY CPWSXDOS.              PPPBLS
026400     EJECT                                                        PPPBLS
026500*01* XDBS-PERSONAL-DATA1  ************COPY CPWSDB01.              29250334
026600**************************************COPY CPWSDB01.              29250334
026700*****EJECT                                                        29250334
026800*01  STND-RPT-HD                      COPY CPWSPSHR.              PPPBLS
026900 01  STND-RPT-HD.                                                 30930413
027000                                      COPY CPWSPSHR.              PPPBLS
027100     EJECT                                                        PPPBLS
027200 01  HEADER-REC04.                                                PPPBLS
027300     05  FILLER                       PIC X(60)  VALUE SPACES.    PPPBLS
027400     05  HDR04-DESC                   PIC X(12).                  PPPBLS
027500     05  FILLER                       PIC X(60)  VALUE SPACES.    PPPBLS
027600*                                                                 PPPBLS
027700 01  HEADER-REC05.                                                PPPBLS
027800     05  FILLER                       PIC X(40)  VALUE            PPPBLS
027900         '                                ACAD    '.              PPPBLS
028000     05  FILLER                       PIC X(40)  VALUE            PPPBLS
028100         '  NON-ACAD              TOTAL           '.              PPPBLS
028200     05  FILLER                       PIC X(40)  VALUE            PPPBLS
028300         '             GROSS PAY                  '.              PPPBLS
028400     05  FILLER                       PIC X(12)  VALUE SPACES.    PPPBLS
028500*                                                                 PPPBLS
028600     EJECT                                                        PPPBLS
028700 01  DETAIL-REC01.                                                PPPBLS
028800     05  FILLER                       PIC X(12)  VALUE SPACES.    PPPBLS
028900     05  DTL01-DESC                   PIC X(15).                  PPPBLS
029000     05  DTL01-TOT-ACAD               PIC ZZZZZZZZ9.              PPPBLS
029100     05  FILLER                       PIC X(05)  VALUE SPACES.    PPPBLS
029200     05  DTL01-TOT-NON-ACAD           PIC ZZZZZZZZ9.              PPPBLS
029300     05  FILLER                       PIC X(10)  VALUE SPACES.    PPPBLS
029400     05  DTL01-TOTAL                  PIC ZZZZZZZZ9.              PPPBLS
029500     05  FILLER                       PIC X(15)  VALUE SPACES.    PPPBLS
029600     05  DTL01-TOT-GROSS              PIC ZZZ,ZZZ,ZZZ,ZZ9.99-.    PPPBLS
029700     05  FILLER                       PIC X(29)  VALUE SPACES.    PPPBLS
029800                                                                  PPPBLS
029900 01  DETAIL-REC02.                                                PPPBLS
030000     05  FILLER                       PIC X(01)  VALUE SPACES.    PPPBLS
030100     05  FILLER                       PIC X(19)  VALUE            PPPBLS
030200         'PAY SCHEDULE:      '.                                   PPPBLS
030300     05  DTL02-DATA.                                              PPPBLS
030400         10  FILLER                   OCCURS 10 TIMES.            PPPBLS
030500             15  FILLER               PIC X(3).                   PPPBLS
030600             15  DTL02-CYCLE-SCHED    PIC X(2).                   PPPBLS
030700             15  FILLER               PIC X(5).                   PPPBLS
030800     05  FILLER                       PIC X(12)  VALUE SPACES.    PPPBLS
030900                                                                  PPPBLS
031000 01  DETAIL-REC03.                                                PPPBLS
031100     05  FILLER                       PIC X(01)  VALUE SPACES.    PPPBLS
031200     05  FILLER                       PIC X(19)  VALUE            PPPBLS
031300         'PAY PERIOD END:    '.                                   PPPBLS
031400     05  DTL03-DATA.                                              PPPBLS
031500         10  FILLER                   OCCURS 10 TIMES.            PPPBLS
031600             15  DTL03-CYCLE-END-MO   PIC X(2).                   PPPBLS
031700             15  DTL03-SLASH-1        PIC X(1).                   PPPBLS
031800             15  DTL03-CYCLE-END-DA   PIC X(2).                   PPPBLS
031900             15  DTL03-SLASH-2        PIC X(1).                   PPPBLS
032000             15  DTL03-CYCLE-END-YR   PIC X(2).                   PPPBLS
032100             15  FILLER               PIC X(2).                   PPPBLS
032200     05  FILLER                       PIC X(12)  VALUE SPACES.    PPPBLS
032300*                                                                *PPPBLS
032400     EJECT                                                        PPPBLS
032500 LINKAGE SECTION.                                                 PPPBLS
032600*                                                                 PPPBLS
032700*01  XBLS-INTERFACE-AREA                   COPY CPWSXBLS.         PPPBLS
032800 01  XBLS-INTERFACE-AREA.                                         30930413
032900                                           COPY CPWSXBLS.         PPPBLS
033000*                                                                 PPPBLS
033100*01  XPAR-PAY-AUDIT-REC                    COPY CPWSXPAR.         PPPBLS
033200 01  XPAR-PAY-AUDIT-REC.                                          30930413
033300                                           COPY CPWSXPAR.         PPPBLS
033400     EJECT                                                        PPPBLS
033500 PROCEDURE DIVISION USING  XBLS-INTERFACE-AREA                    PPPBLS
033600                           XPAR-PAY-AUDIT-REC.                    PPPBLS
033700******************************************************************PPPBLS
033800*                                                                *PPPBLS
033900*                     CALLED ROUTINE                             *PPPBLS
034000*     PERFORMS INITIALIZATION, PROCESS INPUT, END OF JOB.        *PPPBLS
034100*        PROCEDURE DIVISION  USING  XBLS-INTERFACE-AREA   AND    *PPPBLS
034200*                                   XPAR-PAY-AUDIT-REC.          *PPPBLS
034300*                                                                *PPPBLS
034400******************************************************************PPPBLS
034500*                                                                 PPPBLS
034600*                                                                 PPPBLS
034700     MOVE  ZEROS  TO  XBLS-RETURN-CODE                            PPPBLS
034800                      XBLS-ERROR-EMP-ID.                          PPPBLS
034900     MOVE  SPACES TO  XBLS-ERROR-DOS-CODE.                        PPPBLS
035000*                                                                 PPPBLS
035100**  TO BE PERFORMED ONCE TO INITIALIZE PROGRAM.                   PPPBLS
035200*                                                                 PPPBLS
035300     IF  XBLS-INIT-IND                                            PPPBLS
035400     PERFORM A100-INITIALIZE THRU                                 PPPBLS
035500             A109-INITIALIZE-EXIT.                                PPPBLS
035600*                                                                 PPPBLS
035700**  TO BE PERFORMED FOR EACH PCR RECORD IN THE PAR FILE.          PPPBLS
035800*                                                                 PPPBLS
035900     IF XBLS-PCR-IND                                              PPPBLS
036000         PERFORM B100-CHECK-PCRS THRU                             PPPBLS
036100                 B109-CHECK-PCRS-EXIT.                            PPPBLS
036200*                                                                 PPPBLS
036300**  TO BE PERFORMED FOR EACH PAR RECORD IN THE PAR FILE.          PPPBLS
036400*                                                                 PPPBLS
036500     IF XBLS-PAR-IND                                              PPPBLS
036600         PERFORM B200-PROCESS-EMPLOYEES THRU                      PPPBLS
036700                 B209-PROCESS-EMP-EXIT.                           PPPBLS
036800*                                                                 PPPBLS
036900**  TO BE PERFORMED ONE AT THE END OF THE JOB.                    PPPBLS
037000*                                                                 PPPBLS
037100     IF XBLS-END-IND                                              PPPBLS
037200         PERFORM A300-FINISH THRU                                 PPPBLS
037300                 A309-FINISH-EXIT.                                PPPBLS
037400*                                                                 PPPBLS
037500**  IF AN INVALID INDICATOR IS RECIEVED RETURN AN ERROR CODE.     PPPBLS
037600*                                                                 PPPBLS
037700     IF  NOT  XBLS-INIT-IND AND                                   PPPBLS
037800         NOT  XBLS-PCR-IND  AND                                   PPPBLS
037900         NOT  XBLS-PAR-IND  AND                                   PPPBLS
038000         NOT  XBLS-END-IND                                        PPPBLS
038100             MOVE  11  TO  XBLS-RETURN-CODE.                      PPPBLS
038200*                                                                 PPPBLS
038300     GOBACK.                                                      PPPBLS
038400*                                                                 PPPBLS
038500     EJECT                                                        PPPBLS
038600******************************************************************PPPBLS
038700*                                                                *PPPBLS
038800*                   INITIALIZATION ROUTINE                       *PPPBLS
038900*     OPEN FILES,   LOAD DOS TABLE INTERNALLY, OPEN EDB FILE,    *PPPBLS
039000*            INIT SYSTEM DATE, CLOSE CONTROL TABLES.             *PPPBLS
039100*                                                                *PPPBLS
039200******************************************************************PPPBLS
039300*                                                                 PPPBLS
039400 A100-INITIALIZE.                                                 PPPBLS
039500*                                                                 PPPBLS
039600     OPEN                                                         PPPBLS
039700          OUTPUT REPORT01-FILE.                                   PPPBLS
039800*                                                                 PPPBLS
039900     MOVE SEQ-OPEN-IN  TO  IO-CTL-ACTION.                         PPPBLS
040000     PERFORM R300-CALL-PPIOCTL  THRU                              PPPBLS
040100             R309-CALL-PPIOCTL-EXIT.                              PPPBLS
040200*                                                                 PPPBLS
040300     IF FATAL-ERROR                                               PPPBLS
040400         MOVE 12  TO  XBLS-RETURN-CODE                            PPPBLS
040500         GO TO  A109-INITIALIZE-EXIT                              PPPBLS
040600     ELSE                                                         PPPBLS
040700     PERFORM A400-OPEN-EDB THRU                                   PPPBLS
040800             A409-OPEN-EDB-EXIT.                                  PPPBLS
040900*                                                                 PPPBLS
041000     IF FATAL-ERROR                                               PPPBLS
041100         MOVE  13  TO XBLS-RETURN-CODE                            PPPBLS
041200         GO TO A109-INITIALIZE-EXIT                               PPPBLS
041300     ELSE                                                         PPPBLS
041400     PERFORM A500-LOAD-CTL-TABLE THRU                             PPPBLS
041500             A509-LOAD-CTL-TABLE-EXIT.                            PPPBLS
041600*                                                                 PPPBLS
041700     MOVE SEQ-CLOSE    TO  IO-CTL-ACTION                          PPPBLS
041800     PERFORM R300-CALL-PPIOCTL  THRU                              PPPBLS
041900             R309-CALL-PPIOCTL-EXIT.                              PPPBLS
042000*                                                                 PPPBLS
042100     ACCEPT SYSTEM-DATE FROM DATE.                                PPPBLS
042200*                                                                 PPPBLS
042300     MOVE ZEROS TO ACCUMULATION-TABLE.                            PPPBLS
042400*                                                                 PPPBLS
042500     MOVE 0 TO CYCLE-IDX.                                         PPPBLS
042600*                                                                 PPPBLS
042700 A109-INITIALIZE-EXIT.                                            PPPBLS
042800     EXIT.                                                        PPPBLS
042900     EJECT                                                        PPPBLS
043000******************************************************************PPPBLS
043100*                                                                *PPPBLS
043200*                       END OF JOB ROUTINE                       *PPPBLS
043300*                  PRINT REPORT  AND CLOSE FILE.                 *PPPBLS
043400*                                                                *PPPBLS
043500******************************************************************PPPBLS
043600*                                                                 PPPBLS
043700 A300-FINISH.                                                     PPPBLS
043800*                                                                 PPPBLS
043900     IF FATAL-ERROR                                               PPPBLS
044000         GO TO A308-SKIP-REPORTS.                                 PPPBLS
044100*                                                                 PPPBLS
044200     PERFORM C100-PRINT-PERSNL-STATS THRU                         PPPBLS
044300             C109-PRINT-PERSNL-STATS-EXIT.                        PPPBLS
044400*                                                                 PPPBLS
044500 A308-SKIP-REPORTS.                                               PPPBLS
044600*                                                                 PPPBLS
044700     CLOSE       REPORT01-FILE.                                   PPPBLS
044800*                                                                 PPPBLS
044900*                                                                 PPPBLS
045000 A309-FINISH-EXIT.                                                PPPBLS
045100      EXIT.                                                       PPPBLS
045200      EJECT                                                       PPPBLS
045300******************************************************************PPPBLS
045400*                                                                *PPPBLS
045500*                       OPEN THE EDB                             *PPPBLS
045600*        IF ERROR OPENING THE FILE, PRINT AN ERROR MESSAGE.      *PPPBLS
045700*                                                                *PPPBLS
045800******************************************************************PPPBLS
045900*                                                                 PPPBLS
046000 A400-OPEN-EDB.                                                   PPPBLS
046100*                                                                 PPPBLS
046200     IF  FATAL-ERROR                                              PPPBLS
046300         GO TO  A409-OPEN-EDB-EXIT.                               PPPBLS
046400*                                                                 PPPBLS
046500     MOVE SEQ-OPEN-IN TO IO-EDB-ACTION.                           PPPBLS
046600     MOVE SEGMENT-TYPES IN PAYROLL-PROCESS-INST-CONST-2           PPPBLS
046700                        TO IO-EDB-SEGMENT-LIST.                   PPPBLS
046800*                                                                 PPPBLS
046900     PERFORM R700-CALL-PPIOEDB THRU                               PPPBLS
047000             R709-CALL-PPIOEDB-EXIT.                              PPPBLS
047100*                                                                 PPPBLS
047200     IF  IO-EDB-ERROR-CODE  NOT =  ZEROES                         PPPBLS
047300         MOVE 13     TO XBLS-RETURN-CODE                          PPPBLS
047400         MOVE  1  TO 800-FATAL-SW                                 PPPBLS
047500     ELSE                                                         PPPBLS
047600          MOVE SEQ-READ-SET  TO  IO-EDB-ACTION.                   PPPBLS
047700*                                                                 PPPBLS
047800 A409-OPEN-EDB-EXIT.                                              PPPBLS
047900     EXIT.                                                        PPPBLS
048000     EJECT                                                        PPPBLS
048100******************************************************************PPPBLS
048200*                                                                *PPPBLS
048300*         READ AND LOAD THE DOS TABLE INTO AN INTERNAL TABLE     *PPPBLS
048400*           THE GROSS INDICATORS ARE SAVED FOR USE IN C200.      *PPPBLS
048500*                                                                *PPPBLS
048600******************************************************************PPPBLS
048700*                                                                 PPPBLS
048800 A500-LOAD-CTL-TABLE.                                             PPPBLS
048900*                                                                 PPPBLS
049000     IF  FATAL-ERROR                                              PPPBLS
049100         GO TO  A509-LOAD-CTL-TABLE-EXIT.                         PPPBLS
049200*                                                                 PPPBLS
049300     MOVE  SEQ-READ  TO  IO-CTL-ACTION.                           PPPBLS
049400     MOVE XCFK-DOS  TO  IO-CTL-NOM-KEY.                           PPPBLS
049500     PERFORM R300-CALL-PPIOCTL THRU                               PPPBLS
049600             R309-CALL-PPIOCTL-EXIT.                              PPPBLS
049700*                                                                 PPPBLS
049800     IF  NOT FATAL-ERROR                                          PPPBLS
049900         MOVE ZEROES TO DOS-TABLE-IDX                             PPPBLS
050000                        IO-CTL-NOM-KEY                            PPPBLS
050100         PERFORM A600-READ-LOAD-DOS-TABLE THRU                    PPPBLS
050200                 A609-READ-LOAD-DOS-TBL-EXIT                      PPPBLS
050300                 UNTIL  FATAL-ERROR  OR  DOS-LOADED               PPPBLS
050400     ELSE                                                         PPPBLS
050500***      MOVE  12  TO  XBLS-RETURN-CODE.                          13880222
050600         MOVE  12  TO  XBLS-RETURN-CODE                           13880222
050700         GO TO  A509-LOAD-CTL-TABLE-EXIT.                         13880222
050800*                                                                 13880222
050900     IF  NOT FATAL-ERROR                                          13880222
051000         PERFORM  A800-LOAD-TITLE-TYPE THRU                       13880222
051100                  A809-LOAD-TITLE-TYPE-EXIT.                      13880222
051200*                                                                 PPPBLS
051300 A509-LOAD-CTL-TABLE-EXIT.                                        PPPBLS
051400     EXIT.                                                        PPPBLS
051500     SKIP3                                                        PPPBLS
051600 A600-READ-LOAD-DOS-TABLE.                                        PPPBLS
051700     SKIP1                                                        PPPBLS
051800     PERFORM R300-CALL-PPIOCTL THRU                               PPPBLS
051900             R309-CALL-PPIOCTL-EXIT.                              PPPBLS
052000     SKIP1                                                        PPPBLS
052100     IF  IO-CTL-ERROR-CODE  NOT =  ZERO                           PPPBLS
052200         MOVE 12     TO XBLS-RETURN-CODE                          PPPBLS
052300         MOVE 1 TO 800-FATAL-SW                                   PPPBLS
052400     ELSE                                                         PPPBLS
052500     MOVE  CTL-SEG-TAB  TO  XDOS-DESC-SERV-TABLE                  PPPBLS
052600     IF    XDOS-CONSTANT  NOT =  XCFK-DOS-CONSTANT                PPPBLS
052700           MOVE  1  TO  800-DOS-LOADED                            PPPBLS
052800     ELSE                                                         PPPBLS
052900         ADD 1 TO DOS-TABLE-IDX                                   PPPBLS
053000                  DOS-TABLE-MAX                                   PPPBLS
053100         MOVE XDOS-EARNINGS-TYPE  TO  DOS-CODE (DOS-TABLE-IDX)    PPPBLS
053200         MOVE XDOS-GROSS-INDICATORS  TO                           PPPBLS
053300              DOS-GROSS-INDICATORS (DOS-TABLE-IDX).               PPPBLS
053400     SKIP1                                                        PPPBLS
053500 A609-READ-LOAD-DOS-TBL-EXIT.                                     PPPBLS
053600     EXIT.                                                        PPPBLS
053700     SKIP3                                                        PPPBLS
053800     EJECT                                                        13880222
053900 A800-LOAD-TITLE-TYPE.                                            13880222
054000*                                                                 13880222
054100     MOVE  PPTTLUTL-LOAD-TABLE  TO  XTLI-FUNCTION-CODE.           13880222
054200     MOVE  ZEROS                TO  XTLI-TITLE-CODE.              13880222
054300*                                                                 13880222
054400     PERFORM  R800-CALL-PPTTLUTL THRU                             13880222
054500              R809-CALL-PPTTLUTL-EXIT.                            13880222
054600*                                                                 13880222
054700     IF  XTLI-ERROR-CODE  =  '11'                                 13880222
054800         MOVE  1   TO  800-FATAL-SW                               13880222
054900         MOVE  16  TO  XBLS-RETURN-CODE.                          13880222
055000*                                                                 13880222
055100 A809-LOAD-TITLE-TYPE-EXIT.                                       13880222
055200     EXIT.                                                        13880222
055300     EJECT                                                        PPPBLS
055400******************************************************************PPPBLS
055500*                                                                *PPPBLS
055600*          EXTRACT PAY SCHEDULES AND PAY PERIOD END DATES        *PPPBLS
055700*                      FOR REPORT HEADINGS.                      *PPPBLS
055800*                                                                *PPPBLS
055900******************************************************************PPPBLS
056000*                                                                 PPPBLS
056100 B100-CHECK-PCRS.                                                 PPPBLS
056200*                                                                 PPPBLS
056300     MOVE XPAR-PCR-REDEFINITION TO XPCR-RECORD.                   PPPBLS
056400     IF XPCR-CYCLE-TYPE (1) NOT = SPACES                          PPPBLS
056500         ADD 1 TO CYCLE-IDX                                       PPPBLS
056600         MOVE XPCR-CYCLE-TYPE (1) TO CYCLE-SCHED (CYCLE-IDX)      PPPBLS
056700         MOVE XPAR-PAY-END-DATE TO CYCLE-END-DATE (CYCLE-IDX).    PPPBLS
056800     IF XPCR-CYCLE-TYPE (2) NOT = SPACES                          PPPBLS
056900         ADD 1 TO CYCLE-IDX                                       PPPBLS
057000         MOVE XPCR-CYCLE-TYPE (2) TO CYCLE-SCHED (CYCLE-IDX)      PPPBLS
057100         MOVE XPAR-PAY-END-DATE TO CYCLE-END-DATE (CYCLE-IDX).    PPPBLS
057200     IF XPCR-CYCLE-TYPE (3) NOT = SPACES                          PPPBLS
057300         ADD 1 TO CYCLE-IDX                                       PPPBLS
057400         MOVE XPCR-CYCLE-TYPE (3) TO CYCLE-SCHED (CYCLE-IDX)      PPPBLS
057500         MOVE XPAR-PAY-END-DATE TO CYCLE-END-DATE (CYCLE-IDX).    PPPBLS
057600     IF XPCR-CYCLE-TYPE (4) NOT = SPACES                          PPPBLS
057700         ADD 1 TO CYCLE-IDX                                       PPPBLS
057800         MOVE XPCR-CYCLE-TYPE (4) TO CYCLE-SCHED (CYCLE-IDX)      PPPBLS
057900         MOVE XPAR-PAY-END-DATE TO CYCLE-END-DATE (CYCLE-IDX).    PPPBLS
058000     MOVE XPAR-PAY-END-DATE TO CYCLE-END-DATE (CYCLE-IDX).        PPPBLS
058100*                                                                 PPPBLS
058200 B109-CHECK-PCRS-EXIT.                                            PPPBLS
058300     EXIT.                                                        PPPBLS
058400     EJECT                                                        PPPBLS
058500******************************************************************PPPBLS
058600*                                                                *PPPBLS
058700*             INITIALIZE AN EMPLOYEE, THEN PROCESS ALL           *PPPBLS
058800*       OF THE EMPLOYEES PAR RECORDS-EARNINGS DISTRIBUTIONS.     *PPPBLS
058900*                                                                *PPPBLS
059000******************************************************************PPPBLS
059100*                                                                 PPPBLS
059200 B200-PROCESS-EMPLOYEES.                                          PPPBLS
059300*                                                                 PPPBLS
059400*****  EACH EMPLOYEE MAY HAVE SEVERAL PAYROLL AUDIT RECORDS.      PPPBLS
059500*                                                                 PPPBLS
059600*                                                                 PPPBLS
059700     IF  XPAR-ID-NO  NOT =  LAST-EMPLOYEE-ID                      PPPBLS
059800         PERFORM B300-INIT-EMP THRU                               PPPBLS
059900                 B309-INIT-EMP-EXIT.                              PPPBLS
060000*                                                                 PPPBLS
060100     IF XBLS-RETURN-CODE = 14                                     14130259
060200        NEXT SENTENCE                                             14130259
060300     ELSE                                                         14130259
060400     PERFORM B400-PROCESS-EMP THRU                                PPPBLS
060500             B409-PROCESS-EMP-EXIT.                               PPPBLS
060600*                                                                 PPPBLS
060700*                                                                 PPPBLS
060800 B209-PROCESS-EMP-EXIT.                                           PPPBLS
060900     EXIT.                                                        PPPBLS
061000     EJECT                                                        PPPBLS
061100******************************************************************PPPBLS
061200*                                                                *PPPBLS
061300*                PROCESS AN EMPLOYEE'S PAR RECORD AND EDB        *PPPBLS
061400*            GET SEX CODE FROM EDB IF NO MATCH WRITE MESSAGE.    *PPPBLS
061500*                                                                *PPPBLS
061600******************************************************************PPPBLS
061700*                                                                 PPPBLS
061800 B300-INIT-EMP.                                                   PPPBLS
061900*                                                                 PPPBLS
062000*****  GET EDB FOR SEX CODE      -- ASSUME MALE IF NOT FEMALE.    PPPBLS
062100*                                                                 PPPBLS
062200     MOVE  'F'         TO  CHECK-EMP-COUNTED.                     PPPBLS
062300     MOVE  XPAR-ID-NO  TO  LAST-EMPLOYEE-ID.                      PPPBLS
062400*                                                                 PPPBLS
062500     PERFORM B350-GET-EDB-RECORD THRU                             PPPBLS
062600             B359-GET-EDB-RECORD-EXIT.                            PPPBLS
062700                                                                  PPPBLS
062800     IF EMP-IN-MASTER                                             PPPBLS
062900*********MOVE EDB-SEG-TAB (1)   TO XDBS-PERSONAL-DATA1            29250334
063000*********IF XDBS-0108-SEX-FEMALE                                  29250334
063100         MOVE XEDB-5501-YTD-TTL-GROSS  TO XBLS-YTD-TOTAL-GRS      29250334
063200         IF XEDB-0108-SEX-FEMALE                                  29250334
063300             MOVE 2 TO SEX-IDX                                    PPPBLS
063400         ELSE                                                     PPPBLS
063500             MOVE 1 TO SEX-IDX                                    PPPBLS
063600     ELSE                                                         PPPBLS
063700         MOVE ZERO                     TO XBLS-YTD-TOTAL-GRS      29250334
063800         MOVE 14     TO XBLS-RETURN-CODE                          PPPBLS
063900         MOVE XPAR-ID-NO   TO  XBLS-ERROR-EMP-ID.                 PPPBLS
064000*                                                                 PPPBLS
064100 B309-INIT-EMP-EXIT.                                              PPPBLS
064200     EXIT.                                                        PPPBLS
064300     EJECT                                                        PPPBLS
064400******************************************************************PPPBLS
064500*                                                                *PPPBLS
064600*                READ THE EDB USING THE PAR                      *PPPBLS
064700*            ID NUMBER.  IF NO MATCH SET A FLAG.                 *PPPBLS
064800*                                                                *PPPBLS
064900******************************************************************PPPBLS
065000*                                                                 PPPBLS
065100 B350-GET-EDB-RECORD.                                             PPPBLS
065200*                                                                 PPPBLS
065300*                                                                 PPPBLS
065400     MOVE  XPAR-ID-NO  TO  IO-EDB-NOM-SS-NUM.                     PPPBLS
065500     MOVE  'F'  TO  CHECK-EMP-IN-MASTER.                          PPPBLS
065600     PERFORM R700-CALL-PPIOEDB THRU                               PPPBLS
065700             R709-CALL-PPIOEDB-EXIT.                              PPPBLS
065800*                                                                 PPPBLS
065900 B359-GET-EDB-RECORD-EXIT.                                        PPPBLS
066000     EXIT.                                                        PPPBLS
066100     EJECT                                                        PPPBLS
066200******************************************************************PPPBLS
066300*                                                                *PPPBLS
066400*                PROCESS THE PAR RECORD INPUT                    *PPPBLS
066500*       DON'T PROCESS THE EXPENSE TRANSFER PAR RECORDS.          *PPPBLS
066600*                                                                *PPPBLS
066700******************************************************************PPPBLS
066800*                                                                 PPPBLS
066900 B400-PROCESS-EMP.                                                PPPBLS
067000*                                                                 PPPBLS
067100     IF XPAR-EXPENSE-TRANSFER                                     PPPBLS
067200           NEXT SENTENCE                                          PPPBLS
067300     ELSE                                                         PPPBLS
067400         PERFORM B500-PROCESS-DISTR THRU                          PPPBLS
067500                 B509-PROCESS-DISTR-EXIT                          PPPBLS
067600           VARYING DISTR-IDX FROM 1 BY 1                          PPPBLS
067700           UNTIL DISTR-IDX > XPAR-NO-ACCTS.                       PPPBLS
067800*                                                                 PPPBLS
067900 B409-PROCESS-EMP-EXIT.                                           PPPBLS
068000     EXIT.                                                        PPPBLS
068100     EJECT                                                        PPPBLS
068200******************************************************************PPPBLS
068300*                                                                *PPPBLS
068400*              TALLY THE COUNTS AND SUM THE GROSSES              *PPPBLS
068500*         FOR HOSPITAL/CAMPUS, ACAD/NON-ACAD, MALE/FEMALE.       *PPPBLS
068600*                                                                *PPPBLS
068700******************************************************************PPPBLS
068800*                                                                 PPPBLS
068900 B500-PROCESS-DISTR.                                              PPPBLS
069000                                                                  PPPBLS
069100     MOVE 1 TO DOS-TABLE-IDX.                                     PPPBLS
069200     MOVE 'F' TO CHECK-DOS-FOUND.                                 PPPBLS
069300     PERFORM D100-GET-DOS THRU                                    PPPBLS
069400             D109-GET-DOS-EXIT                                    PPPBLS
069500       UNTIL DOS-TABLE-IDX > DOS-TABLE-MAX                        PPPBLS
069600       OR DOS-FOUND.                                              PPPBLS
069700     IF NOT DOS-FOUND                                             PPPBLS
069800         MOVE  15    TO XBLS-RETURN-CODE                          PPPBLS
069900         MOVE XPAR-ID-NO  TO  XBLS-ERROR-EMP-ID                   PPPBLS
070000         MOVE XPAR-DOS (DISTR-IDX)  TO  XBLS-ERROR-DOS-CODE.      PPPBLS
070100*                                                                 PPPBLS
070200     MOVE XPAR-ACCT (DISTR-IDX) TO WS-ACCT.                       PPPBLS
070300     IF ACCT-HOSPITAL                                             PPPBLS
070400         MOVE 2 TO ACCT-IDX                                       PPPBLS
070500     ELSE                                                         PPPBLS
070600         MOVE 1 TO ACCT-IDX.                                      PPPBLS
070700                                                                  PPPBLS
070800     IF DOS-FOUND                                                 PPPBLS
070900       AND DOS-GROSS-IND (DOS-TABLE-IDX, 1) NOT = ZERO            PPPBLS
071000         ADD XPAR-EARN-AMT (DISTR-IDX)                            PPPBLS
071100           TO TOT-GROSS (ACCT-IDX, SEX-IDX),                      PPPBLS
071200              TOT-GROSS (3, SEX-IDX)                              PPPBLS
071300         IF NOT EMP-COUNTED                                       PPPBLS
071400           AND XPAR-TOTAL-GROSS NOT = ZERO                        PPPBLS
071500             MOVE 'T' TO CHECK-EMP-COUNTED                        PPPBLS
071600***          MOVE XPAR-TTL-CD (DISTR-IDX) TO IDC-TTLE-CODE        13880222
071700***          IF ACADEMIC-TITLE-CODE                               13880222
071800*                                                                 13880222
071900             PERFORM  E100-FIND-TITLE-TYPE THRU                   13880222
072000                      E109-FIND-TITLE-TYPE-EXIT                   13880222
072100*                                                                 13880222
072200             IF  IDC-TITLE-ACADEMIC                               13880222
072300                 ADD 1 TO TOT-ACAD (ACCT-IDX, SEX-IDX),           PPPBLS
072400                          TOT-ACAD (3, SEX-IDX)                   PPPBLS
072500             ELSE                                                 PPPBLS
072600                 ADD 1 TO TOT-NON-ACAD (ACCT-IDX, SEX-IDX),       PPPBLS
072700                          TOT-NON-ACAD (3, SEX-IDX).              PPPBLS
072800                                                                  PPPBLS
072900*                                                                 PPPBLS
073000 B509-PROCESS-DISTR-EXIT.                                         PPPBLS
073100     EXIT.                                                        PPPBLS
073200     EJECT                                                        PPPBLS
073300******************************************************************PPPBLS
073400*                                                                *PPPBLS
073500*           PRINT THE HEADING LINES FOR THE STATISTICAL          *PPPBLS
073600*         REPORT INCLUDING THE PAR CYCLES FROM THE PCR RECORDS.  *PPPBLS
073700*                                                                *PPPBLS
073800******************************************************************PPPBLS
073900*                                                                 PPPBLS
074000 C100-PRINT-PERSNL-STATS.                                         PPPBLS
074100                                                                  PPPBLS
074200     MOVE 'PPPBLS1'          TO  STND-RPT-ID.                     PPPBLS
074300     MOVE 'PPPBLS  /093085'  TO  STND-PROG-ID.                    PPPBLS
074400     ADD 1 TO PAGE-NUMBER.                                        PPPBLS
074500     MOVE PAGE-NUMBER    TO STND-PAGE-NO.                         PPPBLS
074600     MOVE SYSTEM-DATE-MM TO STND-DATE2-MONTH.                     PPPBLS
074700     MOVE SYSTEM-DATE-DD TO STND-DATE2-DAY.                       PPPBLS
074800     MOVE SYSTEM-DATE-YY TO STND-DATE2-YEAR.                      PPPBLS
074900     MOVE STND-DATE2     TO STND-RPT-DATE.                        PPPBLS
075000     MOVE SPACES         TO STND-RPT-HD3.                         PPPBLS
075100     MOVE '      BLS - PERSONNEL STATISTICS   ' TO STND-RPT-TTL.  PPPBLS
075200     WRITE REPORT01-RECORD FROM STND-RPT-HD1  AFTER PAGE.         PPPBLS
075300     WRITE REPORT01-RECORD FROM STND-RPT-HD2  AFTER 1.            PPPBLS
075400     WRITE REPORT01-RECORD FROM STND-RPT-HD3  AFTER 1.            PPPBLS
075500                                                                  PPPBLS
075600     MOVE 0 TO LINE-IDX.                                          PPPBLS
075700     MOVE SPACES TO DTL02-DATA, DTL03-DATA.                       PPPBLS
075800     PERFORM C300-PRINT-SCHED THRU                                PPPBLS
075900             C309-PRINT-SCHED-EXIT                                PPPBLS
076000       VARYING PRINT-IDX FROM 1 BY 1                              PPPBLS
076100       UNTIL PRINT-IDX > CYCLE-IDX.                               PPPBLS
076200                                                                  PPPBLS
076300     MOVE ' MAIN CAMPUS' TO HDR04-DESC.                           PPPBLS
076400     WRITE REPORT01-RECORD FROM HEADER-REC04  AFTER 4.            PPPBLS
076500     MOVE 1 TO TABLE-IDX.                                         PPPBLS
076600     PERFORM C400-PRINT-STATS THRU                                PPPBLS
076700             C409-PRINT-STATS-EXIT.                               PPPBLS
076800                                                                  PPPBLS
076900     MOVE '  HOSPITAL  ' TO HDR04-DESC.                           PPPBLS
077000     WRITE REPORT01-RECORD FROM HEADER-REC04  AFTER 4.            PPPBLS
077100     MOVE 2 TO TABLE-IDX.                                         PPPBLS
077200     PERFORM C400-PRINT-STATS THRU                                PPPBLS
077300             C409-PRINT-STATS-EXIT.                               PPPBLS
077400                                                                  PPPBLS
077500     MOVE 'TOTAL CAMPUS' TO HDR04-DESC.                           PPPBLS
077600     WRITE REPORT01-RECORD FROM HEADER-REC04  AFTER 4.            PPPBLS
077700     MOVE 3 TO TABLE-IDX.                                         PPPBLS
077800     PERFORM C400-PRINT-STATS THRU                                PPPBLS
077900             C409-PRINT-STATS-EXIT.                               PPPBLS
078000*                                                                 PPPBLS
078100 C109-PRINT-PERSNL-STATS-EXIT.                                    PPPBLS
078200     EXIT.                                                        PPPBLS
078300     EJECT                                                        PPPBLS
078400******************************************************************PPPBLS
078500*                                                                *PPPBLS
078600*              PRINT THE CYCLE SCHEDULES OF THE PARS             *PPPBLS
078700*                                                                *PPPBLS
078800*                                                                *PPPBLS
078900******************************************************************PPPBLS
079000*                                                                 PPPBLS
079100 C300-PRINT-SCHED.                                                PPPBLS
079200                                                                  PPPBLS
079300     ADD 1 TO LINE-IDX.                                           PPPBLS
079400     MOVE CYCLE-SCHED (PRINT-IDX) TO DTL02-CYCLE-SCHED (LINE-IDX).PPPBLS
079500     MOVE CYCLE-END-YR (PRINT-IDX)                                PPPBLS
079600       TO DTL03-CYCLE-END-YR (LINE-IDX).                          PPPBLS
079700     MOVE CYCLE-END-MO (PRINT-IDX)                                PPPBLS
079800       TO DTL03-CYCLE-END-MO (LINE-IDX).                          PPPBLS
079900     MOVE CYCLE-END-DA (PRINT-IDX)                                PPPBLS
080000       TO DTL03-CYCLE-END-DA (LINE-IDX).                          PPPBLS
080100     MOVE '/' TO DTL03-SLASH-1 (LINE-IDX),                        PPPBLS
080200                 DTL03-SLASH-2 (LINE-IDX).                        PPPBLS
080300                                                                  PPPBLS
080400     IF LINE-IDX = CYCLE-IDX OR LINE-IDX = 10                     PPPBLS
080500         WRITE REPORT01-RECORD FROM DETAIL-REC02  AFTER 2         PPPBLS
080600         WRITE REPORT01-RECORD FROM DETAIL-REC03  AFTER 1         PPPBLS
080700         MOVE SPACES TO DTL02-DATA, DTL03-DATA                    PPPBLS
080800         MOVE 0 TO LINE-IDX.                                      PPPBLS
080900*                                                                 PPPBLS
081000 C309-PRINT-SCHED-EXIT.                                           PPPBLS
081100     EXIT.                                                        PPPBLS
081200     EJECT                                                        PPPBLS
081300******************************************************************PPPBLS
081400*                                                                *PPPBLS
081500*              PRINT THE REPORT TOTAL STATISTICS                 *PPPBLS
081600*                                                                *PPPBLS
081700*                                                                *PPPBLS
081800******************************************************************PPPBLS
081900*                                                                 PPPBLS
082000 C400-PRINT-STATS.                                                PPPBLS
082100                                                                  PPPBLS
082200     WRITE REPORT01-RECORD FROM HEADER-REC05  AFTER 3.            PPPBLS
082300                                                                  PPPBLS
082400     MOVE 'MALE:' TO DTL01-DESC.                                  PPPBLS
082500     MOVE TOT-ACAD (TABLE-IDX, 1) TO DTL01-TOT-ACAD.              PPPBLS
082600     MOVE TOT-NON-ACAD (TABLE-IDX, 1) TO DTL01-TOT-NON-ACAD.      PPPBLS
082700     COMPUTE DTL01-TOTAL =                                        PPPBLS
082800       TOT-ACAD (TABLE-IDX, 1) + TOT-NON-ACAD (TABLE-IDX, 1).     PPPBLS
082900     MOVE TOT-GROSS (TABLE-IDX, 1) TO DTL01-TOT-GROSS.            PPPBLS
083000     WRITE REPORT01-RECORD FROM DETAIL-REC01  AFTER 2.            PPPBLS
083100                                                                  PPPBLS
083200     MOVE 'FEMALE:' TO DTL01-DESC.                                PPPBLS
083300     MOVE TOT-ACAD (TABLE-IDX, 2) TO DTL01-TOT-ACAD.              PPPBLS
083400     MOVE TOT-NON-ACAD (TABLE-IDX, 2) TO DTL01-TOT-NON-ACAD.      PPPBLS
083500     COMPUTE DTL01-TOTAL =                                        PPPBLS
083600       TOT-ACAD (TABLE-IDX, 2) + TOT-NON-ACAD (TABLE-IDX, 2).     PPPBLS
083700     MOVE TOT-GROSS (TABLE-IDX, 2) TO DTL01-TOT-GROSS.            PPPBLS
083800     WRITE REPORT01-RECORD FROM DETAIL-REC01  AFTER 2.            PPPBLS
083900                                                                  PPPBLS
084000     MOVE 'TOTAL:' TO DTL01-DESC.                                 PPPBLS
084100     COMPUTE DTL01-TOT-ACAD =                                     PPPBLS
084200       TOT-ACAD (TABLE-IDX, 1) + TOT-ACAD (TABLE-IDX, 2).         PPPBLS
084300     COMPUTE DTL01-TOT-NON-ACAD =                                 PPPBLS
084400       TOT-NON-ACAD (TABLE-IDX, 1) + TOT-NON-ACAD (TABLE-IDX, 2). PPPBLS
084500     COMPUTE DTL01-TOTAL =                                        PPPBLS
084600       TOT-ACAD (TABLE-IDX, 1) + TOT-NON-ACAD (TABLE-IDX, 1) +    PPPBLS
084700       TOT-ACAD (TABLE-IDX, 2) + TOT-NON-ACAD (TABLE-IDX, 2).     PPPBLS
084800     COMPUTE DTL01-TOT-GROSS =                                    PPPBLS
084900       TOT-GROSS (TABLE-IDX, 1) + TOT-GROSS (TABLE-IDX, 2).       PPPBLS
085000     WRITE REPORT01-RECORD FROM DETAIL-REC01  AFTER 3.            PPPBLS
085100*                                                                 PPPBLS
085200 C409-PRINT-STATS-EXIT.                                           PPPBLS
085300     EXIT.                                                        PPPBLS
085400     EJECT                                                        PPPBLS
085500******************************************************************PPPBLS
085600*                                                                *PPPBLS
085700*                   SEARCH DOS TABLE FOR VALID CODE              *PPPBLS
085800*                                                                *PPPBLS
085900*                                                                *PPPBLS
086000******************************************************************PPPBLS
086100*                                                                 PPPBLS
086200 D100-GET-DOS.                                                    PPPBLS
086300*****  SEARCH IS COMPLETE IF DOS IS IN DOS TABLE.                 PPPBLS
086400                                                                  PPPBLS
086500     IF XPAR-DOS (DISTR-IDX) = DOS-CODE (DOS-TABLE-IDX)           PPPBLS
086600         MOVE 'T' TO CHECK-DOS-FOUND                              PPPBLS
086700     ELSE                                                         PPPBLS
086800         ADD 1 TO DOS-TABLE-IDX.                                  PPPBLS
086900*                                                                 PPPBLS
087000 D109-GET-DOS-EXIT.                                               PPPBLS
087100     EXIT.                                                        PPPBLS
087200     EJECT                                                        PPPBLS
087300******************************************************************13880222
087400*                                                                *13880222
087500*               CALL PPTTLUTL TO GET TITLE TYPE CODE             *13880222
087600*                                                                *13880222
087700*                                                                *13880222
087800******************************************************************13880222
087900*                                                                 13880222
088000 E100-FIND-TITLE-TYPE.                                            13880222
088100*                                                                 13880222
088200     MOVE  XPAR-TTL-CD (DISTR-IDX)  TO  XTLI-TTLE-CODE.           13880222
088300     MOVE  PPTTLUTL-FIND-TTL-TYPE   TO  XTLI-FUNCTION-CODE.       13880222
088400*                                                                 13880222
088500     PERFORM  R800-CALL-PPTTLUTL THRU                             13880222
088600              R809-CALL-PPTTLUTL-EXIT.                            13880222
088700*                                                                 13880222
088800     IF  XTLI-ERROR-CODE  =  '01'                                 13880222
088900         MOVE  XPAR-ID-NO                                         13880222
089000                                         TO XBLS-ERROR-EMP-ID     13880222
089100         MOVE  XPAR-TITLE-CODE (DISTR-IDX)                        13880222
089200                                         TO XBLS-ERROR-TITLE-CODE 13880222
089300         MOVE  31  TO  XBLS-RETURN-CODE.                          13880222
089400*                                                                 13880222
089500     MOVE  XTLI-TITLE-TYPE   TO  IDC-TITLE-TYPE.                  13880222
089600*                                                                 13880222
089700 E109-FIND-TITLE-TYPE-EXIT.                                       13880222
089800     EXIT.                                                        13880222
089900     EJECT                                                        13880222
090000******************************************************************PPPBLS
090100*                                                                *PPPBLS
090200*                    READ/WRITE ROUTINES                         *PPPBLS
090300*                                                                *PPPBLS
090400*                                                                *PPPBLS
090500******************************************************************PPPBLS
090600*                                                                 PPPBLS
090700*                                                                 PPPBLS
090800 R300-CALL-PPIOCTL.                                               PPPBLS
090900*                                                                 PPPBLS
091000     SKIP1                                                        PPPBLS
091100     CALL  'PPIOCTL'  USING  CTL-INTERFACE  CTL-SEGMENT-TABLE.    PPPBLS
091200                                                                  PPPBLS
091300     IF  IO-CTL-ERROR-CODE  >  ZERO                               PPPBLS
091400         MOVE 12     TO XBLS-RETURN-CODE                          PPPBLS
091500         MOVE 1 TO 800-FATAL-SW.                                  PPPBLS
091600*                                                                 PPPBLS
091700 R309-CALL-PPIOCTL-EXIT.                                          PPPBLS
091800     EXIT.                                                        PPPBLS
091900     SKIP3                                                        PPPBLS
092000 R700-CALL-PPIOEDB.                                               PPPBLS
092100*                                                                 PPPBLS
092200*****CALL  'PPIOEDB'  USING  EDB-INTERFACE  EDB-SEGMENT-TABLE.    29250334
092300     CALL  'PPIOEDB'  USING  EDB-INTERFACE  XEDB-SEGMENT-AREA.    29250334
092400     IF  IO-EDB-ERROR-CODE  NOT = '00'                            PPPBLS
092500         MOVE  'F'  TO  CHECK-EMP-IN-MASTER                       PPPBLS
092600     ELSE                                                         PPPBLS
092700         MOVE  'T'  TO  CHECK-EMP-IN-MASTER.                      PPPBLS
092800*                                                                 PPPBLS
092900 R709-CALL-PPIOEDB-EXIT.                                          PPPBLS
093000     EXIT.                                                        PPPBLS
093100     SKIP3                                                        13880222
093200 R800-CALL-PPTTLUTL.                                              13880222
093300*                                                                 13880222
093400     CALL  'PPTTLUTL'  USING  XTLI-INTERFACE-AREA.                13880222
093500*                                                                 13880222
093600 R809-CALL-PPTTLUTL-EXIT.                                         13880222
093700     EXIT.                                                        13880222
093800***********************  END OF PPPBLS  **************************PPPBLS
