000100**************************************************************/   30930413
000200*  PROGRAM: PPUTILTY                                         */   30930413
000300*  RELEASE: ____0413____  SERVICE REQUEST(S): ____3093____   */   30930413
000400*  NAME:____JIM WILLIAMS__CREATION DATE:      __05/23/89__   */   30930413
000500*  DESCRIPTION:                                              */   30930413
000600*  - CHANGED FOR CONVERSION FROM OS/VS COBOL TO VS COBOL II. */   30930413
000700**************************************************************/   30930413
000800**************************************************************/   30890361
000900*  PROGRAM:  PPUTILTY                                        */   30890361
001000*  REL#:  0361   REF: NONE  SERVICE REQUESTS:   ___3089_____ */   30890361
001100*  NAME _____WEJ_______   MODIFICATION DATE ____06/31/88_____*/   30890361
001200*  DESCRIPTION                                               */   30890361
001300*   - CONVERT 'ENTRY' POINTS TO PARAGRAPHS TO ALLOW          */   30890361
001400*     DYNAMIC LINKING.                                       */   30890361
001500*                                                            */   30890361
001600**************************************************************/   30890361
001700**************************************************************/   30620330
001800*  PROGRAM:  PPUTILTY                                        */   30620330
001900*  REL#:  0330   REF: NONE  SERVICE REQUESTS:   ___3062_____ */   30620330
002000*  NAME _____JLT_______   MODIFICATION DATE ____10/21/87_____*/   30620330
002100*  DESCRIPTION                                               */   30620330
002200*   - MODIFY 'ERRWRITE' TO RECEIVE THE ROUTE MESSAGE SORT    */   30620330
002300*     CODE IN LINKAGE AREA AND TO APPEND THIS CODE TO THE    */   30620330
002400*     OUTPUT RECORD AREA.                                    */   30620330
002500**************************************************************/   30620330
002600**************************************************************/   13190159
002700*  PROGRAM:  PPUTILTY                                        */   13190159
002800*  RELEASE # ___0159___   SERVICE REQUEST NO(S)____1319______*/   13190159
002900*  NAME ___JAL_________   MODIFICATION DATE ____09/20/85_____*/   13190159
003000*  DESCRIPTION                                               */   13190159
003100*  FOR PHASE 2 OF THE PAYROLL FILE EXPANSION PROJECT,        */   13190159
003200*  USER-CODED TRANSACTION INPUT RECORD LENGTHS WILL BE       */   13190159
003300*  EXPANDED BY 22 BYTES, AND RECORDS AND WORK AREAS          */   13190159
003400*  RELATING TO THE EDB FILE WILL BE EXPANDED AS WELL.        */   13190159
003500*  THE EDB FILE ITSELF WILL BE EXPANDED AS FOLLOWS:          */   13190159
003600*   --  0100, 0200, AND 0300 SEGMENTS WILL BE EXPANDED       */   13190159
003700*       BY 46 BYTES FOR OFFICE OF THE PRESIDENT USE AND      */   13190159
003800*       BY 20 BYTES FOR INDIVIDUAL CAMPUS USE.               */   13190159
003900*   --  0500 SEGMENTS WILL BE EXPANDED                       */   13190159
004000*       BY 66 BYTES FOR INDIVIDUAL CAMPUS USE.               */   13190159
004100*   --  APPOINTMENT SEGMENTS WILL BE EXPANDED                */   13190159
004200*       BY 17 BYTES FOR OFFICE OF THE PRESIDENT USE AND      */   13190159
004300*       BY 5 BYTES FOR INDIVIDUAL CAMPUS USE.                */   13190159
004400*   --  DISTRIBUTION SEGMENTS WILL BE EXPANDED               */   13190159
004500*       BY 2 BYTES FOR OFFICE OF THE PRESIDENT USE AND       */   13190159
004600*       BY 20 BYTES FOR INDIVIDUAL CAMPUS USE.               */   13190159
004700*   --  5100, 5500, AND 6000 SEGMENTS WILL BE EXPANDED       */   13190159
004800*       BY 66 BYTES FOR OFFICE OF THE PRESIDENT USE.         */   13190159
004900**************************************************************/   13190159
005000     SKIP2                                                        13190159
005100 IDENTIFICATION DIVISION.                                         08/06/79
005200 PROGRAM-ID. PPUTILTY                                             PPUTILTY
005300 AUTHOR. INTEGRAL SYSTEMS, INC.                                      LV002
005400 INSTALLATION. INTEGRAL SYSTEMS, INC. STANDARD SYSTEM             PPUTILTY
005500     SKIP1                                                        PPUTILTY
005600******************************************************************PPUTILTY
005700*    PBPUTIL IS A COLLECTION OF MODULES THAT ARE USED BY PP310800,PPUTILTY
005800*    PP311200, AND USER SUBPROGRAMS. IT CONSISTS OF FOUR          PPUTILTY
005900*    ENTRY POINTS:                                               *PPUTILTY
006000*                   ERRWRITE                                     *PPUTILTY
006100*                   DLINSERT                                     *PPUTILTY
006200*                   DLSEARCH                                     *PPUTILTY
006300*                   POSTDATA.                                    *PPUTILTY
006400*                                                                *PPUTILTY
006500*    THESE SEPARATE FUNCTIONS HAVE NOTHING IN COMMON (EXPEPT THAT*PPUTILTY
006600*    DLINSERT AND DLSEARCH ARE COMPLEMENTARY) BUT ARE COLLECTED  *PPUTILTY
006700*    TOGETHER IN ONE SUBPROGRAM FOR CONVIENCE, FOR ALL INTENTS   *PPUTILTY
006800*    AND PURPOSES, THEY CAN BE TREATED AS FOUR SEPARATE PROGRAMS.*PPUTILTY
006900******************************************************************PPUTILTY
007000     EJECT                                                        PPUTILTY
007100 DATE-WRITTEN.  DEC. 21, 1978. VERSION 4.0.                       PPUTILTY
007200 DATE-COMPILED. AUD 28, 1973.                                     PPUTILTY
007300     SKIP1                                                        PPUTILTY
007400 ENVIRONMENT DIVISION.                                            PPUTILTY
007500 CONFIGURATION SECTION.                                           PPUTILTY
007600 SOURCE-COMPUTER. COPY CPOTXISI.                                  PPUTILTY
007700 OBJECT-COMPUTER. COPY CPOTXOBJ.                                  PPUTILTY
007800     SKIP1                                                        PPUTILTY
007900 INPUT-OUTPUT SECTION.                                            PPUTILTY
008000 FILE-CONTROL.                                                    PPUTILTY
008100     SKIP1                                                        PPUTILTY
008200     SELECT ERROR-FILE                                            PPUTILTY
008300         COPY CPSLXERR.                                           PPUTILTY
008400     SKIP1                                                        PPUTILTY
008500******************************************************************PPUTILTY
008600*    ERROR-FILE IS USED IN "ERRWRITE". ALL I/O TO THE ERROR      *PPUTILTY
008700*    FILE IS DONE THRU THIS SUBPROGRAM.                          *PPUTILTY
008800******************************************************************PPUTILTY
008900     EJECT                                                        PPUTILTY
009000 DATA DIVISION.                                                   PPUTILTY
009100 FILE SECTION.                                                    PPUTILTY
009200 FD  ERROR-FILE                                                   PPUTILTY
009300         COPY CPFDXERR.                                           PPUTILTY
009400     SKIP1                                                        PPUTILTY
009500*01**ERROR-RECORD COPY 'CPWSXERR'.                                30620330
009600*                                                                 30620330
009700 01  ERROR-RECORD.                                                30620330
009800     05  ERROR-TRAN-REC            PIC X(86).                     30620330
009900     05  ERROR-ROUTE-SORT-CODE     PIC X.                         30620330
010000*                                                                 30620330
010100     EJECT                                                        PPUTILTY
010200 WORKING-STORAGE SECTION.                                         PPUTILTY
010300 77  FIRST-TIME-THRU               PICTURE X VALUE ZERO.          PPUTILTY
010400 77  SEG-INDEX                     PICTURE S999 COMP SYNC.        PPUTILTY
010500 77  HOLD-POINT                    PICTURE S999 COMP SYNC.        PPUTILTY
010600 77  DATA-TABLE-OCCURS           PIC S9(4) COMP SYNC VALUE +500.     CL**2
010700 77  DISP-COUNTER                 PIC 9(6) VALUE ZERO.            PPUTILTY
010800 77  TOTAL-ERRORS-WRITTEN         PIC S9(6) COMP SYNC VALUE ZERO. PPUTILTY
010900     SKIP2                                                        PPUTILTY
011000 01  FIELD-MOVES.                                                 PPUTILTY
011100     03 START-MOVE                 PICTURE S999 COMP SYNC.        PPUTILTY
011200     03 END-MOVE                   PICTURE S999 COMP SYNC.        PPUTILTY
011300     03 DATA-POSITION              PICTURE S999 COMP SYNC.        PPUTILTY
011400     03 TO-BYTE                    PICTURE S999 COMP SYNC.        PPUTILTY
011500     03 LAST-DATA-BYTE             PICTURE S999 COMP SYNC.        PPUTILTY
011600     03 SEGMENT-SIZE               PICTURE S999 COMP SYNC         PPUTILTY
011700*                                  VALUE +224.                    13190159
011800                                   VALUE +290.                    13190159
011900     03 SEGMENT-FULL               PICTURE X.                     PPUTILTY
012000     03 SINE                       PICTURE S9 COMP-3.             PPUTILTY
012100     03 CODE-BYTE                  PICTURE S999 COMP SYNC.        PPUTILTY
012200     03 START-POSITION             PICTURE S999 COMP SYNC.        PPUTILTY
012300     03 ENTRY-1                    PICTURE 99.                    PPUTILTY
012400     03 FILLER                     REDEFINES ENTRY-1.             PPUTILTY
012500        05 ENTRIES-1               PICTURE X.                     PPUTILTY
012600        05 ENTRIES-2               PICTURE X.                     PPUTILTY
012700     03 ENTRY-2                    PICTURE 99.                    PPUTILTY
012800     03 FILLER                     REDEFINES ENTRY-2.             PPUTILTY
012900        05 ENTRIES-3               PICTURE X.                     PPUTILTY
013000        05 ENTRIES-4               PICTURE X.                     PPUTILTY
013100     SKIP1                                                        PPUTILTY
013200******************************************************************PPUTILTY
013300*    ALL OF THE DATA ELEMENTS IN FIELD-MOVES ARE USED IN         *PPUTILTY
013400*    POSTDATA FOR UPDATING FLOATING SEGMENT FIELDS.              *PPUTILTY
013500******************************************************************PPUTILTY
013600     EJECT                                                        PPUTILTY
013700 LINKAGE SECTION.                                                 PPUTILTY
013800 77  DL-STATUS                   PICTURE 9.                       PPUTILTY
013900     SKIP1                                                        PPUTILTY
014000******************************************************************PPUTILTY
014100*    DL-STATUS IS USED IN "DLINSERT"AND "DLSEARCH".              *PPUTILTY
014200******************************************************************PPUTILTY
014300     SKIP1                                                        PPUTILTY
014400*01  TRAN-RECORD COPY 'CPOTXTRN'.                                 30930413
014500 01  TRAN-RECORD.    COPY 'CPOTXTRN'.                             30930413
014600     SKIP1                                                        PPUTILTY
014700******************************************************************PPUTILTY
014800*    TRAN-RECORD IS USED IN "ERRWRITE" AND "POSTDATA". IN        *PPUTILTY
014900*    "ERRWRITE" IS IS THE ERROR RECORD WHICH IS TO BE            *PPUTILTY
015000*    WRITTEN TO THE ERROR FILE. IN "POSTDATA" IT IS THE          *PPUTILTY
015100*    TRANSACTION RECORD WHICH IS TO BE POSTED TO THE             *PPUTILTY
015200*    SEGMENT SET.                                                *PPUTILTY
015300******************************************************************PPUTILTY
015400*                                                                 30620330
015500 01  ROUTE-MSSG-SORT-CODE         PIC X.                          30620330
015600*                                                                 30620330
015700     SKIP2                                                        PPUTILTY
015800*01  DATA-LIST               COPY CPWSXDLT.                       30930413
015900 01  DATA-LIST.              COPY CPWSXDLT.                       30930413
016000     SKIP2                                                        PPUTILTY
016100 01  SEGMENT-HOLD.                                                PPUTILTY
016200*    05 SEG-HOLD                  PICTURE X OCCURS 224 TIMES.     13190159
016300     05 SEG-HOLD                  PICTURE X OCCURS 290 TIMES.     13190159
016400     SKIP1                                                        PPUTILTY
016500******************************************************************PPUTILTY
016600*    SEGMENT-HOLD IS USED IN "POSTDATA" AND CONTAINS THE         *PPUTILTY
016700*    SEGMENT WHICH IS TO BE UPDATED.                             *PPUTILTY
016800******************************************************************PPUTILTY
016900     SKIP1                                                        PPUTILTY
017000 01  DL-FIELD.                                                    PPUTILTY
017100     03 DL-SEGMENT                 PICTURE XX.                    PPUTILTY
017200     03 DL-SER                     PICTURE XX.                    PPUTILTY
017300     SKIP1                                                        PPUTILTY
017400******************************************************************PPUTILTY
017500*    DL-FIELD IS USED BY "DLINSERT"AND "DLSEARCH". IT CONTAINS   *PPUTILTY
017600*    THE  FIELD NUMBER FOR WHICH DL-STATUS IS TO BE              *PPUTILTY
017700*    STORED OR RETRIEVED.                                        *PPUTILTY
017800******************************************************************PPUTILTY
017900     EJECT                                                        PPUTILTY
018000*01  FUNCTION-UTILITY        COPY CPWSXFUT.                       30930413
018100 01  FUNCTION-UTILITY.       COPY CPWSXFUT.                       30930413
018200     EJECT                                                        30890361
018300*PROCEDURE DIVISION.                                              30890361
018400 PROCEDURE DIVISION  USING DL-STATUS                              30890361
018500                           TRAN-RECORD                            30890361
018600                           ROUTE-MSSG-SORT-CODE                   30890361
018700                           DATA-LIST                              30890361
018800                           SEGMENT-HOLD                           30890361
018900                           DL-FIELD                               30890361
019000                           FUNCTION-UTILITY.                      30890361
019100     SKIP1                                                        PPUTILTY
019200     IF ERROR-WRITE-CALL                                          30890361
019300        GO TO ERRWRITE-100                                        30890361
019400     ELSE                                                         30890361
019500     IF DATA-LIST-INSERT-CALL                                     30890361
019600        GO TO DLINSERT-150                                        30890361
019700     ELSE                                                         30890361
019800     IF DATA-LIST-SEARCH-CALL                                     30890361
019900        GO TO DLSEARCH-200                                        30890361
020000     ELSE                                                         30890361
020100     IF POST-DATA-CALL                                            30890361
020200        GO TO POSTDATA-1000                                       30890361
020300     ELSE                                                         30890361
020400         MOVE '*INVALID' TO FUNCTION-UTILITY                      30890361
020500         GOBACK.                                                  30890361
020600     EJECT                                                        30890361
020700******************************************************************PPUTILTY
020800*    "ERRWRITE" HANDLES I/O TO THE ERROR FILE. IT IS NEEDED      *PPUTILTY
020900*    BECAUSE RECORDS ARE WRITTEN TO THE ERROR FILE FROM BOTH     *PPUTILTY
021000*    CONEDIT AND PP310800/POST12 AND PP311200. SINCE PP310800 CANNPPUTILTY
021100*    A FILE (FD) TO CONEDIT SO THAT THEY CAN BOTH USE THE FILE,  *PPUTILTY
021200*    THIS ENTRY POINT EXISTS AND BOTH PP310800 AND CONEDIT CALL   PPUTILTY
021300*    "ERRWRITE" TO WRITE RECORDS TO THE ERROR FILE. THE FILE     *PPUTILTY
021400*    (ERROR FILE) IS      INPUT TO PBP10 WHERE THE ERROR LIST    *PPUTILTY
021500*    IS PRINTED. THE FIRST TIME THIS ROUTINE IS CALLED IT DOES   *PPUTILTY
021600*    NOTHING BUT OPEN THE ERROR FILE. IF THE ERROR RECORD BEING  *PPUTILTY
021700*    PASSED HAS AN SS NUM OF ALL 9'S      THE ERROR FILE IS      *PPUTILTY
021800*    CLOSED. IN ALL OTHER CASES THE ERROR RECORD PASSED IS WRITTE*PPUTILTY
021900*    DIRECTLY TO THE ERROR FILE.                                 *PPUTILTY
022000******************************************************************PPUTILTY
022100     SKIP1                                                        PPUTILTY
022200*****ENTRY 'ERRWRITE' USING TRAN-RECORD.                          30620330
022300*                                                                 30620330
022400**** ENTRY 'ERRWRITE'  USING  TRAN-RECORD  ROUTE-MSSG-SORT-CODE.  30890361
022500     SKIP1                                                        30890361
022600 ERRWRITE-100.                                                    30890361
022700     SKIP1                                                        30890361
022800     IF TRAN-SS-NUM = ALL '9'                                     PPUTILTY
022900          CLOSE ERROR-FILE                                        PPUTILTY
023000          MOVE ZERO TO FIRST-TIME-THRU                            PPUTILTY
023100          MOVE TOTAL-ERRORS-WRITTEN TO TRAN-COUNTER               PPUTILTY
023200          MOVE ZERO TO TOTAL-ERRORS-WRITTEN                       PPUTILTY
023300     ELSE                                                         PPUTILTY
023400     IF FIRST-TIME-THRU = ZERO                                    PPUTILTY
023500          OPEN OUTPUT ERROR-FILE                                  PPUTILTY
023600          MOVE 1 TO FIRST-TIME-THRU                               PPUTILTY
023700     ELSE                                                         PPUTILTY
023800         ADD 1 TO TOTAL-ERRORS-WRITTEN                            30620330
023900         MOVE TRAN-RECORD           TO ERROR-TRAN-REC             30620330
024000         MOVE ROUTE-MSSG-SORT-CODE  TO ERROR-ROUTE-SORT-CODE      30620330
024100         WRITE ERROR-RECORD.                                      30620330
024200*                                                                 30620330
024300*****MOVE TRAN-LENGTH TO ERROR-LENGTH                             30620330
024400*****ADD 1 TO TOTAL-ERRORS-WRITTEN                                30620330
024500*****WRITE ERROR-RECORD FROM TRAN-RECORD.                         30620330
024600     GOBACK.                                                      PPUTILTY
024700     EJECT                                                        PPUTILTY
024800**** ENTRY 'DLINSERT' USING DATA-LIST DL-FIELD DL-STATUS.         30890361
024900     SKIP1                                                        PPUTILTY
025000 DLINSERT-150.                                                    30890361
025100     SKIP1                                                        30890361
025200******************************************************************PPUTILTY
025300*    "DLINSERT" PLACES DATA INTO DATA-LIST. SINCE THE ACTUAL     *PPUTILTY
025400*    CORE FOR DATA-LIST IS ALLOCATED IN THE CALLING PROGRAM,     *PPUTILTY
025500*    (PP310800 OR PP311200) IT IS PASSED TO "DLINSERT". DL-STATUS PPUTILTY
025600*    CONTAINS THE STATUS OF DL-FIELD THAT THE USER WANTS         *PPUTILTY
025700*    STORED IN DATA-LIST. "DLINSERT" SETS DL-STATUS TO ZERO      *PPUTILTY
025800*    IF THE OPERATION IS SUCCESSFUL.                             *PPUTILTY
025900******************************************************************PPUTILTY
026000     SKIP1                                                        PPUTILTY
026100     IF TABLE-POSITION = DATA-TABLE-OCCURS                        PPUTILTY
026200         MOVE 1 TO DL-STATUS                                      PPUTILTY
026300         GO TO DL-RETURN-290.                                     PPUTILTY
026400     SKIP1                                                        PPUTILTY
026500******************************************************************PPUTILTY
026600*    IF THE TABLE IS FULL, WE CAN'T DO ANYTHING SO SET DL-STATUS *PPUTILTY
026700*    TO BAD, AND RETURN.                                         *PPUTILTY
026800*    TO INCREASE THE TABLE, CHANGE THE DATA TABLE IN DATA LIST    PPUTILTY
026900*    AND THE 77 LITERAL FOR DATA-TABLE-OCCURS                     PPUTILTY
027000******************************************************************PPUTILTY
027100     SKIP1                                                        PPUTILTY
027200     MOVE ZERO TO SEG-INDEX.                                      PPUTILTY
027300     PERFORM DL-SEG-SEARCH-230 THRU DL-SEG-EXIT-240.              PPUTILTY
027400     IF SEG-INDEX > DL-SEGMENTS                                   PPUTILTY
027500         MOVE 2 TO DL-STATUS                                      PPUTILTY
027600         GO TO DL-RETURN-290.                                     PPUTILTY
027700     SKIP1                                                        PPUTILTY
027800******************************************************************PPUTILTY
027900*    IF DL-SEG-SEARCH CANNOT GET A MATCH ON SEGMENT TYPE, SEG-IND*PPUTILTY
028000*    WILL EXCEED DL-SEGMENTS; OTHERWISE SEG-INDEX WILL POINT TO  *PPUTILTY
028100*    TO THE PROPER SEGMENT TYPE.                                 *PPUTILTY
028200******************************************************************PPUTILTY
028300     SKIP1                                                        PPUTILTY
028400     PERFORM DL-FIELD-SEARCH-250 THRU DL-FIELD-EXIT-260.          PPUTILTY
028500     IF HOLD-POINT > ZERO                                         PPUTILTY
028600         MOVE DL-STATUS TO DATA-STATUS (HOLD-POINT)               PPUTILTY
028700         MOVE ZERO TO DL-STATUS                                   PPUTILTY
028800         GO TO DL-RETURN-290.                                     PPUTILTY
028900     SKIP1                                                        PPUTILTY
029000******************************************************************PPUTILTY
029100*    DL-FIELD-SEARCH WILL USE PIINT-FIRST (SEG-INDEX) TO START   *PPUTILTY
029200*    A SEARCH OF DATA-TABLE FOR DL-FIELD. IF IT FINDS DL-FIELD   *PPUTILTY
029300*    IT WILL SET HOLD-POINT TO POINT TO IT, OTHERWISE HOLD-      *PPUTILTY
029400*    POINT WILL BE ZERO. IF DL-FIELD IS FOUND      THERE WAS A   *PPUTILTY
029500*    PREVIOUS UPDATE FOR THIS FIELD, SO WE JUST UPDATE THE STATUS*PPUTILTY
029600*    FOR THAT FIELD AND EXIT. IF DL-FIELD IS ZERO      WE MUST   *PPUTILTY
029700*    MAKE A NEW ENTRY IN DATA-TABLE.                             *PPUTILTY
029800******************************************************************PPUTILTY
029900     SKIP1                                                        PPUTILTY
030000     ADD 1 TO TABLE-POSITION.                                     PPUTILTY
030100     MOVE DL-SER TO DATA-FIELD (TABLE-POSITION).                  PPUTILTY
030200     MOVE DL-STATUS TO DATA-STATUS (TABLE-POSITION).              PPUTILTY
030300     MOVE ZERO TO DL-STATUS, POINT-NEXT (TABLE-POSITION).         PPUTILTY
030400     SKIP1                                                        PPUTILTY
030500******************************************************************PPUTILTY
030600*    THE LAST FOUR STATEMENTS MAKE A NEW ENTRY IN DATA-TABLE,    *PPUTILTY
030700*    UPDATE THAT ENTRY, AND SHOW A GOOD RETURN CODE IN DL-STATUS.*PPUTILTY
030800*    THE NEXT TWO STATEMENTS CHAIN THE PREVIOIS ENTRY FOR THIS   *PPUTILTY
030900*    SEGMENT TO THIS ONE (IF THIS IS NOT THE FIRST ONE) BY       *PPUTILTY
031000*    MOVING TABLE-POSITION (WHERE WE JUST PUT THIS ONE) TO       *PPUTILTY
031100*    POINT-NEXT IN THE ENTRY THAT WAS THE LAST ONE. WE           *PPUTILTY
031200*    UPDATE POINT-LAST FOR THIS SEGMENT TO POINT TO THE ONE      *PPUTILTY
031300*    WE JUST ADDED. LASTLY, IF THIS WAS THE FIRST ENTRY FOR      *PPUTILTY
031400*    FOR THIS SEGMENT, WE SET POINT-FIRST FOR THIS SEGMENT       *PPUTILTY
031500*    TO TABLE-POSITION.                                          *PPUTILTY
031600******************************************************************PPUTILTY
031700     SKIP1                                                        PPUTILTY
031800     MOVE POINT-LAST (SEG-INDEX) TO HOLD-POINT.                   PPUTILTY
031900     IF HOLD-POINT NOT = ZERO                                     PPUTILTY
032000         MOVE TABLE-POSITION TO POINT-NEXT (HOLD-POINT).          PPUTILTY
032100     MOVE TABLE-POSITION TO POINT-LAST (SEG-INDEX).               PPUTILTY
032200     IF POINT-FIRST (SEG-INDEX) = ZERO                            PPUTILTY
032300         MOVE TABLE-POSITION TO POINT-FIRST (SEG-INDEX).          PPUTILTY
032400     GO TO DL-RETURN-290.                                         PPUTILTY
032500     EJECT                                                        PPUTILTY
032600**** ENTRY 'DLSEARCH' USING DATA-LIST DL-FIELD DL-STATUS.         30890361
032700     SKIP1                                                        PPUTILTY
032800 DLSEARCH-200.                                                    30890361
032900     SKIP1                                                        30890361
033000******************************************************************PPUTILTY
033100*    THIS ROUTINE RETRIEVES DATA FROM DATA-LIST. IT IS USED      *PPUTILTY
033200*    BY THE CALLER WHEN HE/SHE/IT WANTS TO FIND OUT IF A         *PPUTILTY
033300*    DATA ELEMENT HAS BEEN UPDATED. DL-STATUS IS SET TO          *PPUTILTY
033400*    ZERO IF THE DATA ELEMENT (DL-FIELD) IS NOT FOUND IN         *PPUTILTY
033500*    DATA-TABLE. IF IT IS FOUND      THE STATUS IN DATA-         *PPUTILTY
033600*    TABLE IS MOVED TO DL-STATUS.                                *PPUTILTY
033700******************************************************************PPUTILTY
033800     SKIP1                                                        PPUTILTY
033900     MOVE ZERO TO SEG-INDEX, DL-STATUS.                           PPUTILTY
034000     PERFORM DL-SEG-SEARCH-230 THRU DL-SEG-EXIT-240.              PPUTILTY
034100     IF SEG-INDEX > DL-SEGMENTS                                   PPUTILTY
034200         GO TO DL-RETURN-290.                                     PPUTILTY
034300     SKIP1                                                        PPUTILTY
034400******************************************************************PPUTILTY
034500*    DL-SEG-SEARCH CHECKS SEGMENT-TABLE IN DATA-LIST FOR         *PPUTILTY
034600*    A MATCH ON SEGMENT. IF IT DOESN'T GET A MATCH SEG-INDEX     *PPUTILTY
034700*    WILL EXCEED DL-SEGMENTS. IN THIS CASE WE JUST RETURN SINCE  *PPUTILTY
034800*    DL-STATUS WAS INITIALIZED TO NOT FOUND (ZERO).              *PPUTILTY
034900******************************************************************PPUTILTY
035000     SKIP1                                                        PPUTILTY
035100     PERFORM DL-FIELD-SEARCH-250 THRU DL-FIELD-EXIT-260.          PPUTILTY
035200     IF HOLD-POINT NOT = ZERO                                     PPUTILTY
035300         MOVE DATA-STATUS (HOLD-POINT) TO DL-STATUS.              PPUTILTY
035400     SKIP1                                                        PPUTILTY
035500******************************************************************PPUTILTY
035600*    DL-FIELD-SEARCH SEARCHES DATA-TABLE FOR A HIT ON FIELD      *PPUTILTY
035700*    NUMBER. IF IT GETS A HIT, HOLD-POINT IS NOT ZERO AND WE     *PPUTILTY
035800*    MOVE THE STATUS FROM DATA-TABLE TO DL-STATUS.               *PPUTILTY
035900******************************************************************PPUTILTY
036000     SKIP1                                                        PPUTILTY
036100     GO TO DL-RETURN-290.                                         PPUTILTY
036200     EJECT                                                        PPUTILTY
036300******************************************************************PPUTILTY
036400*    THE NEXT TWO PARA. ARE PERFORMED BY "DLINSERT" AND          *PPUTILTY
036500*    "DLSEARCH". DL-SEG-SEARCH SEARCHES SEGMENT-TABLE            *PPUTILTY
036600*    MATCH WITH DL-SEGMENT IN DL-FIELD. DL-SEGMENTS IS SET BY    *PPUTILTY
036700*    THE CALLING PROGRAM TO THE MAXIMUM NUMBER OF SEGMENTS.      *PPUTILTY
036800*    THIS ROUTINE JUST LOOPS THRU SEGMENT-TABLE UNTIL IT GETS    *PPUTILTY
036900*    A HIT OR SEG-INDEX > DL-SEGMENTS. IF IT GETS A HIT          *PPUTILTY
037000*    SEG-INDEX WILL POINT TO THE PROPER ELEMENT IN SEGMENT-      *PPUTILTY
037100*    TABLE.                                                      *PPUTILTY
037200******************************************************************PPUTILTY
037300     SKIP1                                                        PPUTILTY
037400 DL-SEG-SEARCH-230.                                               PPUTILTY
037500     ADD 1 TO SEG-INDEX.                                          PPUTILTY
037600     IF SEG-INDEX > DL-SEGMENTS                                   PPUTILTY
037700         GO TO DL-SEG-EXIT-240.                                   PPUTILTY
037800     IF SEGMENT-IND (SEG-INDEX) NOT = DL-SEGMENT                  PPUTILTY
037900         GO TO DL-SEG-SEARCH-230.                                 PPUTILTY
038000 DL-SEG-EXIT-240. EXIT.                                           PPUTILTY
038100     SKIP1                                                        PPUTILTY
038200******************************************************************PPUTILTY
038300*    DL-FIELD-SEARCH SEARCHES DATA-TABLE IN DATA-LIST FOR A MATCH*PPUTILTY
038400*    WITH DL-SER IN DL-FIELD. BEFORE THIS ROUTINE IS PERFORMED   *PPUTILTY
038500*    SEG-INDEX WILL POINT TO THE PROPER ENTRY IN SEGMENT-TABLE.  *PPUTILTY
038600*    THIS ROUTINE STARTS SEARCHING DATA-TABLE AT POINT-FIRST     *PPUTILTY
038700*    (SEG-INDEX), CHAINS THRU THE TABLE USING POINT-NEXT AS      *PPUTILTY
038800*    A FORWARD POINTER, AND QUITS WHEN IT GETS A HIT ON FIELD    *PPUTILTY
038900*    NUMBER OR POINT-NEXT IS ZERO. IF HOLD-POINT IS ZERO ON      *PPUTILTY
039000*    EXIT FROM THE ROUTINE,      THE SEARCH WAS NOT SUCCESSFUL.  *PPUTILTY
039100******************************************************************PPUTILTY
039200     SKIP1                                                        PPUTILTY
039300 DL-FIELD-SEARCH-250.                                             PPUTILTY
039400     MOVE POINT-FIRST (SEG-INDEX) TO HOLD-POINT.                  PPUTILTY
039500 DL-TABLE-SEARCH-255.                                             PPUTILTY
039600     IF HOLD-POINT = ZERO OR                                      PPUTILTY
039700     DATA-FIELD (HOLD-POINT) = DL-SER                             PPUTILTY
039800         GO TO DL-FIELD-EXIT-260.                                 PPUTILTY
039900     MOVE POINT-NEXT (HOLD-POINT) TO HOLD-POINT.                  PPUTILTY
040000     GO TO DL-TABLE-SEARCH-255.                                   PPUTILTY
040100 DL-FIELD-EXIT-260. EXIT.                                         PPUTILTY
040200 DL-RETURN-290. GOBACK.                                           PPUTILTY
040300     EJECT                                                        PPUTILTY
040400******************************************************************PPUTILTY
040500*    "POSTDATA" TAKES DATA FROM THE TRANSACTION RECORD THAT      *PPUTILTY
040600*    IS PASSED AND POSTS IT INTO THE SEGMENT THAT IS PASSED.     *PPUTILTY
040700*    THE STARTING POSITION IN THE SEGMENT AND THE DATA           *PPUTILTY
040800*    ELEMENT LENGTH ARE IN THE TRANSACTION RECORD. IF THE        *PPUTILTY
040900*    STARTING POSITION IS ZERO      THE SEGMENT IS A FLOATING    *PPUTILTY
041000*    FIELD SEGMENT WITH THE FOLLOWING FORMAT:                    *PPUTILTY
041100*                                                                *PPUTILTY
041200*      BYTES 001 TO 014 - DELETE BYTE AND KEY                    *PPUTILTY
041300*      BYTES 015 TO 016 - COUNT FIELD FOR SEGMENT                *PPUTILTY
041400*      BYTES 017 TO 018 - FIELD NUMBER FOR FIRST FIELD           *PPUTILTY
041500*      BYTES 019 TO NNN - THE DATA WHERE NNN = 18 +              *PPUTILTY
041600*                         FIELD LENGTH.                          *PPUTILTY
041700*      BYTES AFTER NNN  - ADDITIONAL FIELDS IN THE FORMAT        *PPUTILTY
041800*                         DESCRIBED ABOVE (2 BYTE FIELD NUMBER   *PPUTILTY
041900*                         FOLLWOED BY DATA.                      *PPUTILTY
042000*                                                                *PPUTILTY
042100*    ALL FIELDS STORED IN ANY ONE FLOATING FIELD SEGMENT MUST    *PPUTILTY
042200*    HAVE THE SAME LENGTH. WHEN A FLOATING FIELD IS TO BE        *PPUTILTY
042300*    DELETED THE FIRST BYTE OF DATA IN THE TRANSACTION           *PPUTILTY
042400*    RECORD IS SET TO HEX FF AND THE FIELD IS PHYSICALLY         *PPUTILTY
042500*    REMOVED FROM THE SEGMENT. FOR A CLEAR PICTURE OF          *P*PPUTILTY
042600*    THIS POSTING PROCESS, REFER TO DIAGRAMS IN DOCUMENTATION.   *PPUTILTY
042700******************************************************************PPUTILTY
042800     SKIP1                                                        PPUTILTY
042900*****ENTRY 'POSTDATA' USING SEGMENT-HOLD TRAN-RECORD.             30890361
043000     SKIP1                                                        30890361
043100 POSTDATA-1000.                                                   30890361
043200     SKIP1                                                        30890361
043300     MOVE SEG-HOLD (11)      TO ENTRIES-1.                        PPUTILTY
043400     MOVE SEG-HOLD (12)      TO ENTRIES-2.                        PPUTILTY
043500     IF TRAN-SEGMENT NOT = ENTRY-1                                PPUTILTY
043600*********MOVE 08299          TO TRAN-ERROR-CODE                   30620330
043700*********MOVE 5              TO TRAN-ERROR-SEVERITY               30620330
043800*********WRITE ERROR-RECORD FROM TRAN-RECORD                      30620330
043900         GO TO POST-EXIT-1200.                                    PPUTILTY
044000     MOVE 1 TO DATA-POSITION.                                     PPUTILTY
044100     IF TRAN-START-POS NOT = ZERO                                 PPUTILTY
044200          MOVE TRAN-START-POS TO START-POSITION                   PPUTILTY
044300          GO TO MOVE-FIELD-1060.                                  PPUTILTY
044400     SKIP1                                                        PPUTILTY
044500******************************************************************PPUTILTY
044600*    IF TRAN-START-POS IS NOT ZERO      THIS TRANSACTION IS NOT  *PPUTILTY
044700*    FOR A FLOATING FIELD SEGMENT SO WE GO DIRECTLY TO THE       *PPUTILTY
044800*    MOVE-FIELD PARA.                                            *PPUTILTY
044900*                                                                *PPUTILTY
045000*    IF THE FIRST BYTE OF DATA IS HEX 'FF'      THIS IS A DELETE *PPUTILTY
045100*    SO WE SET SINE TO -1 TO INDICATE THAT WE WILL BE SHIFTING   *PPUTILTY
045200*    DATA IN THE SEGMENT TO THE LEFT TO SQUEEZE OUT THE FIELD WE *PPUTILTY
045300*    ARE DELETING. OTHERWISE WE SET SINE TO +1 TO INDICATE       *PPUTILTY
045400*    A SHIFT RIGHT TO MAKE ROOM FOR A FIELD (MAYBE).             *PPUTILTY
045500******************************************************************PPUTILTY
045600     SKIP1                                                        PPUTILTY
045700     IF TRAN-DATA (1) = HIGH-VALUE                                PPUTILTY
045800          MOVE -1 TO SINE ELSE                                    PPUTILTY
045900          MOVE +1 TO SINE.                                        PPUTILTY
046000     SKIP1                                                        PPUTILTY
046100******************************************************************PPUTILTY
046200*    THE FIRST THING TO FIND OUT IS IF WE HAVE ROOM TO ADD       *PPUTILTY
046300*    ANOTHER FIELD. BYTES 15 AND 16 OF THE SEGMENT ARE MOVED     *PPUTILTY
046400*    TO ENTRIES-3 AND ENTRIES-4 WHICH ARE REDEFINED ON ENTRY-2   *PPUTILTY
046500*    SO THAT ENTRY-2 HAS THE COUNT FIELD. WE COMPUTE THE LAST    *PPUTILTY
046600*    BYTE CURRENTLY BEING USED IN THE SEGMENT BY ADDING TWO TO   *PPUTILTY
046700*    THE FIELD LENGTH (FOR THE FIELD NUMBER), MULTIPLYING BY     *PPUTILTY
046800*    THE NUMBER OF FIELDS AND ADDING 16 FOR DATA AT THE          *PPUTILTY
046900*    BEGINNING OF THE SEGMENT. LAST-DATA-BYTE      HAS THE       *PPUTILTY
047000*    POSITION OF THE LAST BYTE CURRENTLY BEING USED. TO SEE IF WE*PPUTILTY
047100*    CAN ADD ANOTHER FIELD WE ADD TRAN-LENGTH + 2 TO             *PPUTILTY
047200*    LAST-DATA-BYTE. IF THAT'S LESS THAN OR EQUAL TO SEGMENT-    *PPUTILTY
047300*    SIZE      THERE IS ROOM SO WE SET SEGMENT-FULL TO ZERO,     *PPUTILTY
047400*    ELSE WE SET SEGMENT-FULL TO 1. THE LAST SENTENCE IN THIS    *PPUTILTY
047500*    PARA. SETS CODE-BYTE TO ONE BYTE BEFORE THE FIRST FIELD     *PPUTILTY
047600*    NUMBER.                                                     *PPUTILTY
047700******************************************************************PPUTILTY
047800     SKIP1                                                        PPUTILTY
047900     MOVE ZERO TO SEGMENT-FULL                                    PPUTILTY
048000     MOVE SEG-HOLD (15) TO ENTRIES-3.                             PPUTILTY
048100     MOVE SEG-HOLD (16) TO ENTRIES-4.                             PPUTILTY
048200     COMPUTE LAST-DATA-BYTE = 16 + (TRAN-LENGTH + 2) * ENTRY-2.   PPUTILTY
048300     IF LAST-DATA-BYTE + TRAN-LENGTH + 2 > SEGMENT-SIZE           PPUTILTY
048400         IF SINE NOT = -1                                         PPUTILTY
048500          MOVE 1 TO SEGMENT-FULL ELSE                             PPUTILTY
048600          MOVE ZERO TO SEGMENT-FULL.                              PPUTILTY
048700     COMPUTE CODE-BYTE = 16 - TRAN-LENGTH.                        PPUTILTY
048800     SKIP1                                                        PPUTILTY
048900******************************************************************PPUTILTY
049000*    NOW WE LOOP THRU THE FIELD NUMBERS LOOKING FOR A MATCH      *PPUTILTY
049100*    WITH THE FIELD IN TRAN-RECORD. CODE-BYTE IS UPDATED TO      *PPUTILTY
049200*    POINT TO THE FIRST BYTE OF THE NEXT FIELD NUMBER. IF THAT   *PPUTILTY
049300*    IS NOT GRATER THAN LAST-DATA-BYTE WE BRANCH TO CHECK-SER-   *PPUTILTY
049400*    1035. OTHERWISE THAT FIELD DOES NOT EXIST IN THE SEGMENT.   *PPUTILTY
049500*    IF WE ARE TRYING TO DELETE A FIELD OR ADD A FIELD AND THERE *PPUTILTY
049600*    IS NO ROOM, WE POST THE ERROR CONDITION AND EXIT. IF        *PPUTILTY
049700*    THOSE CONDITIONS DON'T EXITS,      WE ARE TRYING TO ADD A   *PPUTILTY
049800*    FIELD AND THE FIELD NUMBER IS LARGER THAN ANY FIELD PRESENTL*PPUTILTY
049900*    IN THE SEGMENT, SO IT WILL GO AT THE END OF THE SEGMENT.    *PPUTILTY
050000*    WE ADJUST CODE-BYTE AND BRANCH.                             *PPUTILTY
050100******************************************************************PPUTILTY
050200     SKIP1                                                        PPUTILTY
050300 FIND-ENTRY-LOOP-1030.                                            PPUTILTY
050400     COMPUTE CODE-BYTE = CODE-BYTE + TRAN-LENGTH + 1.             PPUTILTY
050500     IF CODE-BYTE NOT > LAST-DATA-BYTE                            PPUTILTY
050600          GO TO CHECK-SER-1035.                                   PPUTILTY
050700     IF SINE = -1 OR SEGMENT-FULL = 1                             PPUTILTY
050800          MOVE 11001 TO TRAN-ERROR-CODE                           PPUTILTY
050900          GO TO POST-EXIT-1200.                                   PPUTILTY
051000     ADD 1 TO CODE-BYTE.                                          PPUTILTY
051100     GO TO END-SHIFT-LOOP-1050.                                   PPUTILTY
051200     SKIP1                                                        PPUTILTY
051300******************************************************************PPUTILTY
051400*    AT THIS POINT WE WANT TO COMPARE THE FIELD NUMBER THAT WE   *PPUTILTY
051500*    ARE CURRENTLY POSITIONED AT IN THE SEGMENT TO TRAN-SER.     *PPUTILTY
051600*    WE MOVE THE TWO BYTES STARTING AT CODE-BYTE TO ENTRIES-1    *PPUTILTY
051700*    AND ENTRIES-2 WHICH ARE REDEFINED ON ENTRY-1 SO ENTRY-1     *PPUTILTY
051800*    HAS THE FIELD NUMBER WE ARE POSITIONED AT. WE COMPARE       *PPUTILTY
051900*    THAT TO TRAN-SER. IF IT'S LESS THAN TRAN-SER WE MUST CONTINU*PPUTILTY
052000*    OUR SEARCH DOWN THE SEGMENT SO WE BRANCH BACK TO FIND-      *PPUTILTY
052100*    ENTRY-LOOP-1030. IF IT'S GREATER THAN TRAN-SER      THE     *PPUTILTY
052200*    FIELD WE'RE LOOKING FOR ISN'T IN THE SEGMENT SO WE GO TO    *PPUTILTY
052300*    GREATER-1037. ON EQUAL WE FALL THRU.                        *PPUTILTY
052400******************************************************************PPUTILTY
052500     SKIP1                                                        PPUTILTY
052600 CHECK-SER-1035.                                                  PPUTILTY
052700     MOVE SEG-HOLD (CODE-BYTE) TO ENTRIES-1.                      PPUTILTY
052800     ADD 1 TO CODE-BYTE.                                          PPUTILTY
052900     MOVE SEG-HOLD (CODE-BYTE) TO ENTRIES-2.                      PPUTILTY
053000     IF ENTRY-1 < TRAN-SER                                        PPUTILTY
053100          GO TO FIND-ENTRY-LOOP-1030.                             PPUTILTY
053200     IF ENTRY-1 > TRAN-SER                                        PPUTILTY
053300          GO TO GREATER-1037.                                     PPUTILTY
053400     SKIP1                                                        PPUTILTY
053500******************************************************************PPUTILTY
053600*    HERE WE ARE AT A MATCH, IF SINE IS +1      WE'RE IN ADD/    *PPUTILTY
053700*    UPDATE WHICH IS REALLY AN UPDATE SO WE SET START-POSITION   *PPUTILTY
053800*    TO THE FIRST DATA BYTE FOR THIS FIELD AND BRANCH TO         *PPUTILTY
053900*    MOVE-FIELD-1060.                                            *PPUTILTY
054000******************************************************************PPUTILTY
054100     SKIP1                                                        PPUTILTY
054200     IF SINE = +1                                                 PPUTILTY
054300          COMPUTE START-POSITION = CODE-BYTE + 1                  PPUTILTY
054400          GO TO MOVE-FIELD-1060.                                  PPUTILTY
054500     SKIP1                                                        PPUTILTY
054600******************************************************************PPUTILTY
054700*    AT THIS POINT WE WANT TO DELETE THE FIELD WE ARE POSITIONED *PPUTILTY
054800*    AT. CODE-BYTE IS PRESENTLY AT THE SECOND BYTE OF THE FIELD  *PPUTILTY
054900*    NUMBER. WE FIRST SUBTRACT ONE FROM ENTRY-2 TO DECREMENT THE *PPUTILTY
055000*    FIELD COUNT. NEXT WE CHECK TO SEE IF WE'RE LDELETING THE    *PPUTILTY
055100*    LAST FIELD. IF IT IS THE LAST FIELD WE DON'T HAVE TO SHIFT  *PPUTILTY
055200*    ANY DATA. WE JUST ZERO OUT THAT FIELD NUMBER AND BRANCH     *PPUTILTY
055300*    TO THE END. IF IT ISN'T THE LAST FIELD      WE HAVE TO      *PPUTILTY
055400*    SHIFT SOME DATA OT THE LEFT TO SQUEEZE OUT THE FIELD WE     *PPUTILTY
055500*    WANT DELETED. WE ARE GOING TO SHIFT LEFT STARTING AT        *PPUTILTY
055600*    START-MOVE AND ENDING AT END-MOVE. THIS IS ALL THE DATA     *PPUTILTY
055700*    TO THE LEFT OF THE DATA WE WANT SQUEEZED OUT. HENCE END-MOVE*PPUTILTY
055800*    IS SET TO LAST-DATA-BYTE AND START-MOVE IS SET TO THE FIRST *PPUTILTY
055900*    BYTE OT THE RIGHT OF THE FIELD TO BE DELETED. WE      BRANCH*PPUTILTY
056000*    TO THE SHIFT ROUTINE.                                       *PPUTILTY
056100******************************************************************PPUTILTY
056200     SKIP1                                                        PPUTILTY
056300     SUBTRACT 1 FROM ENTRY-2.                                     PPUTILTY
056400     IF CODE-BYTE + TRAN-LENGTH = LAST-DATA-BYTE                  PPUTILTY
056500          MOVE '0' TO SEG-HOLD (CODE-BYTE)                        PPUTILTY
056600          SUBTRACT 1 FROM CODE-BYTE                               PPUTILTY
056700          MOVE '0' TO SEG-HOLD (CODE-BYTE)                        PPUTILTY
056800          GO TO MOVE-BACK-1070.                                   PPUTILTY
056900     MOVE LAST-DATA-BYTE TO END-MOVE.                             PPUTILTY
057000     COMPUTE START-MOVE = CODE-BYTE + TRAN-LENGTH + 1.            PPUTILTY
057100     GO TO SHIFT-LOOP-1040.                                       PPUTILTY
057200     SKIP1                                                        PPUTILTY
057300******************************************************************PPUTILTY
057400*    AT THIS POINT THE FIELD WE'RE LOOKING FOR ISN'T IN THE      *PPUTILTY
057500*    SEGMENT AND WE'RE POSITIONED AT THE FIRST FIELD WHICH       *PPUTILTY
057600*    HAS A FIELD NUMBER HIGHER THAN THE ONE WE'RE LOOKING FOR.   *PPUTILTY
057700*    IF THIS IS A DELETE WE JUST SHOW AN ERROR AND EXIT.         *PPUTILTY
057800*    IF IT ISN'T A DELETE      IT'S AN ADD AND WE HAVE TO MAKE   *PPUTILTY
057900*    ROOM FOR IT BY SHIFTING ALL THE DATA FROM WHERE WE'RE       *PPUTILTY
058000*    NOW POSITIONED TO THE END OF THE SEGMENT TO THE RIGHT. IF   *PPUTILTY
058100*    IF THE SEGMENT IS NOW FULL WE'RE GOING TO BUMP OFF THE LAST *PPUTILTY
058200*    FIELD. IN THAT CASE WE SET START-MOVE AS LAST-DATA-BYTE     *PPUTILTY
058300*    MINUS ONE FIELD'S WORTH AND DECREMENT THE FIELD COUNT.      *PPUTILTY
058400*    OTHERWISE WE SET START-MOVE TO LAST-DATA-BYTE. SINCE CODE-  *PPUTILTY
058500*    BYTE IS NOW AT THE SECOND BYTE OF THE FIELD NUMBER, WE      *PPUTILTY
058600*    SUBSTRACT ONE AND ASSIGN THAT TO END-MOVE.                  *PPUTILTY
058700******************************************************************PPUTILTY
058800     SKIP1                                                        PPUTILTY
058900 GREATER-1037.                                                    PPUTILTY
059000     IF SINE = - 1                                                PPUTILTY
059100          MOVE 11001 TO TRAN-ERROR-CODE                           PPUTILTY
059200          GO TO POST-EXIT-1200.                                   PPUTILTY
059300     IF SEGMENT-FULL = 1                                          PPUTILTY
059400          COMPUTE START-MOVE = LAST-DATA-BYTE - TRAN-LENGTH - 2   PPUTILTY
059500          SUBTRACT 1 FROM ENTRY-2                                 PPUTILTY
059600          ELSE MOVE LAST-DATA-BYTE TO START-MOVE.                 PPUTILTY
059700     COMPUTE END-MOVE = CODE-BYTE - 1.                            PPUTILTY
059800     SKIP1                                                        PPUTILTY
059900******************************************************************PPUTILTY
060000*    HERE WE ACTUALLY PERFORM THE SHIFT. IF SINE IS -1      WE   *PPUTILTY
060100*    SHIFT LEFT TO SQUEEZE OUT A DELETE. IF SINE IS +1 WE SHIFT  *PPUTILTY
060200*    RIGHT TO MAKE ROOM FOR ADD. WE PERFORM THE MOVE A BYTE      *PPUTILTY
060300*    AT A TIME. START-MOVE IS INCREMENTED OR DECREMENTED AS WE   *PPUTILTY
060400*    MOVE ALONG IN THE DIRECTION OF END-MOVE. THE FIRST SENTENCE *PPUTILTY
060500*    DETERMINES WHEN WE ARE DONE. TO-BYTE IS      OFFSET FROM    *PPUTILTY
060600*    START-MOVE BY ONE FIELD'S WORTH (DATA LENGTH + 2 FOR FIELD  *PPUTILTY
060700*    NUMBER) EITHER TO THE RIGHT OR LEFT DEPENDING ON THE VALUE  *PPUTILTY
060800*    OF SINE.      WE MOVE ONE BYTE FROM START-MOVE TO TO-BYTE,  *PPUTILTY
060900*    ADJUST START-MOVE AND REPEAT THE PROCESS.                   *PPUTILTY
061000*                                                                *PPUTILTY
061100*    FOR A DELETE, WE SHIFT LEFT, THE SHIFT STARTS FROM THE LEFT *PPUTILTY
061200*    AND PROCEEDS TO LAST-DATA-BYTE. FOR AN ADD, WE SHIFT TO THE *PPUTILTY
061300*    RIGHT, THE SHIFT STARTS AT LAST-DATA-BYTE AND PROCEEDS TO TH*PPUTILTY
061400*    LEFT.                                                       *PPUTILTY
061500******************************************************************PPUTILTY
061600     SKIP1                                                        PPUTILTY
061700 SHIFT-LOOP-1040.                                                 PPUTILTY
061800     IF (START-MOVE < END-MOVE AND SINE > 0) OR                   PPUTILTY
061900          (START-MOVE > END-MOVE AND SINE < 0)                    PPUTILTY
062000          GO TO END-SHIFT-LOOP-1050.                              PPUTILTY
062100     COMPUTE TO-BYTE = START-MOVE + (TRAN-LENGTH + 2) * SINE.     PPUTILTY
062200     MOVE SEG-HOLD (START-MOVE) TO SEG-HOLD (TO-BYTE).            PPUTILTY
062300     COMPUTE START-MOVE = START-MOVE + (SINE * -1).               PPUTILTY
062400     GO TO SHIFT-LOOP-1040.                                       PPUTILTY
062500     SKIP1                                                        PPUTILTY
062600******************************************************************PPUTILTY
062700*    HERE WE ARE DONE WITH THE SHIFT AND HAVE TO CLEAN UP. IF    *PPUTILTY
062800*    WE DELETED      WE ZERO OUT THE LAST FIELD NUMBER AND       *PPUTILTY
062900*    BRANCH OUT. FOR AN ADD WE HAVE TO MOVE TRAN-SER INTO        *PPUTILTY
063000*    THE SEGMENT. CODE-BYTE IS STILL POSITIONED AT THE SECOND BYT*PPUTILTY
063100*    OF THE FIELD NUMBER WHERE WE'RE GOING TO INSERT. WE MOVE    *PPUTILTY
063200*    TRAN-SER TO ENTRY-1 AND      MOVE THE FIELD NUMBER INTO     *PPUTILTY
063300*    THE SEGMENT ONE BYTE AT A TIME. WE      SET START-POSITION T*PPUTILTY
063400*    THE FIRST DATA BYTE AND INCREMENT ENTRY-2 WHICH IS THE FIELD*PPUTILTY
063500*    COUNTER.                                                    *PPUTILTY
063600******************************************************************PPUTILTY
063700     SKIP1                                                        PPUTILTY
063800 END-SHIFT-LOOP-1050.                                             PPUTILTY
063900     IF SINE < 0                                                  PPUTILTY
064000          COMPUTE CODE-BYTE = 17 + (TRAN-LENGTH + 2) * ENTRY-2    PPUTILTY
064100          MOVE '0' TO SEG-HOLD (CODE-BYTE)                        PPUTILTY
064200          ADD 1 TO CODE-BYTE                                      PPUTILTY
064300          MOVE '0' TO SEG-HOLD (CODE-BYTE)                        PPUTILTY
064400          GO TO MOVE-BACK-1070.                                   PPUTILTY
064500     MOVE TRAN-SER TO ENTRY-1.                                    PPUTILTY
064600     MOVE ENTRIES-2 TO SEG-HOLD (CODE-BYTE).                      PPUTILTY
064700     SUBTRACT 1 FROM CODE-BYTE.                                   PPUTILTY
064800     MOVE ENTRIES-1 TO SEG-HOLD (CODE-BYTE).                      PPUTILTY
064900     COMPUTE START-POSITION = CODE-BYTE + 2.                      PPUTILTY
065000     ADD 1 TO ENTRY-2.                                            PPUTILTY
065100     SKIP1                                                        PPUTILTY
065200******************************************************************PPUTILTY
065300*    HERE WE ACTUALLY MOVE THE DATA FROM TRAN-RECORD INTO THE    *PPUTILTY
065400*    SEGMENT. START-POSITION WILL POINT TO THE FIRST BYTE IN     *PPUTILTY
065500*    THE SEGMENT WHERE THE DATA SHOULD GO. THE LENGTH OF THE MOVE*PPUTILTY
065600*    IS CONTROLLED BY TRAN-LENGHT.                               *PPUTILTY
065700******************************************************************PPUTILTY
065800     SKIP2                                                        PPUTILTY
065900 MOVE-FIELD-1060.                                                 PPUTILTY
066000     MOVE TRAN-DATA (DATA-POSITION) TO                            PPUTILTY
066100          SEG-HOLD (START-POSITION).                              PPUTILTY
066200     ADD 1 TO DATA-POSITION.                                      PPUTILTY
066300     ADD 1 TO START-POSITION.                                     PPUTILTY
066400     IF DATA-POSITION NOT > TRAN-LENGTH                           PPUTILTY
066500          GO TO MOVE-FIELD-1060.                                  PPUTILTY
066600     SKIP1                                                        PPUTILTY
066700******************************************************************PPUTILTY
066800*    IF THIS WAS A FLOATINF FIELD      WE HAVE TO MOVE THE       *PPUTILTY
066900*    FIELD COUNTER BACK INTO THE SEGMENT. THE FIELD COUNTER IS   *PPUTILTY
067000*    IN ENTRY-2 SO WE JUST MOVE THAT BACK TO BYTES 15            *PPUTILTY
067100*    AND 16 IN THE SEGMENT.                                      *PPUTILTY
067200******************************************************************PPUTILTY
067300     SKIP1                                                        PPUTILTY
067400 MOVE-BACK-1070.                                                  PPUTILTY
067500     IF TRAN-START-POS = ZERO                                     PPUTILTY
067600          MOVE ENTRIES-3 TO SEG-HOLD (15)                         PPUTILTY
067700          MOVE ENTRIES-4 TO SEG-HOLD (16).                        PPUTILTY
067800 POST-EXIT-1200. GOBACK.                                          PPUTILTY
067900     SKIP2                                                        PPUTILTY
068000******************************************************************PPUTILTY
068100*                                                                *PPUTILTY
068200*   E N D  S O U R C E ----- PBPUTIL -----                       *PPUTILTY
068300*                                                                *PPUTILTY
068400*   12/29/73 MDZ                                                 *PPUTILTY
068500*                                                                *PPUTILTY
068600******************************************************************PPUTILTY
068700     SKIP2                                                        PPUTILTY
068800     SKIP2                                                        PPUTILTY
068900     EJECT                                                        PPUTILTY
069000     SKIP1                                                        PPUTILTY
069100*                                                                 PPUTILTY
