000010*==========================================================%      DS413
000020*=    PROGRAM: TIMEKEEP                                   =%      DS413
000030*=    CHANGE # DS413        PROJ. REQUEST: IBM OFFLOAD    =%      DS413
000040*=    NAME: R. SWIDERSKI    MODIFICATION DATE: 7/31/89    =%      DS413
000050*=                                                        =%      DS413
000060*=    DESCRIPTION: PROGRAM WAS MODIFIED TO CONFORM        =%      DS413
000070*=    TO COBOL II STANDARDS.                              =%      DS413
000091*==========================================================%      DS413
000100 IDENTIFICATION DIVISION.                                         TIMEKEEP
000200 PROGRAM-ID.  TIMEKEEP.                                           TIMEKEEP
000300 AUTHOR.  R SWIDERSKI.                                            TIMEKEEP
000400 DATE-WRITTEN.  MAY 1988.                                         TIMEKEEP
000500 DATE-COMPILED.                                                   TIMEKEEP
000600*REMARKS.                                                         DS413
000700*    ORIGINAL VERSION WRITTEN AS BLACK ONLINE PROGRAM ON PRIME.   DS413
000800*    MODIFIED VERSION RUNS AS ONLINE PROGRAM ON IBM.              DS413
000900*                                                                 TIMEKEEP
001000 ENVIRONMENT DIVISION.                                            TIMEKEEP
001134 CONFIGURATION SECTION.                                           DS413
001135 SOURCE-COMPUTER.  COPY CPOTXUCS.                                 DS413
001136 OBJECT-COMPUTER.  COPY CPOTXOBJ.                                 DS413
001950 INPUT-OUTPUT SECTION.                                            TIMEKEEP
001951 FILE-CONTROL.                                                    TIMEKEEP
001952*                                                                 TIMEKEEP
001953     COPY CLSLTMKP.                                               TIMEKEEP
001954*                                                                 TIMEKEEP
001955     SELECT INPUT-FILE                                            TIMEKEEP
001956         ASSIGN TO UT-S-INPUT.                                    TIMEKEEP
001957*                                                                 TIMEKEEP
001960     SELECT OUTPUT-FILE                                           TIMEKEEP
002000         ASSIGN TO UT-S-OUTPUT.                                   TIMEKEEP
002100/                                                                 TIMEKEEP
002200 DATA DIVISION.                                                   TIMEKEEP
002300 FILE SECTION.                                                    TIMEKEEP
002400*                                                                 TIMEKEEP
002500     COPY CLFDTMKP.                                               TIMEKEEP
002510 01  TIMEKEEPER-RECORD.                                           DS413
002600     COPY CLWSTMKP.                                               TIMEKEEP
002700*                                                                 TIMEKEEP
002800 FD  INPUT-FILE                                                   TIMEKEEP
002900     RECORDING MODE IS F                                          TIMEKEEP
003000     LABEL RECORDS ARE OMITTED                                    TIMEKEEP
003100     BLOCK CONTAINS 0 RECORDS                                     TIMEKEEP
003200     DATA RECORD IS INPUT-RECORD.                                 TIMEKEEP
003300 01  INPUT-RECORD                PIC X(80).                       TIMEKEEP
003400*                                                                 TIMEKEEP
003500 FD  OUTPUT-FILE                                                  TIMEKEEP
003600     RECORDING MODE IS F                                          TIMEKEEP
003700     LABEL RECORDS ARE OMITTED                                    TIMEKEEP
003800     BLOCK CONTAINS 0 RECORDS                                     TIMEKEEP
003900     DATA RECORD IS OUTPUT-RECORD.                                TIMEKEEP
004000 01  OUTPUT-RECORD               PIC X(80).                       TIMEKEEP
004100/                                                                 TIMEKEEP
004200 WORKING-STORAGE SECTION.                                         TIMEKEEP
004300*                                                                 TIMEKEEP
004400 77  SS                          PIC S9(4)       COMP.            TIMEKEEP
004410*                                                                 TIMEKEEP
004420 01  TODAYS-DATE                 PIC X(6).                        TIMEKEEP
004500*                                                                 TIMEKEEP
004600 01  SWITCHES.                                                    TIMEKEEP
004700     05  INPUT-FILE-EOF-SW       PIC X(3)        VALUE SPACES.    TIMEKEEP
004800         88  AT-END-OF-INPUT-FILE                VALUE 'YES'.     TIMEKEEP
004900     05  FINISHED-PROCESSING-SW  PIC X(3)        VALUE SPACES.    TIMEKEEP
005000         88  FINISHED-PROCESSING                 VALUE 'YES'.     TIMEKEEP
005100     05  TIMEKEEPER-FILE-EOF-SW  PIC X(3)        VALUE SPACES.    TIMEKEEP
005200         88  AT-END-OF-TIMEKEEPER-FILE           VALUE 'YES'.     TIMEKEEP
005300     05  RECORD-IS-BEING-CREATED-SW                               TIMEKEEP
005400                                 PIC X(3)        VALUE SPACES.    TIMEKEEP
005500         88  RECORD-IS-NOT-BEING-CREATED         VALUE SPACES.    TIMEKEEP
005600     05  RECORD-HAS-BEEN-CREATED-SW                               TIMEKEEP
005700                                 PIC X(3)        VALUE SPACES.    TIMEKEEP
005800         88  RECORD-HAS-BEEN-CREATED             VALUE 'YES'.     TIMEKEEP
005900         88  RECORD-HAS-NOT-BEEN-CREATED         VALUE 'NO '.     TIMEKEEP
006000     05  REQUESTED-RECORD-NOT-FOUND-SW                            TIMEKEEP
006100                                 PIC X(3)        VALUE SPACES.    TIMEKEEP
006200         88  REQUESTED-RECORD-NOT-FOUND          VALUE 'YES'.     TIMEKEEP
006300     05  DUPLICATE-KEY-ON-FILE-SW                                 TIMEKEEP
006400                                 PIC X(3)        VALUE SPACES.    TIMEKEEP
006500         88  DUPLICATE-KEY-ON-FILE               VALUE 'YES'.     TIMEKEEP
006600     05  FINISHED-PROCESSING-RECORD-SW                            TIMEKEEP
006700                                 PIC X(3).                        TIMEKEEP
006800         88  FINISHED-PROCESSING-RECORD          VALUE 'YES'.     TIMEKEEP
006900     05  CHANGES-HAVE-BEEN-MADE-SW                                TIMEKEEP
007000                                 PIC X(3).                        TIMEKEEP
007100         88  CHANGES-HAVE-BEEN-MADE              VALUE 'YES'.     TIMEKEEP
007200         88  CHANGES-HAVE-NOT-BEEN-MADE          VALUE 'NO '.     TIMEKEEP
007300     05  RECORD-HAS-BEEN-REWRITTEN-SW                             TIMEKEEP
007400                                 PIC X(3)        VALUE SPACES.    TIMEKEEP
007500         88  RECORD-HAS-BEEN-REWRITTEN           VALUE 'YES'.     TIMEKEEP
007600         88  RECORD-HAS-NOT-BEEN-REWRITTEN       VALUE 'NO '.     TIMEKEEP
007700     05  RECORD-HAS-BEEN-DELETED-SW                               TIMEKEEP
007800                                 PIC X(3)        VALUE SPACES.    TIMEKEEP
007900         88  RECORD-HAS-BEEN-DELETED             VALUE 'YES'.     TIMEKEEP
008000     05  TIMEKEEPER-SEARCH-REQUESTED-SW                           TIMEKEEP
008100                                 PIC X(3)        VALUE SPACES.    TIMEKEEP
008200         88  TIMEKEEPER-SEARCH-REQUESTED         VALUE 'YES'.     TIMEKEEP
008300     05  NAMECODE-SEARCH-REQUESTED-SW                             TIMEKEEP
008400                                 PIC X(3)        VALUE SPACES.    TIMEKEEP
008500         88  NAMECODE-SEARCH-REQUESTED           VALUE 'YES'.     TIMEKEEP
008600     05  DEPTCODE-SEARCH-REQUESTED-SW                             TIMEKEEP
008700                                 PIC X(3)        VALUE SPACES.    TIMEKEEP
008800         88  DEPTCODE-SEARCH-REQUESTED           VALUE 'YES'.     TIMEKEEP
008900     05  MAILCODE-SEARCH-REQUESTED-SW                             TIMEKEEP
009000                                 PIC X(3)        VALUE SPACES.    TIMEKEEP
009100         88  MAILCODE-SEARCH-REQUESTED           VALUE 'YES'.     TIMEKEEP
009200     05  VALID-RESPONSE-SW       PIC X(3).                        TIMEKEEP
009300         88  VALID-RESPONSE-RECEIVED             VALUE 'YES'.     TIMEKEEP
009400*                                                                 TIMEKEEP
009500 77  MAXIMUM-LINES-ON-MENU-SCREEN                                 TIMEKEEP
009600                                 PIC 9(2)        VALUE 17.        TIMEKEEP
009700*                                                                 TIMEKEEP
009800 77  MAXIMUM-LINES-ON-DATA-SCREEN                                 TIMEKEEP
009900                                 PIC 9(2)        VALUE 16.        TIMEKEEP
010000*                                                                 TIMEKEEP
010100 01  INPUT-RECORD-WS.                                             TIMEKEEP
010200     05  FILLER                  PIC X(3).                        TIMEKEEP
010300         88  SELECTION-CODE-IS-VALID             VALUE            TIMEKEEP
010400             'A  ' 'C  ' 'D  ' 'S  ' 'X  '.                       TIMEKEEP
010500         88  ADD-REQUESTED                       VALUE 'A  '.     TIMEKEEP
010600         88  CHANGE-REQUESTED                    VALUE 'C  '.     TIMEKEEP
010700         88  DELETE-REQUESTED                    VALUE 'D  '.     TIMEKEEP
010800         88  SEARCH-REQUESTED                    VALUE 'S  '.     TIMEKEEP
010900         88  END-REQUESTED                       VALUE 'X  '.     TIMEKEEP
011000     05  FILLER                  PIC X(77).                       TIMEKEEP
011100 01  RESPONSE-TO-CHANGE-LINE REDEFINES INPUT-RECORD-WS.           TIMEKEEP
011200     05  FILLER                  PIC X(1).                        TIMEKEEP
011300         88  RESPONSE-TO-CHANGE-IS-VALID         VALUE            TIMEKEEP
011400             '2' '3' '4' 'F'.                                     TIMEKEEP
011500         88  NAME-CHANGE-REQUESTED               VALUE '2'.       TIMEKEEP
011600         88  DEPT-CHANGE-REQUESTED               VALUE '3'.       TIMEKEEP
011700         88  MAILCODE-CHANGE-REQUESTED           VALUE '4'.       TIMEKEEP
011800     05  FILLER                  PIC X(79).                       TIMEKEEP
011900 01  RESPONSE-TO-PROMPT REDEFINES INPUT-RECORD-WS.                TIMEKEEP
012000     05  FILLER                  PIC X(3).                        TIMEKEEP
012100         88  RESPONSE-TO-PROMPT-IS-VALID         VALUE            TIMEKEEP
012200             'YES' SPACES.                                        TIMEKEEP
012300         88  RESPONSE-WAS-AFFIRMATIVE            VALUE 'YES'.     TIMEKEEP
012400     05  FILLER                  PIC X(77).                       TIMEKEEP
012500 01  RESPONSE-TO-SEARCH-LINE REDEFINES INPUT-RECORD-WS.           TIMEKEEP
012600     05  FILLER                  PIC X(1).                        TIMEKEEP
012700         88  RESPONSE-TO-SEARCH-IS-VALID         VALUE            TIMEKEEP
012800             '1' '2' '3' '4' 'X'.                                 TIMEKEEP
012900         88  TIMEKEEPER-SEARCH-INDICATED         VALUE '1'.       TIMEKEEP
013000         88  NAME-SEARCH-INDICATED               VALUE '2'.       TIMEKEEP
013100         88  DEPT-SEARCH-INDICATED               VALUE '3'.       TIMEKEEP
013200         88  MAILCODE-SEARCH-INDICATED           VALUE '4'.       TIMEKEEP
013300     05  FILLER                  PIC X(79).                       TIMEKEEP
013400 01  TIMEKEEPER-LINE REDEFINES INPUT-RECORD-WS.                   TIMEKEEP
013500     05  TIMEKEEPER-CODE-ENTERED.                                 TIMEKEEP
013600         10  FIRST-6-CHARS-OF-TIMEKEEPER                          TIMEKEEP
013700                                 PIC X(6).                        TIMEKEEP
013800         10  FILLER              PIC X(1).                        TIMEKEEP
013900             88  7TH-CHAR-IS-A-HYPHEN          VALUE '-'.         TIMEKEEP
014000         10  LAST-2-CHARS-OF-TIMEKEEPER                           TIMEKEEP
014100                                 PIC X(2).                        TIMEKEEP
014200     05  FILLER                  PIC X(71).                       TIMEKEEP
014300 01  NAME-LINE REDEFINES INPUT-RECORD-WS.                         TIMEKEEP
014400     05  NAME-ENTERED            PIC X(27).                       TIMEKEEP
014500     05  FILLER                  PIC X(53).                       TIMEKEEP
014600 01  DEPT-NAME-LINE REDEFINES INPUT-RECORD-WS.                    TIMEKEEP
014700     05  DEPT-NAME-ENTERED       PIC X(21).                       TIMEKEEP
014800     05  FILLER                  PIC X(59).                       TIMEKEEP
014900 01  MAILCODE-LINE REDEFINES INPUT-RECORD-WS.                     TIMEKEEP
015000     05  MAILCODE-ENTERED.                                        TIMEKEEP
015100         10  FIRST-CHARACTER-OF-MAILCODE                          TIMEKEEP
015200                                 PIC X(1).                        TIMEKEEP
015300         10  SECOND-CHARACTER-OF-MAILCODE                         TIMEKEEP
015400                                 PIC X(1).                        TIMEKEEP
015500             88  SECOND-CHARACTER-IS-A-HYPHEN    VALUE '-'.       TIMEKEEP
015600         10  CHARACTERS-3-4-5-OF-MAILCODE                         TIMEKEEP
015700                                 PIC X(3).                        TIMEKEEP
015800         10  LAST-CHARACTER-OF-MAILCODE                           TIMEKEEP
015900                                 PIC X(1).                        TIMEKEEP
016000     05  FILLER                  PIC X(74).                       TIMEKEEP
016100*                                                                 TIMEKEEP
016200 01  TIMEKEEPER-RECORD-WS.                                        TIMEKEEP
016300     05  TIMEKEEPER-KEY-WS.                                       TIMEKEEP
016400         10  TIMEKEEPER-DEPT-NUMBER-WS                            TIMEKEEP
016500                                 PIC X(6).                        TIMEKEEP
016600         10  TIMEKEEPER-DEPT-SUB-NUMBER-WS                        TIMEKEEP
016700                                 PIC X(2).                        TIMEKEEP
016800     05  TIMEKEEPER-NAME-WS      PIC X(30).                       TIMEKEEP
016900     05  TIMEKEEPER-DEPT-NAME-WS PIC X(30).                       TIMEKEEP
017000     05  TIMEKEEPER-MAILCODE-WS  PIC X(6).                        TIMEKEEP
017100     05  TIMEKEEPER-DATE-WS.                                      TIMEKEEP
017200         10  TIMEKEEPER-YEAR-WS  PIC X(2).                        TIMEKEEP
017300         10  TIMEKEEPER-MONTH-WS PIC X(2).                        TIMEKEEP
017400         10  TIMEKEEPER-DAY-WS   PIC X(2).                        TIMEKEEP
017500*                                                                 TIMEKEEP
017600 01  TIMEKEEPER-CODE-MODIFIED.                                    TIMEKEEP
017700     05  DEPT-NUMBER-MOD-AREA    PIC X(6).                        TIMEKEEP
017800     05  FILLER                  PIC X(1)        VALUE '-'.       TIMEKEEP
017900     05  DEPT-SUB-NUMBER-MOD-AREA                                 TIMEKEEP
018000                                 PIC X(2).                        TIMEKEEP
018100*                                                                 TIMEKEEP
018200 01  MENU-SCREEN.                                                 TIMEKEEP
018300     05  FILLER                  PIC X(80)       VALUE SPACES.    TIMEKEEP
018400     05  FILLER                  PIC X(31)       VALUE SPACES.    TIMEKEEP
018500     05  FILLER                  PIC X(18)       VALUE            TIMEKEEP
018600         'TIMEKEEPER PROGRAM'.                                    TIMEKEEP
018700     05  FILLER                  PIC X(31)       VALUE SPACES.    TIMEKEEP
018800     05  FILLER                  PIC X(80)       VALUE SPACES.    TIMEKEEP
018900     05  FILLER                  PIC X(80)       VALUE SPACES.    TIMEKEEP
019000     05  FILLER                  PIC X(80)       VALUE SPACES.    TIMEKEEP
019100     05  FILLER                  PIC X(10)       VALUE SPACES.    TIMEKEEP
019200     05  FILLER                  PIC X(42)       VALUE            TIMEKEEP
019300         'A) ADD     (ADD RECORD TO TIMEKEEPER FILE)'.            TIMEKEEP
019400     05  FILLER                  PIC X(28)       VALUE SPACES.    TIMEKEEP
019500     05  FILLER                  PIC X(80)       VALUE SPACES.    TIMEKEEP
019600     05  FILLER                  PIC X(10)       VALUE SPACES.    TIMEKEEP
019700     05  FILLER                  PIC X(39)       VALUE            TIMEKEEP
019800         'C) CHANGE  (MODIFY ANY FIELD IN RECORD)'.               TIMEKEEP
019900     05  FILLER                  PIC X(31)       VALUE SPACES.    TIMEKEEP
020000     05  FILLER                  PIC X(80)       VALUE SPACES.    TIMEKEEP
020100     05  FILLER                  PIC X(10)       VALUE SPACES.    TIMEKEEP
020200     05  FILLER                  PIC X(47)       VALUE            TIMEKEEP
020300         'D) DELETE  (DELETE RECORD FROM TIMEKEEPER FILE)'.       TIMEKEEP
020400     05  FILLER                  PIC X(23)       VALUE SPACES.    TIMEKEEP
020500     05  FILLER                  PIC X(80)       VALUE SPACES.    TIMEKEEP
020600     05  FILLER                  PIC X(10)       VALUE SPACES.    TIMEKEEP
020700     05  FILLER                  PIC X(36)       VALUE            TIMEKEEP
020800         'S) SEARCH  (SEARCH FILE FOR RECORDS)'.                  TIMEKEEP
020900     05  FILLER                  PIC X(34)       VALUE SPACES.    TIMEKEEP
021000     05  FILLER                  PIC X(80)       VALUE SPACES.    TIMEKEEP
021100     05  FILLER                  PIC X(10)       VALUE SPACES.    TIMEKEEP
021200     05  FILLER                  PIC X(26)       VALUE            TIMEKEEP
021300         'X) RETURN  (RETURN TO TSO)'.                            TIMEKEEP
021400     05  FILLER                  PIC X(44)       VALUE SPACES.    TIMEKEEP
021500     05  FILLER                  PIC X(80)       VALUE SPACES.    TIMEKEEP
021600     05  FILLER                  PIC X(80)       VALUE SPACES.    TIMEKEEP
021700     05  FILLER                  PIC X(80)       VALUE SPACES.    TIMEKEEP
021800*                                                                 TIMEKEEP
021900 01  MENU-TABLE REDEFINES MENU-SCREEN.                            TIMEKEEP
022000     05  MENU-LINE               OCCURS 17 TIMES                  TIMEKEEP
022100                                 PIC X(80).                       TIMEKEEP
022200*                                                                 TIMEKEEP
022300 01  MENU-SCREEN-PROMPTS.                                         TIMEKEEP
022400     05  PROMPT-TO-ENTER-SELECTION                                TIMEKEEP
022500                                 PIC X(20)       VALUE            TIMEKEEP
022600         'ENTER SELECTION CODE'.                                  TIMEKEEP
022700*                                                                 TIMEKEEP
022800 01  DATA-ENTRY-SCREEN.                                           TIMEKEEP
022900     05  FILLER                  PIC X(80)       VALUE SPACES.    TIMEKEEP
023000     05  FILLER                  PIC X(22)       VALUE SPACES.    TIMEKEEP
023100     05  FILLER                  PIC X(35)       VALUE            TIMEKEEP
023200         'UCSD PAYROLL TIMEKEEPER CODE UPKEEP'.                   TIMEKEEP
023300     05  FILLER                  PIC X(23)       VALUE SPACES.    TIMEKEEP
023400     05  SCREEN-DESCRIPTION-LINE PIC X(80).                       TIMEKEEP
023500     05  FILLER REDEFINES SCREEN-DESCRIPTION-LINE.                TIMEKEEP
023600         10  FILLER              PIC X(33).                       TIMEKEEP
023700         10  FILLER              PIC X(6).                        TIMEKEEP
023800             88  IN-DELETE-SCREEN                VALUE 'DELETE'.  TIMEKEEP
023900         10  FILLER              PIC X(41).                       TIMEKEEP
024000     05  FILLER                  PIC X(80)       VALUE SPACES.    TIMEKEEP
024100     05  FILLER                  PIC X(80)       VALUE SPACES.    TIMEKEEP
024200     05  FILLER                  PIC X(19)       VALUE SPACES.    TIMEKEEP
024300     05  FILLER                  PIC X(21)       VALUE            TIMEKEEP
024400         '1) TIMEKEEPER CODE   '.                                 TIMEKEEP
024500     05  TIMEKEEPER-CODE         PIC X(9).                        TIMEKEEP
024600     05  FILLER                  PIC X(31)       VALUE SPACES.    TIMEKEEP
024700     05  FILLER                  PIC X(80)       VALUE SPACES.    TIMEKEEP
024800     05  FILLER                  PIC X(80)       VALUE SPACES.    TIMEKEEP
024900     05  FILLER                  PIC X(10)       VALUE SPACES.    TIMEKEEP
025000     05  FILLER                  PIC X(16)       VALUE            TIMEKEEP
025100         '2) NAME         '.                                      TIMEKEEP
025200     05  NAME                    PIC X(27).                       TIMEKEEP
025300     05  FILLER                  PIC X(27)       VALUE SPACES.    TIMEKEEP
025400     05  FILLER                  PIC X(80)       VALUE SPACES.    TIMEKEEP
025500     05  FILLER                  PIC X(10)       VALUE SPACES.    TIMEKEEP
025600     05  FILLER                  PIC X(16)       VALUE            TIMEKEEP
025700         '3) DEPARTMENT   '.                                      TIMEKEEP
025800     05  DEPT-NAME               PIC X(20).                       TIMEKEEP
025900     05  FILLER                  PIC X(34)       VALUE SPACES.    TIMEKEEP
026000     05  FILLER                  PIC X(80)       VALUE SPACES.    TIMEKEEP
026100     05  FILLER                  PIC X(10)       VALUE SPACES.    TIMEKEEP
026200     05  FILLER                  PIC X(16)       VALUE            TIMEKEEP
026300         '4) MAIL CODE    '.                                      TIMEKEEP
026400     05  MAILCODE                PIC X(6).                        TIMEKEEP
026500     05  FILLER                  PIC X(48)       VALUE SPACES.    TIMEKEEP
026600     05  FILLER                  PIC X(80)       VALUE SPACES.    TIMEKEEP
026700     05  FILLER                  PIC X(80)       VALUE SPACES.    TIMEKEEP
026800     05  FILLER                  PIC X(80)       VALUE SPACES.    TIMEKEEP
026900*                                                                 TIMEKEEP
027000 01  DATA-ENTRY-TABLE REDEFINES DATA-ENTRY-SCREEN.                TIMEKEEP
027100     05  DATA-ENTRY-LINE         OCCURS 16 TIMES                  TIMEKEEP
027200                                 PIC X(80).                       TIMEKEEP
027300*                                                                 TIMEKEEP
027400 01  ADD-SCREEN-LINE.                                             TIMEKEEP
027500     05  FILLER                  PIC X(35)       VALUE SPACES.    TIMEKEEP
027600     05  FILLER                  PIC X(10)       VALUE            TIMEKEEP
027700         'ADD SCREEN'.                                            TIMEKEEP
027800     05  FILLER                  PIC X(35)       VALUE SPACES.    TIMEKEEP
027900*                                                                 TIMEKEEP
028000 01  CHANGE-SCREEN-LINE.                                          TIMEKEEP
028100     05  FILLER                  PIC X(33)       VALUE SPACES.    TIMEKEEP
028200     05  FILLER                  PIC X(13)       VALUE            TIMEKEEP
028300         'CHANGE SCREEN'.                                         TIMEKEEP
028400     05  FILLER                  PIC X(34)       VALUE SPACES.    TIMEKEEP
028500*                                                                 TIMEKEEP
028600 01  DELETE-SCREEN-LINE.                                          TIMEKEEP
028700     05  FILLER                  PIC X(33)       VALUE SPACES.    TIMEKEEP
028800     05  FILLER                  PIC X(13)       VALUE            TIMEKEEP
028900         'DELETE SCREEN'.                                         TIMEKEEP
029000     05  FILLER                  PIC X(34)       VALUE SPACES.    TIMEKEEP
029100*                                                                 TIMEKEEP
029200 01  SEARCH-SCREEN-LINE.                                          TIMEKEEP
029300     05  FILLER                  PIC X(33)       VALUE SPACES.    TIMEKEEP
029400     05  FILLER                  PIC X(13)       VALUE            TIMEKEEP
029500         'SEARCH SCREEN'.                                         TIMEKEEP
029600     05  FILLER                  PIC X(34)       VALUE SPACES.    TIMEKEEP
029700*                                                                 TIMEKEEP
029800 01  DATA-ENTRY-SCREEN-PROMPTS.                                   TIMEKEEP
029900     05  PROMPT-TO-ENTER-TIMEKEEP-CODE                            TIMEKEEP
030000                                 PIC X(64)       VALUE            TIMEKEEP
030100         'ENTER VALID TIMEKEEPER CODE <999999-99> OR <X> TO RETURNTIMEKEEP
030200-        ' TO MENU'.                                              TIMEKEEP
030300     05  PROMPT-TO-ENTER-NAME    PIC X(40)       VALUE            TIMEKEEP
030400         'ENTER VALID NAME (27 CHARACTERS MAXIMUM)'.              TIMEKEEP
030600     05  PROMPT-TO-ENTER-DEPT    PIC X(46)       VALUE            TIMEKEEP
030700         'ENTER VALID DEPARTMENT (20 CHARACTERS MAXIMUM)'.        TIMEKEEP
030800     05  PROMPT-TO-ENTER-MAILCODE                                 TIMEKEEP
030900                                 PIC X(40)       VALUE            TIMEKEEP
031000         'ENTER VALID MAILCODE <X-999> OR <X-999X>'.              TIMEKEEP
031100     05  PROMPT-TO-WRITE-RECORD  PIC X(67)       VALUE            TIMEKEEP
031200         'ENTER <YES> TO SAVE DISPLAYED RECORD OR <ENTER> KEY TO CTIMEKEEP
031300-        'LEAR SCREEN'.                                           TIMEKEEP
031400     05  PROMPT-FOR-CREATED-RECORD                                TIMEKEEP
031500                                 PIC X(29)       VALUE            TIMEKEEP
031600         'RECORD HAS BEEN ADDED TO FILE'.                         TIMEKEEP
031700     05  PROMPT-FOR-DISGARDED-DATA                                TIMEKEEP
031800                                 PIC X(26)       VALUE            TIMEKEEP
031900         'DATA ENTERED WAS DISGARDED'.                            TIMEKEEP
032000     05  PROMPT-TO-CHANGE-RECORD PIC X(57)       VALUE            TIMEKEEP
032100         'ENTER NUMBER OF FIELD TO BE CHANGED OR <F> IF FINISHED'.TIMEKEEP
032200     05  PROMPT-TO-INDICATE-CHANGE                                TIMEKEEP
032300                                 PIC X(51)       VALUE            TIMEKEEP
032400         'RECORD HAS BEEN CHANGED AND HAS REPLACED OLD RECORD'.   TIMEKEEP
032500     05  PROMPT-TO-INDICATE-NO-CHANGE                             TIMEKEEP
032600                                 PIC X(41)       VALUE            TIMEKEEP
032700         'OLD RECORD UNCHANGED AND IS STILL ON FILE'.             TIMEKEEP
032800     05  PROMPT-FOR-UNWRITTEN-RECORD                              TIMEKEEP
032900                                 PIC X(53)       VALUE            TIMEKEEP
033000         '*** ERROR - OLD RECORD UNCHANGED BUT IS STILL ON FILE'. TIMEKEEP
033100     05  PROMPT-TO-DELETE-RECORD PIC X(69)       VALUE            TIMEKEEP
033200         'ENTER <YES> TO DELETE DISPLAYED RECORD OR <ENTER> KEY TOTIMEKEEP
033300-        ' CLEAR SCREEN'.                                         TIMEKEEP
033400     05  PROMPT-TO-INDICATE-DELETION                              TIMEKEEP
033500                                 PIC X(23)       VALUE            TIMEKEEP
033600         'RECORD HAS BEEN DELETED'.                               TIMEKEEP
033700     05  PROMPT-FOR-SEARCH-FIELD PIC X(64)       VALUE            TIMEKEEP
033800         'ENTER NUMBER OF FIELD TO BE SEARCHED ON OR <X> TO RETURNTIMEKEEP
033900-        ' TO MENU'.                                              TIMEKEEP
034000     05  PROMPT-TO-SEARCH-ON-NAME                                 TIMEKEEP
034100                                 PIC X(48)       VALUE            TIMEKEEP
034200         'ENTER NAME TO SEARCH ON OR <X> TO RETURN TO MENU'.      TIMEKEEP
034300     05  PROMPT-TO-SEARCH-ON-DEPT                                 TIMEKEEP
034400                                 PIC X(48)       VALUE            TIMEKEEP
034500         'ENTER DEPT TO SEARCH ON OR <X> TO RETURN TO MENU'.      TIMEKEEP
034600     05  PROMPT-TO-SEARCH-ON-MAILCODE                             TIMEKEEP
034700                                 PIC X(52)       VALUE            TIMEKEEP
034800         'ENTER MAILCODE TO SEARCH ON OR <X> TO RETURN TO MENU'.  TIMEKEEP
034900     05  PROMPT-TO-INDICATE-END-OF-FILE                           TIMEKEEP
035000                                 PIC X(51)       VALUE            TIMEKEEP
035100         'NO RECORDS LEFT ON FILE - RETURNING TO FIRST RECORD'.   TIMEKEEP
035200     05  PROMPT-FOR-NON-EXTANT-RECORD                             TIMEKEEP
035300                                 PIC X(26)       VALUE            TIMEKEEP
035400         'INDICATED RECORD NOT FOUND'.                            TIMEKEEP
035500     05  PROMPT-TO-INDICATE-NEXT-RECORD                           TIMEKEEP
035600                                 PIC X(42)       VALUE            TIMEKEEP
035700         'NEXT RECORD IN KEYED SEQUENCE IS DISPLAYED'.            TIMEKEEP
035800     05  PROMPT-FOR-EXTANT-RECORD                                 TIMEKEEP
035900                                 PIC X(49)       VALUE            TIMEKEEP
036000         'RECORD WITH SAME TIMEKEEPER CODE CURRENTLY EXISTS'.     TIMEKEEP
036100     05  PROMPT-FOR-INVALID-RESPONSE                              TIMEKEEP
036200                                 PIC X(21)       VALUE            TIMEKEEP
036300         'UNACCEPTABLE RESPONSE'.                                 TIMEKEEP
036400*                                                                 TIMEKEEP
036500 77  TIMEKEEPER-FILE-STATUS      PIC X(2).                        TIMEKEEP
036600     88  I-O-COMPLETED-SUCCESSFULLY              VALUE '00'.      TIMEKEEP
036700     88  NO-RECORD-WITH-KEY-FOUND                VALUE '23'.      TIMEKEEP
036800 PROCEDURE DIVISION.                                              TIMEKEEP
036900*                                                                 TIMEKEEP
037000 MAIN-PROCESS.                                                    TIMEKEEP
037100     PERFORM INITIALIZATION-ROUTINE.                              TIMEKEEP
037200     PERFORM READ-INPUT-FILE.                                     TIMEKEEP
037300     MOVE SPACES TO VALID-RESPONSE-SW.                            TIMEKEEP
037400     PERFORM EDIT-SELECTION-CODE                                  TIMEKEEP
037500         UNTIL VALID-RESPONSE-RECEIVED.                           TIMEKEEP
037600     IF END-REQUESTED                                             TIMEKEEP
037700         NEXT SENTENCE                                            TIMEKEEP
037800     ELSE                                                         TIMEKEEP
037900         PERFORM SCREEN-PROCESSING-ROUTINE                        TIMEKEEP
038000             UNTIL FINISHED-PROCESSING.                           TIMEKEEP
038100     PERFORM WRAPUP-ROUTINE.                                      TIMEKEEP
038200*                                                                 TIMEKEEP
038300 SCREEN-PROCESSING-ROUTINE.                                       TIMEKEEP
038400     MOVE SPACES TO VALID-RESPONSE-SW.                            TIMEKEEP
038500     PERFORM EDIT-SELECTION-CODE                                  TIMEKEEP
038600         UNTIL VALID-RESPONSE-RECEIVED.                           TIMEKEEP
038700     IF ADD-REQUESTED                                             TIMEKEEP
038800         MOVE SPACES TO RECORD-HAS-BEEN-CREATED-SW                TIMEKEEP
038900         PERFORM ADD-RECORD-ROUTINE                               TIMEKEEP
039000             UNTIL END-REQUESTED                                  TIMEKEEP
039100     ELSE                                                         TIMEKEEP
039200     IF CHANGE-REQUESTED                                          TIMEKEEP
039300         PERFORM CHANGE-RECORD-ROUTINE                            TIMEKEEP
039400             UNTIL END-REQUESTED                                  TIMEKEEP
039500     ELSE                                                         TIMEKEEP
039600     IF DELETE-REQUESTED                                          TIMEKEEP
039700         PERFORM DELETE-RECORD-ROUTINE                            TIMEKEEP
039800             UNTIL END-REQUESTED                                  TIMEKEEP
039900     ELSE                                                         TIMEKEEP
040000     IF SEARCH-REQUESTED                                          TIMEKEEP
040100         PERFORM SEARCH-RECORD-ROUTINE                            TIMEKEEP
040200             UNTIL END-REQUESTED                                  TIMEKEEP
040300     ELSE                                                         TIMEKEEP
040400         MOVE 'YES' TO FINISHED-PROCESSING-SW.                    TIMEKEEP
040500     PERFORM CALL-CLRSCRN.                                        TIMEKEEP
040600     PERFORM CLEAR-BOTTOM-OF-MENU-SCREEN.                         TIMEKEEP
040700     MOVE PROMPT-TO-ENTER-SELECTION TO MENU-LINE (17).            TIMEKEEP
040800     PERFORM WRITE-MENU-SCREEN.                                   TIMEKEEP
041000     PERFORM READ-INPUT-FILE.                                     TIMEKEEP
041100     IF END-REQUESTED                                             TIMEKEEP
041200         MOVE 'YES' TO FINISHED-PROCESSING-SW.                    TIMEKEEP
041300/                                                                 TIMEKEEP
041400 ADD-RECORD-ROUTINE.                                              TIMEKEEP
041500     PERFORM CALL-CLRSCRN.                                        TIMEKEEP
041600     PERFORM CLEAR-DATA-ENTRY-SCREEN-FIELDS.                      TIMEKEEP
041700     PERFORM CLEAR-BOTTOM-OF-ENTRY-SCREEN.                        TIMEKEEP
041800     MOVE ADD-SCREEN-LINE TO SCREEN-DESCRIPTION-LINE.             TIMEKEEP
041900     IF DUPLICATE-KEY-ON-FILE                                     TIMEKEEP
042000         MOVE TIMEKEEPER-CODE-ENTERED TO TIMEKEEPER-CODE.         TIMEKEEP
042100     IF DUPLICATE-KEY-ON-FILE                                     TIMEKEEP
042200         MOVE PROMPT-FOR-EXTANT-RECORD TO                         TIMEKEEP
042300             DATA-ENTRY-LINE (15)                                 TIMEKEEP
042400         MOVE SPACES TO DUPLICATE-KEY-ON-FILE-SW.                 TIMEKEEP
042500     IF RECORD-HAS-BEEN-CREATED                                   TIMEKEEP
042600         MOVE PROMPT-FOR-CREATED-RECORD TO DATA-ENTRY-LINE (15)   TIMEKEEP
042700         MOVE SPACES TO RECORD-HAS-BEEN-CREATED-SW                TIMEKEEP
042800     ELSE                                                         TIMEKEEP
042900     IF RECORD-HAS-NOT-BEEN-CREATED                               TIMEKEEP
043000         MOVE PROMPT-FOR-DISGARDED-DATA TO DATA-ENTRY-LINE (15)   TIMEKEEP
043100         MOVE SPACES TO RECORD-HAS-BEEN-CREATED-SW.               TIMEKEEP
043200     MOVE PROMPT-TO-ENTER-TIMEKEEP-CODE TO                        TIMEKEEP
043300         DATA-ENTRY-LINE (16).                                    TIMEKEEP
043400     PERFORM WRITE-DATA-ENTRY-SCREEN.                             TIMEKEEP
043500     PERFORM READ-INPUT-FILE.                                     TIMEKEEP
043600     MOVE SPACES TO VALID-RESPONSE-SW.                            TIMEKEEP
043700     PERFORM EDIT-TIMEKEEPER-CODE                                 TIMEKEEP
043800         UNTIL VALID-RESPONSE-RECEIVED.                           TIMEKEEP
043900     IF END-REQUESTED                                             TIMEKEEP
044000         NEXT SENTENCE                                            TIMEKEEP
044100     ELSE                                                         TIMEKEEP
044200         PERFORM READ-TIMEKEEPER-FILE-RANDOMLY                    TIMEKEEP
044300         IF I-O-COMPLETED-SUCCESSFULLY                            TIMEKEEP
044400             MOVE 'YES' TO DUPLICATE-KEY-ON-FILE-SW               TIMEKEEP
044500         ELSE                                                     TIMEKEEP
044600         IF NO-RECORD-WITH-KEY-FOUND                              TIMEKEEP
044700             MOVE SPACES TO REQUESTED-RECORD-NOT-FOUND-SW         TIMEKEEP
044800             PERFORM CLEAR-BOTTOM-OF-ENTRY-SCREEN                 TIMEKEEP
044900             PERFORM ADD-NAME                                     TIMEKEEP
045000             PERFORM ADD-DEPT-NAME                                TIMEKEEP
045100             MOVE 'YES' TO RECORD-IS-BEING-CREATED-SW             TIMEKEEP
045200             PERFORM ADD-MAILCODE                                 TIMEKEEP
045300             MOVE SPACES TO RECORD-IS-BEING-CREATED-SW            TIMEKEEP
045400             PERFORM CALL-CLRSCRN                                 TIMEKEEP
045500             PERFORM CLEAR-BOTTOM-OF-ENTRY-SCREEN                 TIMEKEEP
045600             MOVE PROMPT-TO-WRITE-RECORD TO DATA-ENTRY-LINE (16)  TIMEKEEP
045700             PERFORM WRITE-DATA-ENTRY-SCREEN                      TIMEKEEP
045800             PERFORM READ-INPUT-FILE                              TIMEKEEP
045900             MOVE SPACES TO VALID-RESPONSE-SW                     TIMEKEEP
046000             PERFORM EDIT-RESPONSE-TO-PROMPT                      TIMEKEEP
046100                 UNTIL VALID-RESPONSE-RECEIVED                    TIMEKEEP
046200             IF RESPONSE-WAS-AFFIRMATIVE                          TIMEKEEP
046210                 ACCEPT TIMEKEEPER-DATE-WS FROM DATE              TIMEKEEP
046300                 PERFORM WRITE-TIMEKEEPER-RECORD                  TIMEKEEP
046400                 MOVE 'YES' TO RECORD-HAS-BEEN-CREATED-SW         TIMEKEEP
046500             ELSE                                                 TIMEKEEP
046600                 MOVE 'NO ' TO RECORD-HAS-BEEN-CREATED-SW.        TIMEKEEP
046700*                                                                 TIMEKEEP
046800 ADD-NAME.                                                        TIMEKEEP
046900     PERFORM CALL-CLRSCRN.                                        TIMEKEEP
047000     MOVE PROMPT-TO-ENTER-NAME TO DATA-ENTRY-LINE (16).           TIMEKEEP
047100     PERFORM WRITE-DATA-ENTRY-SCREEN.                             TIMEKEEP
047200     PERFORM READ-INPUT-FILE.                                     TIMEKEEP
047300     MOVE NAME-ENTERED TO TIMEKEEPER-NAME-WS                      TIMEKEEP
047400                          NAME.                                   TIMEKEEP
047500*                                                                 TIMEKEEP
047600 ADD-DEPT-NAME.                                                   TIMEKEEP
047700     PERFORM CALL-CLRSCRN.                                        TIMEKEEP
047800     MOVE PROMPT-TO-ENTER-DEPT TO DATA-ENTRY-LINE (16).           TIMEKEEP
047900     PERFORM WRITE-DATA-ENTRY-SCREEN.                             TIMEKEEP
048000     PERFORM READ-INPUT-FILE.                                     TIMEKEEP
048100     MOVE DEPT-NAME-ENTERED TO TIMEKEEPER-DEPT-NAME-WS            TIMEKEEP
048200                               DEPT-NAME.                         TIMEKEEP
048300*                                                                 TIMEKEEP
048400 ADD-MAILCODE.                                                    TIMEKEEP
048500     PERFORM CALL-CLRSCRN.                                        TIMEKEEP
048600     MOVE PROMPT-TO-ENTER-MAILCODE TO DATA-ENTRY-LINE (16).       TIMEKEEP
048700     PERFORM WRITE-DATA-ENTRY-SCREEN.                             TIMEKEEP
048800     PERFORM READ-INPUT-FILE.                                     TIMEKEEP
048900     MOVE SPACES TO VALID-RESPONSE-SW.                            TIMEKEEP
049000     PERFORM EDIT-MAILCODE                                        TIMEKEEP
049100         UNTIL VALID-RESPONSE-RECEIVED.                           TIMEKEEP
049200/                                                                 TIMEKEEP
049300 CHANGE-RECORD-ROUTINE.                                           TIMEKEEP
049400     PERFORM CALL-CLRSCRN.                                        TIMEKEEP
049500     PERFORM CLEAR-DATA-ENTRY-SCREEN-FIELDS.                      TIMEKEEP
049600     PERFORM CLEAR-BOTTOM-OF-ENTRY-SCREEN.                        TIMEKEEP
049700     MOVE CHANGE-SCREEN-LINE TO SCREEN-DESCRIPTION-LINE.          TIMEKEEP
049800     IF REQUESTED-RECORD-NOT-FOUND                                TIMEKEEP
049900         MOVE TIMEKEEPER-CODE-ENTERED TO TIMEKEEPER-CODE.         TIMEKEEP
050000     IF REQUESTED-RECORD-NOT-FOUND                                TIMEKEEP
050100         MOVE PROMPT-FOR-NON-EXTANT-RECORD TO                     TIMEKEEP
050200             DATA-ENTRY-LINE (15)                                 TIMEKEEP
050300         MOVE SPACES TO REQUESTED-RECORD-NOT-FOUND-SW             TIMEKEEP
050400     ELSE                                                         TIMEKEEP
050500     IF RECORD-HAS-BEEN-REWRITTEN                                 TIMEKEEP
050600         MOVE PROMPT-TO-INDICATE-CHANGE TO                        TIMEKEEP
050700             DATA-ENTRY-LINE (15)                                 TIMEKEEP
050800     ELSE                                                         TIMEKEEP
050900     IF CHANGES-HAVE-NOT-BEEN-MADE                                TIMEKEEP
051000         MOVE PROMPT-TO-INDICATE-NO-CHANGE TO                     TIMEKEEP
051100             DATA-ENTRY-LINE (15)                                 TIMEKEEP
051200     ELSE                                                         TIMEKEEP
051300     IF RECORD-HAS-NOT-BEEN-REWRITTEN                             TIMEKEEP
051400         MOVE PROMPT-FOR-UNWRITTEN-RECORD TO                      TIMEKEEP
051500             DATA-ENTRY-LINE (15).                                TIMEKEEP
051600     MOVE SPACES TO CHANGES-HAVE-BEEN-MADE-SW                     TIMEKEEP
051700                    RECORD-HAS-BEEN-REWRITTEN-SW.                 TIMEKEEP
051800     MOVE PROMPT-TO-ENTER-TIMEKEEP-CODE TO                        TIMEKEEP
051900         DATA-ENTRY-LINE (16).                                    TIMEKEEP
052000     PERFORM WRITE-DATA-ENTRY-SCREEN.                             TIMEKEEP
052100     PERFORM READ-INPUT-FILE.                                     TIMEKEEP
052200     MOVE SPACES TO VALID-RESPONSE-SW.                            TIMEKEEP
052300     PERFORM EDIT-TIMEKEEPER-CODE                                 TIMEKEEP
052400         UNTIL VALID-RESPONSE-RECEIVED.                           TIMEKEEP
052500     IF END-REQUESTED                                             TIMEKEEP
052600         NEXT SENTENCE                                            TIMEKEEP
052700     ELSE                                                         TIMEKEEP
052800         PERFORM READ-TIMEKEEPER-FILE-RANDOMLY                    TIMEKEEP
052900         IF I-O-COMPLETED-SUCCESSFULLY                            TIMEKEEP
053000             PERFORM CHANGE-RECORD-PROMPT-ROUTINE                 TIMEKEEP
053100             MOVE SPACES TO FINISHED-PROCESSING-RECORD-SW         TIMEKEEP
053200             PERFORM CHANGE-RECORD                                TIMEKEEP
053300                 UNTIL FINISHED-PROCESSING-RECORD                 TIMEKEEP
053310             PERFORM CLEAR-BOTTOM-OF-ENTRY-SCREEN                 TIMEKEEP
053400             MOVE PROMPT-TO-WRITE-RECORD TO DATA-ENTRY-LINE (16)  TIMEKEEP
053500             PERFORM WRITE-LINE16-AND-READ-ROUTINE                TIMEKEEP
053600             MOVE SPACES TO VALID-RESPONSE-SW                     TIMEKEEP
053700             PERFORM EDIT-RESPONSE-TO-PROMPT                      TIMEKEEP
053800                 UNTIL VALID-RESPONSE-RECEIVED                    TIMEKEEP
053900             IF ((RESPONSE-WAS-AFFIRMATIVE) AND                   TIMEKEEP
054000                 (CHANGES-HAVE-BEEN-MADE))                        TIMEKEEP
054010                 ACCEPT TIMEKEEPER-DATE-WS FROM DATE              TIMEKEEP
054100                 PERFORM REWRITE-TIMEKEEPER-RECORD                TIMEKEEP
054200                 IF RECORD-HAS-NOT-BEEN-REWRITTEN                 TIMEKEEP
054300                     MOVE 'NO ' TO RECORD-HAS-BEEN-REWRITTEN-SW   TIMEKEEP
054400                 ELSE                                             TIMEKEEP
054500                     MOVE 'YES' TO RECORD-HAS-BEEN-REWRITTEN-SW.  TIMEKEEP
054600*                                                                 TIMEKEEP
054700 CHANGE-RECORD-PROMPT-ROUTINE.                                    TIMEKEEP
054800     PERFORM CLEAR-BOTTOM-OF-ENTRY-SCREEN.                        TIMEKEEP
054900     MOVE PROMPT-TO-CHANGE-RECORD TO                              TIMEKEEP
055000         DATA-ENTRY-LINE (16).                                    TIMEKEEP
055100     PERFORM DISPLAY-RECORD.                                      TIMEKEEP
055200     PERFORM READ-INPUT-FILE                                      TIMEKEEP
055300     MOVE SPACES TO VALID-RESPONSE-SW.                            TIMEKEEP
055400     PERFORM EDIT-RESPONSE-FOR-CHANGE                             TIMEKEEP
055500         UNTIL VALID-RESPONSE-RECEIVED.                           TIMEKEEP
055600*                                                                 TIMEKEEP
055700 CHANGE-RECORD.                                                   TIMEKEEP
055710     PERFORM CLEAR-BOTTOM-OF-ENTRY-SCREEN.                        TIMEKEEP
055800     PERFORM DISPLAY-RECORD.                                      TIMEKEEP
055900     IF NAME-CHANGE-REQUESTED                                     TIMEKEEP
056000         PERFORM NAME-CHANGE-ROUTINE                              TIMEKEEP
056100         PERFORM CHANGE-RECORD-PROMPT-ROUTINE                     TIMEKEEP
056200     ELSE                                                         TIMEKEEP
056300     IF DEPT-CHANGE-REQUESTED                                     TIMEKEEP
056400         PERFORM DEPT-CHANGE-ROUTINE                              TIMEKEEP
056500         PERFORM CHANGE-RECORD-PROMPT-ROUTINE                     TIMEKEEP
056600     ELSE                                                         TIMEKEEP
056700     IF MAILCODE-CHANGE-REQUESTED                                 TIMEKEEP
056800         PERFORM MAILCODE-CHANGE-ROUTINE                          TIMEKEEP
056900         PERFORM CHANGE-RECORD-PROMPT-ROUTINE                     TIMEKEEP
057000     ELSE                                                         TIMEKEEP
057100         MOVE 'YES' TO FINISHED-PROCESSING-RECORD-SW              TIMEKEEP
057200         PERFORM RECORD-CHANGES-CHECK-ROUTINE.                    TIMEKEEP
057300*                                                                 TIMEKEEP
057400 NAME-CHANGE-ROUTINE.                                             TIMEKEEP
057500     MOVE PROMPT-TO-ENTER-NAME TO DATA-ENTRY-LINE (16).           TIMEKEEP
057600     PERFORM WRITE-LINE16-AND-READ-ROUTINE.                       TIMEKEEP
057700     MOVE NAME-ENTERED TO NAME                                    TIMEKEEP
057800                          TIMEKEEPER-NAME-WS.                     TIMEKEEP
057900*                                                                 TIMEKEEP
058000 DEPT-CHANGE-ROUTINE.                                             TIMEKEEP
058100     MOVE PROMPT-TO-ENTER-DEPT TO DATA-ENTRY-LINE (16).           TIMEKEEP
058200     PERFORM WRITE-LINE16-AND-READ-ROUTINE.                       TIMEKEEP
058300     MOVE DEPT-NAME-ENTERED TO DEPT-NAME                          TIMEKEEP
058400                               TIMEKEEPER-DEPT-NAME-WS.           TIMEKEEP
058500*                                                                 TIMEKEEP
058600 MAILCODE-CHANGE-ROUTINE.                                         TIMEKEEP
058700     MOVE PROMPT-TO-ENTER-MAILCODE TO DATA-ENTRY-LINE (16).       TIMEKEEP
058800     PERFORM WRITE-LINE16-AND-READ-ROUTINE.                       TIMEKEEP
058900     MOVE SPACES TO VALID-RESPONSE-SW.                            TIMEKEEP
059000     PERFORM EDIT-MAILCODE                                        TIMEKEEP
059100         UNTIL VALID-RESPONSE-RECEIVED.                           TIMEKEEP
059200*                                                                 TIMEKEEP
059300 RECORD-CHANGES-CHECK-ROUTINE.                                    TIMEKEEP
059400     IF ((FIRST-6-CHARS-OF-TIMEKEEPER NOT =                       TIMEKEEP
059500              TIMEKEEPER-DEPT-NUMBER-WS) OR                       TIMEKEEP
059600         (LAST-2-CHARS-OF-TIMEKEEPER NOT =                        TIMEKEEP
059700              TIMEKEEPER-DEPT-SUB-NUMBER-WS) OR                   TIMEKEEP
059800         (NAME NOT = TIMEKEEPER-NAME-WS) OR                       TIMEKEEP
059900         (DEPT-NAME NOT = TIMEKEEPER-DEPT-NAME-WS) OR             TIMEKEEP
060000         (MAILCODE NOT = TIMEKEEPER-MAILCODE-WS))                 TIMEKEEP
060100         MOVE 'YES' TO CHANGES-HAVE-BEEN-MADE-SW                  TIMEKEEP
060200     ELSE                                                         TIMEKEEP
060300         MOVE 'NO ' TO CHANGES-HAVE-BEEN-MADE-SW.                 TIMEKEEP
060400/                                                                 TIMEKEEP
060500 DELETE-RECORD-ROUTINE.                                           TIMEKEEP
060600     PERFORM CALL-CLRSCRN.                                        TIMEKEEP
060700     PERFORM CLEAR-DATA-ENTRY-SCREEN-FIELDS.                      TIMEKEEP
060800     PERFORM CLEAR-BOTTOM-OF-ENTRY-SCREEN.                        TIMEKEEP
060900     MOVE DELETE-SCREEN-LINE TO SCREEN-DESCRIPTION-LINE.          TIMEKEEP
061000     IF REQUESTED-RECORD-NOT-FOUND                                TIMEKEEP
061100         MOVE PROMPT-FOR-NON-EXTANT-RECORD TO                     TIMEKEEP
061200             DATA-ENTRY-LINE (15)                                 TIMEKEEP
061300         MOVE SPACES TO REQUESTED-RECORD-NOT-FOUND-SW.            TIMEKEEP
061400     IF RECORD-HAS-BEEN-DELETED                                   TIMEKEEP
061500         MOVE PROMPT-TO-INDICATE-DELETION TO                      TIMEKEEP
061600             DATA-ENTRY-LINE (15)                                 TIMEKEEP
061700         MOVE SPACES TO RECORD-HAS-BEEN-DELETED-SW.               TIMEKEEP
061800     MOVE PROMPT-TO-ENTER-TIMEKEEP-CODE TO                        TIMEKEEP
061900         DATA-ENTRY-LINE (16).                                    TIMEKEEP
062000     PERFORM WRITE-DATA-ENTRY-SCREEN.                             TIMEKEEP
062100     PERFORM READ-INPUT-FILE.                                     TIMEKEEP
062200     MOVE SPACES TO VALID-RESPONSE-SW.                            TIMEKEEP
062300     PERFORM EDIT-TIMEKEEPER-CODE                                 TIMEKEEP
062400         UNTIL VALID-RESPONSE-RECEIVED.                           TIMEKEEP
062500     IF END-REQUESTED                                             TIMEKEEP
062600         NEXT SENTENCE                                            TIMEKEEP
062700     ELSE                                                         TIMEKEEP
062800         PERFORM READ-TIMEKEEPER-FILE-RANDOMLY                    TIMEKEEP
062900         IF I-O-COMPLETED-SUCCESSFULLY                            TIMEKEEP
063000             MOVE PROMPT-TO-DELETE-RECORD TO                      TIMEKEEP
063100                 DATA-ENTRY-LINE (16)                             TIMEKEEP
063200             PERFORM DISPLAY-RECORD                               TIMEKEEP
063300             PERFORM READ-INPUT-FILE                              TIMEKEEP
063400             MOVE SPACES TO VALID-RESPONSE-SW                     TIMEKEEP
063500             PERFORM EDIT-RESPONSE-TO-PROMPT                      TIMEKEEP
063600                 UNTIL VALID-RESPONSE-RECEIVED                    TIMEKEEP
063700             IF RESPONSE-WAS-AFFIRMATIVE                          TIMEKEEP
063800                 PERFORM DELETE-TIMEKEEPER-RECORD                 TIMEKEEP
063900                 IF I-O-COMPLETED-SUCCESSFULLY                    TIMEKEEP
064000                     MOVE 'YES' TO RECORD-HAS-BEEN-DELETED-SW.    TIMEKEEP
064100/                                                                 TIMEKEEP
064200 SEARCH-RECORD-ROUTINE.                                           TIMEKEEP
064300     PERFORM CALL-CLRSCRN.                                        TIMEKEEP
064400     PERFORM CLEAR-DATA-ENTRY-SCREEN-FIELDS.                      TIMEKEEP
064500     PERFORM CLEAR-BOTTOM-OF-ENTRY-SCREEN.                        TIMEKEEP
064600     MOVE SEARCH-SCREEN-LINE TO SCREEN-DESCRIPTION-LINE.          TIMEKEEP
064700     MOVE PROMPT-FOR-SEARCH-FIELD TO                              TIMEKEEP
064800         DATA-ENTRY-LINE (16).                                    TIMEKEEP
064900     PERFORM WRITE-DATA-ENTRY-SCREEN.                             TIMEKEEP
065000     PERFORM READ-INPUT-FILE.                                     TIMEKEEP
065100     MOVE SPACES TO VALID-RESPONSE-SW.                            TIMEKEEP
065200     PERFORM EDIT-RESPONSE-FOR-SEARCH                             TIMEKEEP
065300         UNTIL VALID-RESPONSE-RECEIVED.                           TIMEKEEP
065400     IF END-REQUESTED                                             TIMEKEEP
065500         NEXT SENTENCE                                            TIMEKEEP
065600     ELSE                                                         TIMEKEEP
065900         PERFORM SEARCH-FOR-RECORDS                               TIMEKEEP
066000             UNTIL END-REQUESTED.                                 TIMEKEEP
066100     MOVE SPACES TO TIMEKEEPER-SEARCH-REQUESTED-SW                TIMEKEEP
066200                    NAMECODE-SEARCH-REQUESTED-SW                  TIMEKEEP
066300                    DEPTCODE-SEARCH-REQUESTED-SW                  TIMEKEEP
066400                    MAILCODE-SEARCH-REQUESTED-SW.                 TIMEKEEP
066500*                                                                 TIMEKEEP
066600 SEARCH-FOR-RECORDS.                                              TIMEKEEP
066601     PERFORM CALL-CLRSCRN.                                        TIMEKEEP
066610     PERFORM CLEAR-BOTTOM-OF-ENTRY-SCREEN.                        TIMEKEEP
066700     IF TIMEKEEPER-FILE-STATUS = '10'                             TIMEKEEP
066800         MOVE  PROMPT-TO-INDICATE-END-OF-FILE TO                  TIMEKEEP
066900             DATA-ENTRY-LINE (15)                                 TIMEKEEP
067000         IF TIMEKEEPER-SEARCH-REQUESTED                           TIMEKEEP
067100             MOVE ZEROS TO TIMEKEEPER-KEY                         TIMEKEEP
067200             PERFORM START-ON-TIMEKEEPER-KEY                      TIMEKEEP
067210             PERFORM READ-TIMEKEEPER-FILE-SEQ                     TIMEKEEP
067300         ELSE                                                     TIMEKEEP
067400         IF NAMECODE-SEARCH-REQUESTED                             TIMEKEEP
067500             MOVE SPACES TO TIMEKEEPER-NAME                       TIMEKEEP
067600             PERFORM START-ON-NAMECODE-KEY                        TIMEKEEP
067610             PERFORM READ-TIMEKEEPER-FILE-SEQ                     TIMEKEEP
067700         ELSE                                                     TIMEKEEP
067800         IF DEPTCODE-SEARCH-REQUESTED                             TIMEKEEP
067900             MOVE SPACES TO TIMEKEEPER-DEPT-NAME                  TIMEKEEP
068000             PERFORM START-ON-DEPTCODE-KEY                        TIMEKEEP
068010             PERFORM READ-TIMEKEEPER-FILE-SEQ                     TIMEKEEP
068100         ELSE                                                     TIMEKEEP
068200         IF MAILCODE-SEARCH-REQUESTED                             TIMEKEEP
068300             MOVE 'A' TO FIRST-CHARACTER-OF-MAILCODE              TIMEKEEP
068400             MOVE '-' TO SECOND-CHARACTER-OF-MAILCODE             TIMEKEEP
068500             MOVE ZEROS TO CHARACTERS-3-4-5-OF-MAILCODE           TIMEKEEP
068600             MOVE SPACE TO LAST-CHARACTER-OF-MAILCODE             TIMEKEEP
068700             MOVE MAILCODE-ENTERED TO TIMEKEEPER-MAILCODE         TIMEKEEP
068800             PERFORM START-ON-MAILCODE-KEY                        TIMEKEEP
069000             PERFORM READ-TIMEKEEPER-FILE-SEQ.                    TIMEKEEP
069200     IF NO-RECORD-WITH-KEY-FOUND                                  TIMEKEEP
069300         MOVE SPACES TO REQUESTED-RECORD-NOT-FOUND-SW             TIMEKEEP
069500         MOVE PROMPT-FOR-NON-EXTANT-RECORD TO                     TIMEKEEP
069600             DATA-ENTRY-LINE (14)                                 TIMEKEEP
069700         MOVE PROMPT-TO-INDICATE-NEXT-RECORD TO                   TIMEKEEP
069800             DATA-ENTRY-LINE (15).                                TIMEKEEP
069900     IF TIMEKEEPER-SEARCH-REQUESTED                               TIMEKEEP
070000         MOVE PROMPT-TO-ENTER-TIMEKEEP-CODE TO                    TIMEKEEP
070100             DATA-ENTRY-LINE (16)                                 TIMEKEEP
070200     ELSE                                                         TIMEKEEP
070300     IF NAMECODE-SEARCH-REQUESTED                                 TIMEKEEP
070400         MOVE PROMPT-TO-SEARCH-ON-NAME TO                         TIMEKEEP
070500             DATA-ENTRY-LINE (16)                                 TIMEKEEP
070600     ELSE                                                         TIMEKEEP
070700     IF DEPTCODE-SEARCH-REQUESTED                                 TIMEKEEP
070800         MOVE PROMPT-TO-SEARCH-ON-DEPT TO                         TIMEKEEP
070900             DATA-ENTRY-LINE (16)                                 TIMEKEEP
071000     ELSE                                                         TIMEKEEP
071100     IF MAILCODE-SEARCH-REQUESTED                                 TIMEKEEP
071200         MOVE PROMPT-TO-SEARCH-ON-MAILCODE TO                     TIMEKEEP
071300             DATA-ENTRY-LINE (16).                                TIMEKEEP
071400     PERFORM WRITE-DATA-ENTRY-SCREEN.                             TIMEKEEP
071500     PERFORM READ-INPUT-FILE.                                     TIMEKEEP
071600     IF END-REQUESTED                                             TIMEKEEP
071700         NEXT SENTENCE                                            TIMEKEEP
071800     ELSE                                                         TIMEKEEP
071900     IF TIMEKEEPER-SEARCH-REQUESTED                               TIMEKEEP
072000         IF TIMEKEEPER-LINE NOT = SPACES                          TIMEKEEP
072100             MOVE SPACES TO VALID-RESPONSE-SW                     TIMEKEEP
072200             PERFORM EDIT-TIMEKEEPER-CODE                         TIMEKEEP
072300                 UNTIL VALID-RESPONSE-RECEIVED                    TIMEKEEP
072400             PERFORM START-ON-TIMEKEEPER-KEY                      TIMEKEEP
072500         ELSE                                                     TIMEKEEP
072600             NEXT SENTENCE                                        TIMEKEEP
072700     ELSE                                                         TIMEKEEP
072800     IF NAMECODE-SEARCH-REQUESTED                                 TIMEKEEP
072900         IF NAME-LINE NOT = SPACES                                TIMEKEEP
073000             MOVE NAME-ENTERED TO TIMEKEEPER-NAME                 TIMEKEEP
073100             PERFORM START-ON-NAMECODE-KEY                        TIMEKEEP
073200         ELSE                                                     TIMEKEEP
073300             NEXT SENTENCE                                        TIMEKEEP
073400     ELSE                                                         TIMEKEEP
073500     IF DEPTCODE-SEARCH-REQUESTED                                 TIMEKEEP
073600         IF DEPT-NAME-LINE NOT = SPACES                           TIMEKEEP
073700             MOVE DEPT-NAME-ENTERED TO TIMEKEEPER-DEPT-NAME       TIMEKEEP
073800             PERFORM START-ON-DEPTCODE-KEY                        TIMEKEEP
073900         ELSE                                                     TIMEKEEP
074000             NEXT SENTENCE                                        TIMEKEEP
074100     ELSE                                                         TIMEKEEP
074200     IF MAILCODE-SEARCH-REQUESTED                                 TIMEKEEP
074300         IF MAILCODE-LINE NOT = SPACES                            TIMEKEEP
074400             MOVE SPACES TO VALID-RESPONSE-SW                     TIMEKEEP
074500             PERFORM EDIT-MAILCODE                                TIMEKEEP
074600                 UNTIL VALID-RESPONSE-RECEIVED                    TIMEKEEP
074700             MOVE MAILCODE-ENTERED TO TIMEKEEPER-MAILCODE         TIMEKEEP
074800             PERFORM START-ON-MAILCODE-KEY.                       TIMEKEEP
075000     IF END-REQUESTED OR TIMEKEEPER-FILE-STATUS = '10'            TIMEKEEP
075100         NEXT SENTENCE                                            TIMEKEEP
075200     ELSE                                                         TIMEKEEP
075300         PERFORM READ-TIMEKEEPER-FILE-SEQ                         TIMEKEEP
075810         MOVE TIMEKEEPER-DEPT-NUMBER-WS TO DEPT-NUMBER-MOD-AREA   TIMEKEEP
075820         MOVE TIMEKEEPER-DEPT-SUB-NUMBER-WS TO                    TIMEKEEP
075830             DEPT-SUB-NUMBER-MOD-AREA                             TIMEKEEP
075840         MOVE TIMEKEEPER-CODE-MODIFIED TO TIMEKEEPER-CODE         TIMEKEEP
075850         MOVE TIMEKEEPER-NAME-WS TO NAME                          TIMEKEEP
075860         MOVE TIMEKEEPER-DEPT-NAME-WS TO DEPT-NAME                TIMEKEEP
075870         MOVE TIMEKEEPER-MAILCODE-WS TO MAILCODE.                 TIMEKEEP
075900/                                                                 TIMEKEEP
076000 EDIT-SELECTION-CODE.                                             TIMEKEEP
076100     IF SELECTION-CODE-IS-VALID                                   TIMEKEEP
076200         MOVE 'YES' TO VALID-RESPONSE-SW                          TIMEKEEP
076300     ELSE                                                         TIMEKEEP
076400         PERFORM CALL-CLRSCRN                                     TIMEKEEP
076500         MOVE PROMPT-FOR-INVALID-RESPONSE TO MENU-LINE (16)       TIMEKEEP
076600         MOVE PROMPT-TO-ENTER-SELECTION TO MENU-LINE (17)         TIMEKEEP
076700         PERFORM WRITE-MENU-SCREEN                                TIMEKEEP
076800         PERFORM READ-INPUT-FILE.                                 TIMEKEEP
076900*                                                                 TIMEKEEP
077000 EDIT-RESPONSE-TO-PROMPT.                                         TIMEKEEP
077100     IF RESPONSE-TO-PROMPT-IS-VALID                               TIMEKEEP
077200         MOVE 'YES' TO VALID-RESPONSE-SW                          TIMEKEEP
077300     ELSE                                                         TIMEKEEP
077400         PERFORM CALL-CLRSCRN                                     TIMEKEEP
077500         MOVE PROMPT-FOR-INVALID-RESPONSE TO                      TIMEKEEP
077600             DATA-ENTRY-LINE (15)                                 TIMEKEEP
077700         PERFORM PROMPT-DETERMINATION                             TIMEKEEP
077800         PERFORM WRITE-DATA-ENTRY-SCREEN                          TIMEKEEP
077900         PERFORM READ-INPUT-FILE.                                 TIMEKEEP
078000*                                                                 TIMEKEEP
078100 PROMPT-DETERMINATION.                                            TIMEKEEP
078200     IF IN-DELETE-SCREEN                                          TIMEKEEP
078300         MOVE PROMPT-TO-DELETE-RECORD TO DATA-ENTRY-LINE (16)     TIMEKEEP
078400     ELSE                                                         TIMEKEEP
078500         MOVE PROMPT-TO-WRITE-RECORD TO DATA-ENTRY-LINE (16).     TIMEKEEP
078600*                                                                 TIMEKEEP
078700 EDIT-RESPONSE-FOR-CHANGE.                                        TIMEKEEP
078800     IF RESPONSE-TO-CHANGE-IS-VALID                               TIMEKEEP
078900         MOVE 'YES' TO VALID-RESPONSE-SW                          TIMEKEEP
079000     ELSE                                                         TIMEKEEP
079100         PERFORM CALL-CLRSCRN                                     TIMEKEEP
079200         MOVE PROMPT-FOR-INVALID-RESPONSE TO DATA-ENTRY-LINE (15) TIMEKEEP
079300         MOVE PROMPT-TO-CHANGE-RECORD TO DATA-ENTRY-LINE (16)     TIMEKEEP
079400         PERFORM WRITE-DATA-ENTRY-SCREEN                          TIMEKEEP
079500         PERFORM READ-INPUT-FILE.                                 TIMEKEEP
079600*                                                                 TIMEKEEP
079700 EDIT-RESPONSE-FOR-SEARCH.                                        TIMEKEEP
079800     IF RESPONSE-TO-SEARCH-IS-VALID                               TIMEKEEP
079900         MOVE 'YES' TO VALID-RESPONSE-SW                          TIMEKEEP
080000         IF TIMEKEEPER-SEARCH-INDICATED                           TIMEKEEP
080100             MOVE 'YES' TO TIMEKEEPER-SEARCH-REQUESTED-SW         TIMEKEEP
080200         ELSE                                                     TIMEKEEP
080300         IF NAME-SEARCH-INDICATED                                 TIMEKEEP
080400             MOVE 'YES' TO NAMECODE-SEARCH-REQUESTED-SW           TIMEKEEP
080500         ELSE                                                     TIMEKEEP
080600         IF DEPT-SEARCH-INDICATED                                 TIMEKEEP
080700             MOVE 'YES' TO DEPTCODE-SEARCH-REQUESTED-SW           TIMEKEEP
080800         ELSE                                                     TIMEKEEP
080900         IF MAILCODE-SEARCH-INDICATED                             TIMEKEEP
081000             MOVE 'YES' TO MAILCODE-SEARCH-REQUESTED-SW           TIMEKEEP
081100         ELSE                                                     TIMEKEEP
081200             NEXT SENTENCE                                        TIMEKEEP
081300     ELSE                                                         TIMEKEEP
081400         PERFORM CALL-CLRSCRN                                     TIMEKEEP
081500         MOVE PROMPT-FOR-INVALID-RESPONSE TO                      TIMEKEEP
081600             DATA-ENTRY-LINE (15)                                 TIMEKEEP
081700         MOVE PROMPT-FOR-SEARCH-FIELD TO DATA-ENTRY-LINE (16)     TIMEKEEP
081800         PERFORM WRITE-DATA-ENTRY-SCREEN                          TIMEKEEP
081900         PERFORM READ-INPUT-FILE.                                 TIMEKEEP
082000*                                                                 TIMEKEEP
082100 EDIT-TIMEKEEPER-CODE.                                            TIMEKEEP
082200     IF END-REQUESTED                                             TIMEKEEP
082300         MOVE 'YES' TO VALID-RESPONSE-SW                          TIMEKEEP
082400     ELSE                                                         TIMEKEEP
082500     IF ((FIRST-6-CHARS-OF-TIMEKEEPER NUMERIC) AND                TIMEKEEP
082600         (7TH-CHAR-IS-A-HYPHEN) AND                               TIMEKEEP
082700         (LAST-2-CHARS-OF-TIMEKEEPER NUMERIC))                    TIMEKEEP
082800         MOVE TIMEKEEPER-CODE-ENTERED TO TIMEKEEPER-CODE          TIMEKEEP
082900         MOVE FIRST-6-CHARS-OF-TIMEKEEPER TO                      TIMEKEEP
083000             TIMEKEEPER-DEPT-NUMBER-WS                            TIMEKEEP
083100         MOVE LAST-2-CHARS-OF-TIMEKEEPER TO                       TIMEKEEP
083200             TIMEKEEPER-DEPT-SUB-NUMBER-WS                        TIMEKEEP
083300         MOVE TIMEKEEPER-KEY-WS TO TIMEKEEPER-KEY                 TIMEKEEP
083400         MOVE 'YES' TO VALID-RESPONSE-SW                          TIMEKEEP
083500     ELSE                                                         TIMEKEEP
083600         PERFORM CALL-CLRSCRN                                     TIMEKEEP
083700         MOVE TIMEKEEPER-CODE-ENTERED TO TIMEKEEPER-CODE          TIMEKEEP
083800         MOVE PROMPT-FOR-INVALID-RESPONSE TO DATA-ENTRY-LINE (15) TIMEKEEP
083900         MOVE PROMPT-TO-ENTER-TIMEKEEP-CODE TO                    TIMEKEEP
084000             DATA-ENTRY-LINE (16)                                 TIMEKEEP
084100         PERFORM WRITE-DATA-ENTRY-SCREEN                          TIMEKEEP
084200         PERFORM READ-INPUT-FILE.                                 TIMEKEEP
084300*                                                                 TIMEKEEP
084400 EDIT-MAILCODE.                                                   TIMEKEEP
084500     IF (((FIRST-CHARACTER-OF-MAILCODE ALPHABETIC) AND            TIMEKEEP
084600          (FIRST-CHARACTER-OF-MAILCODE NOT = SPACE))              TIMEKEEP
084700         AND                                                      TIMEKEEP
084800         (SECOND-CHARACTER-IS-A-HYPHEN)                           TIMEKEEP
084900         AND                                                      TIMEKEEP
085000         (CHARACTERS-3-4-5-OF-MAILCODE NUMERIC)                   TIMEKEEP
085100         AND                                                      TIMEKEEP
085200         (LAST-CHARACTER-OF-MAILCODE ALPHABETIC))                 TIMEKEEP
085300         MOVE MAILCODE-ENTERED TO TIMEKEEPER-MAILCODE-WS          TIMEKEEP
085400                                  MAILCODE                        TIMEKEEP
085500         MOVE 'YES' TO VALID-RESPONSE-SW                          TIMEKEEP
085600     ELSE                                                         TIMEKEEP
085700         PERFORM CALL-CLRSCRN                                     TIMEKEEP
085800         MOVE MAILCODE-ENTERED TO MAILCODE                        TIMEKEEP
085900         MOVE PROMPT-FOR-INVALID-RESPONSE TO DATA-ENTRY-LINE (15) TIMEKEEP
086000         MOVE PROMPT-TO-ENTER-MAILCODE TO DATA-ENTRY-LINE (16)    TIMEKEEP
086100         PERFORM WRITE-DATA-ENTRY-SCREEN                          TIMEKEEP
086200         PERFORM READ-INPUT-FILE.                                 TIMEKEEP
086300/                                                                 TIMEKEEP
086400 INITIALIZATION-ROUTINE.                                          TIMEKEEP
086500     OPEN  INPUT INPUT-FILE                                       TIMEKEEP
086600          OUTPUT OUTPUT-FILE                                      TIMEKEEP
086700             I-O TIMEKEEPER-FILE.                                 TIMEKEEP
086800     MOVE PROMPT-TO-ENTER-SELECTION TO MENU-LINE (17).            TIMEKEEP
086900     PERFORM WRITE-MENU-SCREEN.                                   TIMEKEEP
087000*                                                                 TIMEKEEP
087100 WRAPUP-ROUTINE.                                                  TIMEKEEP
087200     CLOSE INPUT-FILE                                             TIMEKEEP
087300           OUTPUT-FILE                                            TIMEKEEP
087400           TIMEKEEPER-FILE.                                       TIMEKEEP
087500     CALL 'CLRSCRN'.                                              TIMEKEEP
087600     STOP RUN.                                                    TIMEKEEP
087700*                                                                 TIMEKEEP
087800 DISPLAY-RECORD.                                                  TIMEKEEP
087900     PERFORM CALL-CLRSCRN.                                        TIMEKEEP
088000     MOVE TIMEKEEPER-DEPT-NUMBER-WS TO DEPT-NUMBER-MOD-AREA.      TIMEKEEP
088100     MOVE TIMEKEEPER-DEPT-SUB-NUMBER-WS TO                        TIMEKEEP
088200         DEPT-SUB-NUMBER-MOD-AREA.                                TIMEKEEP
088300     MOVE TIMEKEEPER-CODE-MODIFIED TO TIMEKEEPER-CODE.            TIMEKEEP
088400     MOVE TIMEKEEPER-NAME-WS TO NAME.                             TIMEKEEP
088500     MOVE TIMEKEEPER-DEPT-NAME-WS TO DEPT-NAME.                   TIMEKEEP
088600     MOVE TIMEKEEPER-MAILCODE-WS TO MAILCODE.                     TIMEKEEP
088700     PERFORM WRITE-DATA-ENTRY-SCREEN.                             TIMEKEEP
088800*                                                                 TIMEKEEP
088900 CLEAR-DATA-ENTRY-SCREEN-FIELDS.                                  TIMEKEEP
089000     MOVE SPACES TO TIMEKEEPER-CODE                               TIMEKEEP
089100                    NAME                                          TIMEKEEP
089200                    DEPT-NAME                                     TIMEKEEP
089300                    MAILCODE.                                     TIMEKEEP
089400*                                                                 TIMEKEEP
089500 CLEAR-BOTTOM-OF-ENTRY-SCREEN.                                    TIMEKEEP
089600     MOVE SPACES TO DATA-ENTRY-LINE (14)                          TIMEKEEP
089700                    DATA-ENTRY-LINE (15)                          TIMEKEEP
089800                    DATA-ENTRY-LINE (16).                         TIMEKEEP
089810*                                                                 TIMEKEEP
089820 CLEAR-BOTTOM-OF-MENU-SCREEN.                                     TIMEKEEP
089830     MOVE SPACES TO MENU-LINE (16)                                TIMEKEEP
089840                    MENU-LINE (17).                               TIMEKEEP
089900*                                                                 TIMEKEEP
090000 START-ON-TIMEKEEPER-KEY.                                         TIMEKEEP
090100     START TIMEKEEPER-FILE                                        TIMEKEEP
090200         KEY NOT < TIMEKEEPER-KEY                                 TIMEKEEP
090300         INVALID KEY                                              TIMEKEEP
090400             MOVE 'YES' TO REQUESTED-RECORD-NOT-FOUND-SW.         TIMEKEEP
090500*                                                                 TIMEKEEP
090600 START-ON-NAMECODE-KEY.                                           TIMEKEEP
090700     START TIMEKEEPER-FILE                                        TIMEKEEP
090800         KEY NOT < TIMEKEEPER-NAME                                TIMEKEEP
090900         INVALID KEY                                              TIMEKEEP
091000             MOVE 'YES' TO REQUESTED-RECORD-NOT-FOUND-SW.         TIMEKEEP
091100*                                                                 TIMEKEEP
091200 START-ON-DEPTCODE-KEY.                                           TIMEKEEP
091300     START TIMEKEEPER-FILE                                        TIMEKEEP
091400         KEY NOT < TIMEKEEPER-DEPT-NAME                           TIMEKEEP
091500         INVALID KEY                                              TIMEKEEP
091600             MOVE 'YES' TO REQUESTED-RECORD-NOT-FOUND-SW.         TIMEKEEP
091700*                                                                 TIMEKEEP
091800 START-ON-MAILCODE-KEY.                                           TIMEKEEP
091900     START TIMEKEEPER-FILE                                        TIMEKEEP
092000         KEY NOT < TIMEKEEPER-MAILCODE                            TIMEKEEP
092100         INVALID KEY                                              TIMEKEEP
092200             MOVE 'YES' TO REQUESTED-RECORD-NOT-FOUND-SW.         TIMEKEEP
092300*                                                                 TIMEKEEP
092400 READ-TIMEKEEPER-FILE-RANDOMLY.                                   TIMEKEEP
092500     READ TIMEKEEPER-FILE INTO TIMEKEEPER-RECORD-WS               TIMEKEEP
092600         INVALID KEY                                              TIMEKEEP
092700             MOVE 'YES' TO REQUESTED-RECORD-NOT-FOUND-SW.         TIMEKEEP
092800*                                                                 TIMEKEEP
092900 READ-TIMEKEEPER-BY-MAILCODE.                                     TIMEKEEP
093000     READ TIMEKEEPER-FILE INTO TIMEKEEPER-RECORD-WS               TIMEKEEP
093100         KEY IS TIMEKEEPER-MAILCODE                               TIMEKEEP
093200         INVALID KEY                                              TIMEKEEP
093300             MOVE 'YES' TO REQUESTED-RECORD-NOT-FOUND-SW.         TIMEKEEP
093400*                                                                 TIMEKEEP
093500 READ-TIMEKEEPER-FILE-SEQ.                                        TIMEKEEP
093600     READ TIMEKEEPER-FILE NEXT INTO TIMEKEEPER-RECORD-WS          TIMEKEEP
093700         AT END                                                   TIMEKEEP
093800             MOVE 'YES' TO TIMEKEEPER-FILE-EOF-SW.                TIMEKEEP
093900*                                                                 TIMEKEEP
094000 READ-INPUT-FILE.                                                 TIMEKEEP
094100     READ INPUT-FILE INTO INPUT-RECORD-WS                         TIMEKEEP
094200         AT END                                                   TIMEKEEP
094300             MOVE 'YES' TO INPUT-FILE-EOF-SW.                     TIMEKEEP
094400*                                                                 TIMEKEEP
094500 WRITE-TIMEKEEPER-RECORD.                                         TIMEKEEP
094600     WRITE TIMEKEEPER-RECORD FROM TIMEKEEPER-RECORD-WS.           TIMEKEEP
094700*                                                                 TIMEKEEP
094800 REWRITE-TIMEKEEPER-RECORD.                                       TIMEKEEP
094900     REWRITE TIMEKEEPER-RECORD FROM TIMEKEEPER-RECORD-WS          TIMEKEEP
095000         INVALID KEY                                              TIMEKEEP
095100             MOVE 'NO ' TO RECORD-HAS-BEEN-REWRITTEN-SW.          TIMEKEEP
095200*                                                                 TIMEKEEP
095300 DELETE-TIMEKEEPER-RECORD.                                        TIMEKEEP
095400     DELETE TIMEKEEPER-FILE                                       TIMEKEEP
095500         INVALID KEY                                              TIMEKEEP
095600             MOVE 'YES' TO REQUESTED-RECORD-NOT-FOUND-SW.         TIMEKEEP
095700*                                                                 TIMEKEEP
095800 WRITE-MENU-SCREEN.                                               TIMEKEEP
095900     MOVE MENU-SCREEN TO MENU-TABLE.                              TIMEKEEP
096000     PERFORM WRITE-MENU-LINE                                      TIMEKEEP
096100         VARYING SS FROM +1 BY +1                                 TIMEKEEP
096200         UNTIL SS > MAXIMUM-LINES-ON-MENU-SCREEN.                 TIMEKEEP
096300*                                                                 TIMEKEEP
096400 WRITE-MENU-LINE.                                                 TIMEKEEP
096500     WRITE OUTPUT-RECORD FROM MENU-LINE (SS).                     TIMEKEEP
096600*                                                                 TIMEKEEP
096700 WRITE-DATA-ENTRY-SCREEN.                                         TIMEKEEP
096800     PERFORM WRITE-DATA-ENTRY-LINE                                TIMEKEEP
096900         VARYING SS FROM +1 BY +1                                 TIMEKEEP
097000         UNTIL SS > MAXIMUM-LINES-ON-DATA-SCREEN.                 TIMEKEEP
097100*                                                                 TIMEKEEP
097200 WRITE-DATA-ENTRY-LINE.                                           TIMEKEEP
097300     WRITE OUTPUT-RECORD FROM DATA-ENTRY-LINE (SS).               TIMEKEEP
097400*                                                                 TIMEKEEP
097500 WRITE-LINE16-AND-READ-ROUTINE.                                   TIMEKEEP
097600     MOVE 16 TO SS.                                               TIMEKEEP
097700     PERFORM WRITE-DATA-ENTRY-LINE.                               TIMEKEEP
097800     PERFORM READ-INPUT-FILE.                                     TIMEKEEP
097900*                                                                 TIMEKEEP
098000 CALL-CLRSCRN.                                                    TIMEKEEP
098100     CALL 'CLRSCRN'.                                              TIMEKEEP
